{
  "implemented": true,
  "name": "Hitmontop",
  "nationalPokedexNumber": 237,
  "primaryType": "fighting",
  "abilities": [
    "intimidate",
    "technician",
    "h:steadfast"
  ],
  "baseStats": {
    "hp": 50,
    "attack": 95,
    "defence": 95,
    "special_attack": 35,
    "special_defence": 110,
    "speed": 70
  },
  "catchRate": 45,
  "maleRatio": 1,
  "shoulderMountable": false,
  "baseExperienceYield": 159,
  "experienceGroup": "medium_fast",
  "eggCycles": 25,
  "eggGroups": [
    "human_like"
  ],
  "drops": {
    "amount": "1",
    "entries": [
      {
        "item": "cobblemon:black_belt",
        "percentage": 5
      }
    ]
  },
  "moves": [
    "1:fakeout",
    "1:feint",
    "1:focusenergy",
    "1:helpinghand",
    "1:pursuit",
    "1:rapidspin",
    "1:rollingkick",
    "1:tackle",
    "4:quickattack",
    "8:gyroball",
    "12:detect",
    "16:revenge",
    "21:quickguard",
    "21:wideguard",
    "24:suckerpunch",
    "28:agility",
    "32:dig",
    "33:triplekick",
    "36:closecombat",
    "40:counter",
    "44:endeavor",
    "tm:aerialace",
    "tm:agility",
    "tm:attract",
    "tm:bodyslam",
    "tm:brickbreak",
    "tm:brutalswing",
    "tm:bulkup",
    "tm:bulldoze",
    "tm:captivate",
    "tm:closecombat",
    "tm:confide",
    "tm:dig",
    "tm:doubleteam",
    "tm:drillrun",
    "tm:earthquake",
    "tm:endure",
    "tm:facade",
    "tm:focusblast",
    "tm:focusenergy",
    "tm:frustration",
    "tm:gyroball",
    "tm:helpinghand",
    "tm:hiddenpower",
    "tm:lowkick",
    "tm:lowsweep",
    "tm:megakick",
    "tm:megapunch",
    "tm:naturalgift",
    "tm:protect",
    "tm:raindance",
    "tm:rest",
    "tm:retaliate",
    "tm:return",
    "tm:revenge",
    "tm:rockslide",
    "tm:rocksmash",
    "tm:round",
    "tm:sandstorm",
    "tm:secretpower",
    "tm:sleeptalk",
    "tm:snore",
    "tm:stoneedge",
    "tm:strength",
    "tm:substitute",
    "tm:sunnyday",
    "tm:swagger",
    "tm:swift",
    "tm:thief",
    "tm:toxic",
    "tm:uproar",
    "tm:workup",
    "tutor:agility",
    "tutor:attract",
    "tutor:bodyslam",
    "tutor:closecombat",
    "tutor:coaching",
    "tutor:counter",
    "tutor:covet",
    "tutor:curse",
    "tutor:detect",
    "tutor:dig",
    "tutor:doubleedge",
    "tutor:doubleteam",
    "tutor:drillrun",
    "tutor:endeavor",
    "tutor:endure",
    "tutor:fakeout",
    "tutor:focusenergy",
    "tutor:frustration",
    "tutor:headbutt",
    "tutor:helpinghand",
    "tutor:hiddenpower",
    "tutor:laserfocus",
    "tutor:lowkick",
    "tutor:megakick",
    "tutor:mimic",
    "tutor:mudslap",
    "tutor:protect",
    "tutor:pursuit",
    "tutor:quickattack",
    "tutor:rapidspin",
    "tutor:rest",
    "tutor:return",
    "tutor:rockslide",
    "tutor:rocksmash",
    "tutor:roleplay",
    "tutor:rollingkick",
    "tutor:rollout",
    "tutor:seismictoss",
    "tutor:sleeptalk",
    "tutor:snore",
    "tutor:strength",
    "tutor:substitute",
    "tutor:suckerpunch",
    "tutor:sunnyday",
    "tutor:swagger",
    "tutor:swift",
    "tutor:thief",
    "tutor:toxic",
    "tutor:tripleaxel",
    "tutor:triplekick",
    "tutor:twister",
    "tutor:vacuumwave"
  ],
  "labels": [
    "gen2"
  ],
  "pokedex": [
    "cobblemon.species.hitmontop.desc"
  ],
  "preEvolution": "tyrogue",
  "evolutions": [],
  "baseScale": 1,
  "hitbox": {
    "width": 0.7,
    "height": 1.4,
    "fixed": false
  },
  "baseFriendship": 50,
  "evYield": {
    "hp": 0,
    "attack": 0,
    "defence": 0,
    "special_attack": 0,
    "special_defence": 2,
    "speed": 0
  },
  "height": 14,
  "weight": 480,
  "aspects": [],
  "cannotDynamax": false
}