{
  "name": "Amaura",
  "nationalPokedexNumber": 698,
  "primaryType": "rock",
  "secondaryType": "ice",
  "abilities": [
    "refrigerate",
    "h:snowwarning"
  ],
  "baseStats": {
    "hp": 77,
    "attack": 59,
    "defence": 50,
    "special_attack": 67,
    "special_defence": 63,
    "speed": 46
  },
  "catchRate": 45,
  "maleRatio": 0.875,
  "shoulderMountable": false,
  "baseExperienceYield": 72,
  "experienceGroup": "medium_fast",
  "eggCycles": 30,
  "eggGroups": [
    "monster"
  ],
  "moves": [
    "1:growl",
    "1:powdersnow",
    "4:encore",
    "8:ancientpower",
    "10:rockthrow",
    "12:icywind",
    "15:takedown",
    "16:round",
    "20:mist",
    "24:aurorabeam",
    "28:thunderwave",
    "32:naturepower",
    "34:avalanche",
    "36:freezedry",
    "40:icebeam",
    "44:lightscreen",
    "48:hail",
    "52:blizzard",
    "56:hyperbeam",
    "egg:auroraveil",
    "egg:barrier",
    "egg:discharge",
    "egg:haze",
    "egg:magnetrise",
    "egg:mirrorcoat",
    "egg:rockthrow",
    "egg:takedown",
    "tm:attract",
    "tm:avalanche",
    "tm:blizzard",
    "tm:bodyslam",
    "tm:bulldoze",
    "tm:calmmind",
    "tm:chargebeam",
    "tm:confide",
    "tm:darkpulse",
    "tm:doubleteam",
    "tm:dragontail",
    "tm:dreameater",
    "tm:earthpower",
    "tm:echoedvoice",
    "tm:encore",
    "tm:endure",
    "tm:facade",
    "tm:flash",
    "tm:flashcannon",
    "tm:frostbreath",
    "tm:frustration",
    "tm:hail",
    "tm:hiddenpower",
    "tm:hyperbeam",
    "tm:hypervoice",
    "tm:icebeam",
    "tm:icywind",
    "tm:irondefense",
    "tm:ironhead",
    "tm:irontail",
    "tm:lightscreen",
    "tm:mudshot",
    "tm:naturepower",
    "tm:outrage",
    "tm:protect",
    "tm:psychup",
    "tm:raindance",
    "tm:reflect",
    "tm:rest",
    "tm:return",
    "tm:roar",
    "tm:rockblast",
    "tm:rockpolish",
    "tm:rockslide",
    "tm:rocksmash",
    "tm:rocktomb",
    "tm:round",
    "tm:safeguard",
    "tm:sandstorm",
    "tm:secretpower",
    "tm:sleeptalk",
    "tm:snore",
    "tm:stealthrock",
    "tm:stoneedge",
    "tm:substitute",
    "tm:swagger",
    "tm:thunderbolt",
    "tm:thunderwave",
    "tm:toxic",
    "tm:weatherball",
    "tm:zenheadbutt",
    "tutor:aquatail",
    "tutor:earthpower",
    "tutor:growl",
    "tutor:hypervoice",
    "tutor:icywind",
    "tutor:irondefense",
    "tutor:ironhead",
    "tutor:irontail",
    "tutor:magnetrise",
    "tutor:meteorbeam",
    "tutor:outrage",
    "tutor:powdersnow",
    "tutor:rockthrow",
    "tutor:snore",
    "tutor:stealthrock",
    "tutor:thunderwave",
    "tutor:waterpulse",
    "tutor:zenheadbutt"
  ],
  "labels": [
    "gen6"
  ],
  "pokedex": [
    "cobblemon.species.amaura.desc"
  ],
  "evolutions": [
    {
      "id": "amaura_aurorus",
      "variant": "level_up",
      "result": "aurorus",
      "consumeHeldItem": false,
      "learnableMoves": [],
      "requirements": [
        {
          "variant": "level",
          "minLevel": 39
        },
        {
          "variant": "time_range",
          "range": "night"
        }
      ]
    }
  ],
  "baseScale": 1,
  "hitbox": {
    "width": 1,
    "height": 1,
    "fixed": false
  },
  "baseFriendship": 50,
  "evYield": {
    "hp": 1,
    "attack": 0,
    "defence": 0,
    "special_attack": 0,
    "special_defence": 0,
    "speed": 0
  },
  "height": 13,
  "weight": 252,
  "aspects": [],
  "cannotDynamax": false
}