{
  "name": "Trevenant",
  "nationalPokedexNumber": 709,
  "primaryType": "ghost",
  "secondaryType": "grass",
  "abilities": [
    "naturalcure",
    "frisk",
    "h:harvest"
  ],
  "baseStats": {
    "hp": 85,
    "attack": 110,
    "defence": 76,
    "special_attack": 65,
    "special_defence": 82,
    "speed": 56
  },
  "catchRate": 60,
  "maleRatio": 0.5,
  "shoulderMountable": false,
  "baseExperienceYield": 166,
  "experienceGroup": "medium_fast",
  "eggCycles": 20,
  "eggGroups": [
    "grass",
    "amorphous"
  ],
  "moves": [
    "1:astonish",
    "1:branchpoke",
    "1:leechseed",
    "1:shadowclaw",
    "1:tackle",
    "12:confuseray",
    "16:willowisp",
    "19:feintattack",
    "20:hex",
    "24:growth",
    "28:hornleech",
    "32:curse",
    "36:phantomforce",
    "40:ingrain",
    "44:woodhammer",
    "48:destinybond",
    "52:forestscurse",
    "tm:allyswitch",
    "tm:attract",
    "tm:brutalswing",
    "tm:bulldoze",
    "tm:calmmind",
    "tm:confide",
    "tm:cut",
    "tm:darkpulse",
    "tm:dig",
    "tm:doubleteam",
    "tm:drainpunch",
    "tm:dreameater",
    "tm:earthquake",
    "tm:endure",
    "tm:energyball",
    "tm:facade",
    "tm:focusblast",
    "tm:foulplay",
    "tm:frustration",
    "tm:gigadrain",
    "tm:gigaimpact",
    "tm:grassknot",
    "tm:hex",
    "tm:hiddenpower",
    "tm:honeclaws",
    "tm:hyperbeam",
    "tm:imprison",
    "tm:leafstorm",
    "tm:magicalleaf",
    "tm:naturepower",
    "tm:phantomforce",
    "tm:poisonjab",
    "tm:poweruppunch",
    "tm:protect",
    "tm:psychic",
    "tm:reflect",
    "tm:rest",
    "tm:return",
    "tm:rockslide",
    "tm:rocksmash",
    "tm:round",
    "tm:safeguard",
    "tm:secretpower",
    "tm:seedbomb",
    "tm:shadowball",
    "tm:shadowclaw",
    "tm:skillswap",
    "tm:sleeptalk",
    "tm:snore",
    "tm:solarbeam",
    "tm:strength",
    "tm:substitute",
    "tm:sunnyday",
    "tm:swagger",
    "tm:thief",
    "tm:toxic",
    "tm:trick",
    "tm:trickroom",
    "tm:venomdrench",
    "tm:willowisp",
    "tm:xscissor",
    "tutor:allyswitch",
    "tutor:block",
    "tutor:drainpunch",
    "tutor:foulplay",
    "tutor:gigadrain",
    "tutor:grassyglide",
    "tutor:magiccoat",
    "tutor:painsplit",
    "tutor:poltergeist",
    "tutor:roleplay",
    "tutor:seedbomb",
    "tutor:skillswap",
    "tutor:skittersmack",
    "tutor:snore",
    "tutor:spite",
    "tutor:telekinesis",
    "tutor:trick",
    "tutor:worryseed"
  ],
  "labels": [
    "gen6"
  ],
  "pokedex": [
    "cobblemon.species.trevenant.desc"
  ],
  "preEvolution": "phantump",
  "evolutions": [],
  "baseScale": 1,
  "hitbox": {
    "width": 1,
    "height": 1,
    "fixed": false
  },
  "baseFriendship": 50,
  "evYield": {
    "hp": 0,
    "attack": 2,
    "defence": 0,
    "special_attack": 0,
    "special_defence": 0,
    "speed": 0
  },
  "height": 15,
  "weight": 710,
  "aspects": [],
  "cannotDynamax": false
}