{
  "type": "minecraft:block",
  "functions": [
    {
      "function": "minecraft:explosion_decay"
    }
  ],
  "pools": [
    {
      "bonus_rolls": 0.0,
      "entries": [
        {
          "type": "minecraft:item",
          "name": "cobblemon:medicinal_leek"
        }
      ],
      "rolls": 1.0
    },
    {
      "bonus_rolls": 0.0,
      "conditions": [
        {
          "block": "cobblemon:medicinal_leek_crop",
          "condition": "minecraft:block_state_property",
          "properties": {
            "age": "3"
          }
        }
      ],
      "entries": [
        {
          "type": "minecraft:item",
          "functions": [
            {
              "enchantment": "minecraft:fortune",
              "formula": "minecraft:binomial_with_bonus_count",
              "function": "minecraft:apply_bonus",
              "parameters": {
                "extra": 1,
                "probability": 0.4285714
              }
            }
          ],
          "name": "cobblemon:medicinal_leek"
        }
      ],
      "rolls": 1.0
    }
  ],
  "random_sequence": "cobblemon:blocks/medicinal_leek_crop"
}