{
  "type": "minecraft:block",
  "pools": [
    {
      "rolls": 1,
      "bonus_rolls": 0,
      "entries": [
        {
          "type": "minecraft:item",
          "name": "cobblemon:pink_mint_seeds"
        }
      ]
    },
    {
      "rolls": 1,
      "entries": [
        {
          "type": "minecraft:item",
          "name": "cobblemon:pink_mint_seeds",
          "conditions": [
            {
              "condition": "minecraft:random_chance",
              "chance": 0.125
            }
          ]
        }
      ],
      "conditions": [
        {
          "condition": "minecraft:block_state_property",
          "block": "cobblemon:pink_mint",
          "properties": {
            "age": "3"
          }
        }
      ]
    },
    {
      "rolls": 1,
      "entries": [
        {
          "type": "minecraft:item",
          "name": "cobblemon:pink_mint_leaf"
        }
      ],
      "conditions": [
        {
          "condition": "minecraft:block_state_property",
          "block": "cobblemon:pink_mint",
          "properties": {
            "age": "3"
          }
        }
      ]
    },
    {
      "rolls": 2,
      "entries": [
        {
          "type": "minecraft:item",
          "name": "cobblemon:pink_mint_leaf",
          "conditions": [
            {
              "condition": "minecraft:random_chance",
              "chance": 0.5
            },
            {
              "condition": "minecraft:block_state_property",
              "block": "cobblemon:pink_mint",
              "properties": {
                "age": "3"
              }
            }
          ]
        }
      ],
      "conditions": [
        {
          "condition": "minecraft:block_state_property",
          "block": "cobblemon:pink_mint",
          "properties": {
            "age": "3"
          }
        }
      ]
    }
  ]
}
