{
	"format_version": "1.8.0",
	"animations": {
		"animation.pidgeot.cry": {
			"animation_length": 1.5,
			"bones": {
				"neck": {
					"rotation": {
						"0.0": [0, 0, 0],
						"0.25": [10, 0, 0],
						"1.25": [10, 0, 0],
						"1.5": [0, 0, 0]
					}
				},
				"head": {
					"rotation": {
						"0.0": [0, 0, 0],
						"0.25": [-15, 0, 0],
						"1.25": [-15, 0, 0],
						"1.5": [0, 0, 0]
					}
				},
				"jaw": {
					"rotation": {
						"0.0": [0, 0, 0],
						"0.25": [42.5, 0, 0],
						"1.25": [42.5, 0, 0],
						"1.5": [0, 0, 0]
					}
				}
			}
		},
		"animation.pidgeot.blink": {
			"animation_length": 0.1667,
			"bones": {
				"eyelid_left": {
					"position": {
						"0.0": [0.1, 0, -0.1],
						"0.125": [0.1, 0, -0.1],
						"0.1667": [0, 0, 0]
					}
				},
				"eyelid_right": {
					"position": {
						"0.0": [-0.1, 0, -0.1],
						"0.125": [-0.1, 0, -0.1],
						"0.1667": [0, 0, 0]
					}
				}
			}
		},
		"animation.pidgeot.ground_idle": {
			"loop": true,
			"bones": {
				"hairstrand": {
					"rotation": [7.5, 0, 12.5]
				},
				"hairstrand2": {
					"rotation": [-17.5, 0, 0]
				},
				"tail": {
					"rotation": [37.5, 0, 0]
				},
				"wing_left": {
					"rotation": [-189.24606, -74.79781, -80.42476],
					"position": [0, -4, -1]
				},
				"wing_left2": {
					"rotation": [0, 45, 0]
				},
				"wing_left3": {
					"rotation": [0, -40, 0]
				},
				"wing_right": {
					"rotation": [-189.24606, 74.79781, 80.42476],
					"position": [0, -4, -1]
				},
				"wing_right2": {
					"rotation": [0, -45, 0]
				},
				"wing_right3": {
					"rotation": [0, 40, 0]
				}
			}
		},
		"animation.pidgeot.air_idle": {
			"loop": true,
			"bones": {
				"wing_left": {
					"rotation": [0, -5, -15]
				},
				"wing_left3": {
					"rotation": [0, -25, 0]
				},
				"tail": {
					"rotation": [40, 0, 0]
				},
				"wing_left2": {
					"rotation": [0, 10, 0]
				},
				"leg_right": {
					"rotation": [15, 0, 0],
					"position": [0, 0.5, 0.25]
				},
				"leg_right2": {
					"rotation": [-60, 0, 0]
				},
				"foot_right": {
					"rotation": [35, 0, 0]
				},
				"claw_back_right": {
					"rotation": [-45, 0, 0]
				},
				"toe_inner_right": {
					"rotation": [45, 0, 0]
				},
				"toe_outer_right": {
					"rotation": [45, 0, 0]
				},
				"claw_outer_right": {
					"rotation": [45, 0, 0]
				},
				"leg_left": {
					"rotation": [15, 0, 0],
					"position": [0, 0.5, 0.25]
				},
				"leg_left2": {
					"rotation": [-60, 0, 0]
				},
				"foot_left": {
					"rotation": [35, 0, 0]
				},
				"toe_back_left": {
					"rotation": [-45, 0, 0]
				},
				"toe_inner_left": {
					"rotation": [45, 0, 0]
				},
				"toe_outer_left": {
					"rotation": [45, 0, 0]
				},
				"body": {
					"rotation": [-10, 0, 0]
				},
				"wing_right": {
					"rotation": [0, 5, 15]
				},
				"wing_right3": {
					"rotation": [0, 25, 0]
				},
				"toe_back_right": {
					"rotation": [-45, 0, 0]
				},
				"claw_inner_right": {
					"rotation": [45, 0, 0]
				},
				"claw_back_left": {
					"rotation": [-45, 0, 0]
				},
				"claw_inner_left": {
					"rotation": [45, 0, 0]
				},
				"claw_outer_left": {
					"rotation": [45, 0, 0]
				},
				"wing_right2": {
					"rotation": [0, -10, 0]
				},
				"hair2": {
					"rotation": [-5, 0, 0]
				},
				"hair3": {
					"rotation": [7.5, 0, 0]
				},
				"hair4": {
					"rotation": [-30, 0, 0]
				},
				"hair5": {
					"rotation": [30, 0, 0]
				},
				"hair6": {
					"rotation": [30, 0, 0]
				},
				"head": {
					"rotation": [5, 0, 0]
				},
				"toe_outer_right2": {
					"rotation": [30, 0, 0]
				},
				"toe_middle_right": {
					"rotation": [45, 0, 0]
				},
				"toe_middle_right2": {
					"rotation": [30, 0, 0]
				},
				"claw_middle_right": {
					"rotation": [45, 0, 0]
				},
				"toe_inner_right2": {
					"rotation": [30, 0, 0]
				},
				"toe_inner_left2": {
					"rotation": [30, 0, 0]
				},
				"toe_middle_left": {
					"rotation": [47.5, 0, 0]
				},
				"toe_middle_left2": {
					"rotation": [30, 0, 0]
				},
				"claw_middle_left": {
					"rotation": [45, 0, 0]
				},
				"toe_outer_left2": {
					"rotation": [30, 0, 0]
				},
				"hair": {
					"rotation": [-7.5, 0, 0],
					"position": [0, 0.73838, 0.28248]
				}
			}
		},
		"animation.pidgeot.air_fly": {
			"loop": true,
			"animation_length": 0.75,
			"bones": {
				"wing_left": {
					"rotation": [0.5, 0, -5]
				},
				"wing_left3": {
					"rotation": [0, -15, 0]
				},
				"torso": {
					"rotation": [2.5, 0, 0]
				},
				"tail": {
					"rotation": [7.5, 0, 0]
				},
				"wing_left2": {
					"rotation": [0, 0, 0]
				},
				"leg_right": {
					"position": [0, 1, 0.25]
				},
				"leg_right2": {
					"rotation": [-60, 0, 0]
				},
				"foot_right": {
					"rotation": [35, 0, 0]
				},
				"claw_back_right": {
					"rotation": [-45, 0, 0]
				},
				"toe_inner_right": {
					"rotation": [45, 0, 0]
				},
				"toe_outer_right": {
					"rotation": [45, 0, 0]
				},
				"claw_outer_right": {
					"rotation": [45, 0, 0]
				},
				"leg_left": {
					"position": [0, 1, 0.25]
				},
				"leg_left2": {
					"rotation": [-65, 0, 0]
				},
				"foot_left": {
					"rotation": [45, 0, 0]
				},
				"toe_back_left": {
					"rotation": [-60, 0, 0]
				},
				"toe_inner_left": {
					"rotation": [45, 0, 0]
				},
				"toe_outer_left": {
					"rotation": [45, 0, 0]
				},
				"body": {
					"rotation": [12.5, 0, 0]
				},
				"head": {
					"rotation": [-75, 0, 0]
				},
				"toe_back_right": {
					"rotation": [-60, 0, 0]
				},
				"claw_inner_right": {
					"rotation": [45, 0, 0]
				},
				"claw_back_left": {
					"rotation": [-45, 0, 0]
				},
				"claw_inner_left": {
					"rotation": [45, 0, 0]
				},
				"claw_outer_left": {
					"rotation": [45, 0, 0]
				},
				"wing_right": {
					"rotation": [0.5, 0, 5]
				},
				"wing_right3": {
					"rotation": [0, 15, 0]
				},
				"neck": {
					"rotation": [63, 0, 0]
				},
				"hair2": {
					"rotation": [0, 0, 0]
				},
				"hair3": {
					"rotation": [47.5, 0, 0]
				},
				"hair4": {
					"rotation": [-15, 0, 0]
				},
				"hair5": {
					"rotation": [15, 0, 0]
				},
				"hair6": {
					"rotation": [15, 0, 0]
				},
				"toe_outer_right2": {
					"rotation": [60, 0, 0]
				},
				"toe_middle_right": {
					"rotation": [45, 0, 0]
				},
				"toe_middle_right2": {
					"rotation": [60, 0, 0]
				},
				"claw_middle_right": {
					"rotation": [45, 0, 0]
				},
				"toe_inner_right2": {
					"rotation": [60, 0, 0]
				},
				"toe_inner_left2": {
					"rotation": [60, 0, 0]
				},
				"toe_middle_left": {
					"rotation": [45, 0, 0]
				},
				"toe_middle_left2": {
					"rotation": [60, 0, 0]
				},
				"claw_middle_left": {
					"rotation": [45, 0, 0]
				},
				"toe_outer_left2": {
					"rotation": [60, 0, 0]
				}
			}
		},
		"animation.pidgeot.sleep": {
			"loop": true,
			"bones": {
				"torso": {
					"rotation": [12.5, 0, 0],
					"position": [0, -3, 0]
				},
				"crest": {
					"rotation": [7.5, 0, 0]
				},
				"eyelid_right": {
					"position": [-0.1, 0, -0.1]
				},
				"eyelid_left": {
					"position": [0.1, 0, -0.1]
				},
				"wing_right": {
					"rotation": [150, 80, 60],
					"position": [0, -0.5, -1]
				},
				"wing_right2": {
					"rotation": [0, -45, 0]
				},
				"wing_right3": {
					"rotation": [-2.5, 67.5, 0]
				},
				"wing_left": {
					"rotation": [150, -80, -60],
					"position": [0, -0.5, -1]
				},
				"wing_left2": {
					"rotation": [0, 45, 0]
				},
				"wing_left3": {
					"rotation": [-2.5, -67.5, 0]
				},
				"tail": {
					"rotation": [50, 0, 0]
				},
				"hair5": {
					"rotation": [30, 0, 0]
				},
				"hair6": {
					"rotation": [30, 0, 0]
				},
				"toe_outer_right": {
					"rotation": [0, -5, 0]
				},
				"toe_inner_right": {
					"rotation": [0, 5, 0]
				},
				"toe_inner_left": {
					"rotation": [0, -5, 0]
				},
				"toe_outer_left": {
					"rotation": [0, 5, 0]
				}
			}
		}
	}
}