{
  "feature": "cobblemon:big_root",
  "placement": [
    {
      "type": "minecraft:count",
      "count": 4
    },
    {
      "type": "minecraft:in_square"
    },
    {
      "type": "cobblemon:beneath_heightmap",
      "heightmap": "OCEAN_FLOOR",
      "offset": -1,
      "reach": 16
    },
    {
      "type": "minecraft:block_predicate_filter",
      "predicate": {
        "type": "minecraft:all_of",
        "predicates": [
          {
            "type": "minecraft:matching_blocks",
            "blocks": "#minecraft:dirt",
            "offset": [0, 1, 0]
          },
          {
            "type": "minecraft:matching_blocks",
            "blocks": "minecraft:air"
          }
        ]
      }
    }
  ]
}