{
  "implemented": true,
  "name": "Lillipup",
  "nationalPokedexNumber": 506,
  "primaryType": "normal",
  "abilities": [
    "vitalspirit",
    "pickup",
    "h:runaway"
  ],
  "baseStats": {
    "hp": 45,
    "attack": 60,
    "defence": 45,
    "special_attack": 25,
    "special_defence": 45,
    "speed": 55
  },
  "catchRate": 255,
  "maleRatio": 0.5,
  "shoulderMountable": false,
  "baseExperienceYield": 55,
  "experienceGroup": "medium_slow",
  "eggCycles": 15,
  "eggGroups": [
    "field"
  ],
  "moves": [
    "1:leer",
    "1:tackle",
    "4:workup",
    "5:odorsleuth",
    "8:bite",
    "12:retaliate",
    "17:babydolleyes",
    "20:playrough",
    "24:crunch",
    "28:takedown",
    "32:helpinghand",
    "36:reversal",
    "40:roar",
    "44:lastresort",
    "48:gigaimpact",
    "egg:afteryou",
    "egg:charm",
    "egg:covet",
    "egg:endure",
    "egg:firefang",
    "egg:howl",
    "egg:icefang",
    "egg:lick",
    "egg:mudslap",
    "egg:psychicfangs",
    "egg:pursuit",
    "egg:sandattack",
    "egg:thunderfang",
    "egg:yawn",
    "tm:aerialace",
    "tm:attract",
    "tm:charm",
    "tm:confide",
    "tm:crunch",
    "tm:dig",
    "tm:doubleteam",
    "tm:endure",
    "tm:facade",
    "tm:firefang",
    "tm:frustration",
    "tm:gigaimpact",
    "tm:helpinghand",
    "tm:hiddenpower",
    "tm:hypervoice",
    "tm:icefang",
    "tm:payback",
    "tm:playrough",
    "tm:protect",
    "tm:psychicfangs",
    "tm:raindance",
    "tm:rest",
    "tm:retaliate",
    "tm:return",
    "tm:reversal",
    "tm:roar",
    "tm:rocksmash",
    "tm:rocktomb",
    "tm:round",
    "tm:secretpower",
    "tm:shadowball",
    "tm:sleeptalk",
    "tm:snarl",
    "tm:snore",
    "tm:substitute",
    "tm:sunnyday",
    "tm:swagger",
    "tm:thunderbolt",
    "tm:thunderfang",
    "tm:thunderwave",
    "tm:toxic",
    "tm:uproar",
    "tm:wildcharge",
    "tm:workup",
    "tutor:afteryou",
    "tutor:covet",
    "tutor:helpinghand",
    "tutor:hypervoice",
    "tutor:lastresort",
    "tutor:shockwave",
    "tutor:sleeptalk",
    "tutor:snore",
    "tutor:uproar"
  ],
  "labels": [
    "gen5"
  ],
  "pokedex": [
    "cobblemon.species.lillipup.desc"
  ],
  "evolutions": [
    {
      "id": "lillipup_herdier",
      "variant": "level_up",
      "result": "herdier",
      "consumeHeldItem": false,
      "learnableMoves": [],
      "requirements": [
        {
          "variant": "level",
          "minLevel": 16
        }
      ]
    }
  ],
  "baseScale": 0.6,
  "hitbox": {
    "width": 1,
    "height": 0.9,
    "fixed": false
  },
  "baseFriendship": 50,
  "evYield": {
    "hp": 0,
    "attack": 1,
    "defence": 0,
    "special_attack": 0,
    "special_defence": 0,
    "speed": 0
  },
  "height": 4,
  "weight": 41,
  "aspects": [],
  "cannotDynamax": false
}