{
  "implemented": true,
  "name": "Riolu",
  "nationalPokedexNumber": 447,
  "primaryType": "fighting",
  "abilities": [
    "steadfast",
    "innerfocus",
    "h:prankster"
  ],
  "baseStats": {
    "hp": 40,
    "attack": 70,
    "defence": 40,
    "special_attack": 35,
    "special_defence": 40,
    "speed": 60
  },
  "catchRate": 75,
  "maleRatio": 0.875,
  "shoulderMountable": false,
  "baseExperienceYield": 57,
  "experienceGroup": "medium_slow",
  "eggCycles": 25,
  "eggGroups": [
    "undiscovered"
  ],
  "moves": [
    "1:endure",
    "1:foresight",
    "1:quickattack",
    "4:feint",
    "6:counter",
    "8:metalclaw",
    "11:feint",
    "11:forcepalm",
    "12:counter",
    "15:feint",
    "15:forcepalm",
    "16:workup",
    "19:copycat",
    "19:reversal",
    "20:rocksmash",
    "24:nastyplot",
    "24:screech",
    "24:vacuumwave",
    "28:screech",
    "29:copycat",
    "29:reversal",
    "32:quickguard",
    "36:forcepalm",
    "40:swordsdance",
    "44:helpinghand",
    "47:nastyplot",
    "48:copycat",
    "50:finalgambit",
    "52:finalgambit",
    "55:finalgambit",
    "56:reversal",
    "egg:agility",
    "egg:bite",
    "egg:blazekick",
    "egg:bulletpunch",
    "egg:circlethrow",
    "egg:crosschop",
    "egg:crunch",
    "egg:detect",
    "egg:followme",
    "egg:highjumpkick",
    "egg:howl",
    "egg:irondefense",
    "egg:lowkick",
    "egg:meteormash",
    "egg:mindreader",
    "egg:skyuppercut",
    "egg:vacuumwave",
    "tm:aerialace",
    "tm:agility",
    "tm:attract",
    "tm:blazekick",
    "tm:brickbreak",
    "tm:bulkup",
    "tm:bulldoze",
    "tm:captivate",
    "tm:closecombat",
    "tm:confide",
    "tm:crunch",
    "tm:dig",
    "tm:doubleteam",
    "tm:drainpunch",
    "tm:earthquake",
    "tm:endure",
    "tm:facade",
    "tm:fling",
    "tm:focusblast",
    "tm:focuspunch",
    "tm:frustration",
    "tm:helpinghand",
    "tm:hiddenpower",
    "tm:icepunch",
    "tm:irondefense",
    "tm:irontail",
    "tm:lowkick",
    "tm:lowsweep",
    "tm:megakick",
    "tm:megapunch",
    "tm:metalclaw",
    "tm:nastyplot",
    "tm:naturalgift",
    "tm:payback",
    "tm:poisonjab",
    "tm:poweruppunch",
    "tm:protect",
    "tm:raindance",
    "tm:rest",
    "tm:retaliate",
    "tm:return",
    "tm:revenge",
    "tm:reversal",
    "tm:roar",
    "tm:rockslide",
    "tm:rocksmash",
    "tm:rocktomb",
    "tm:round",
    "tm:screech",
    "tm:secretpower",
    "tm:shadowclaw",
    "tm:sleeptalk",
    "tm:snore",
    "tm:strength",
    "tm:substitute",
    "tm:sunnyday",
    "tm:swagger",
    "tm:swift",
    "tm:swordsdance",
    "tm:takedown",
    "tm:terablast",
    "tm:thunderpunch",
    "tm:toxic",
    "tm:trailblaze",
    "tm:workup",
    "tm:zenheadbutt",
    "tutor:aurasphere",
    "tutor:bulletpunch",
    "tutor:coaching",
    "tutor:drainpunch",
    "tutor:dualchop",
    "tutor:endure",
    "tutor:focuspunch",
    "tutor:furycutter",
    "tutor:headbutt",
    "tutor:helpinghand",
    "tutor:icepunch",
    "tutor:irondefense",
    "tutor:irontail",
    "tutor:laserfocus",
    "tutor:lowkick",
    "tutor:magnetrise",
    "tutor:mudslap",
    "tutor:roleplay",
    "tutor:shadowclaw",
    "tutor:sleeptalk",
    "tutor:snore",
    "tutor:swift",
    "tutor:thunderpunch",
    "tutor:vacuumwave",
    "tutor:zenheadbutt"
  ],
  "labels": [
    "gen4",
    "baby"
  ],
  "pokedex": [
    "cobblemon.species.riolu.desc"
  ],
  "evolutions": [
    {
      "id": "riolu_lucario",
      "variant": "level_up",
      "result": "lucario",
      "consumeHeldItem": false,
      "learnableMoves": [
        "aurasphere"
      ],
      "requirements": [
        {
          "variant": "friendship",
          "amount": 160
        },
        {
          "variant": "time_range",
          "range": "day"
        }
      ]
    }
  ],
  "baseScale": 0.8,
  "hitbox": {
    "width": 0.8,
    "height": 1.2,
    "fixed": false
  },
  "baseFriendship": 50,
  "evYield": {
    "hp": 0,
    "attack": 1,
    "defence": 0,
    "special_attack": 0,
    "special_defence": 0,
    "speed": 0
  },
  "height": 7,
  "weight": 202,
  "aspects": [],
  "cannotDynamax": false
}