{
	"format_version": "1.8.0",
	"animations": {
		"animation.combusken.blink": {
			"animation_length": 0.1667,
			"bones": {
				"eyelid_right": {
					"position": {
						"0.0": [-0.1, 0, -0.1],
						"0.125": [-0.1, 0, -0.1],
						"0.1667": [0, 0, 0]
					}
				},
				"eyelid_left": {
					"position": {
						"0.0": [0.1, 0, -0.1],
						"0.125": [0.1, 0, -0.1],
						"0.1667": [0, 0, 0]
					}
				}
			}
		},
		"animation.combusken.cry": {
			"animation_length": 1.5,
			"bones": {
				"neck": {
					"rotation": {
						"0.0": [0, 0, 0],
						"0.25": [10, 0, 0],
						"1.25": [10, 0, 0],
						"1.5": [0, 0, 0]
					}
				},
				"head": {
					"rotation": {
						"0.0": [0, 0, 0],
						"0.25": [-15, 0, 0],
						"1.25": [-15, 0, 0],
						"1.5": [0, 0, 0]
					}
				},
				"jaw": {
					"rotation": {
						"0.0": [0, 0, 0],
						"0.25": [20, 0, 0],
						"1.25": [20, 0, 0],
						"1.5": [0, 0, 0]
					}
				}
			}
		},
		"animation.combusken.ground_idle": {
			"loop": true,
			"bones": {
				"arm_right": {
					"rotation": [0, -5, -40]
				},
				"forearm_right": {
					"rotation": [0, -22.5, 0]
				},
				"arm_left": {
					"rotation": [0, 5, 40]
				},
				"forearm_left": {
					"rotation": [0, 22.5, 0]
				},
				"leg_right": {
					"rotation": [0, 20, 0]
				},
				"leg_left": {
					"rotation": [0, -20, 0]
				}
			}
		}
	}
}