{
	"format_version": "1.8.0",
	"animations": {
		"animation.electivire.ground_idle": {
			"loop": true,
			"bones": {
				"body": {
					"position": [0, -1.5, 0]
				},
				"torso": {
					"rotation": [12.5, 0, 0]
				},
				"arm_left": {
					"rotation": [0, -12.5, 0]
				},
				"arm_left2": {
					"rotation": [12.2921, 30.32448, 23.34288]
				},
				"finger_left1": {
					"rotation": [0, -10, 0]
				},
				"finger_left1_2": {
					"rotation": [0, 0, 20]
				},
				"finger_left2": {
					"rotation": [0, -5, 0]
				},
				"finger_left2_2": {
					"rotation": [0, 0, 15]
				},
				"finger_left3": {
					"rotation": [0, 0, -15]
				},
				"finger_left3_2": {
					"rotation": [0, 0, 10]
				},
				"finger_left4_2": {
					"rotation": [0, 0, 15]
				},
				"thumb_left": {
					"rotation": [1.5741, 17.43127, 5.24133]
				},
				"thumb_left2": {
					"rotation": [0, -20, 0]
				},
				"arm_right": {
					"rotation": [-0.6574, 7.4713, -5.04292]
				},
				"arm_right2": {
					"rotation": [7.30752, -31.69914, -14.72308]
				},
				"finger_right1": {
					"rotation": [0, 10, 0]
				},
				"finger_right1_2": {
					"rotation": [0, 0, -10]
				},
				"finger_right2": {
					"rotation": [0, 2.5, 17.5]
				},
				"finger_right2_2": {
					"rotation": [0, 0, -17.5]
				},
				"finger_right3": {
					"rotation": [0, 0, 25]
				},
				"finger_right3_2": {
					"rotation": [0, 0, -35]
				},
				"finger_right4": {
					"rotation": [0, 0, 12.5]
				},
				"finger_right4_2": {
					"rotation": [0, 0, -20]
				},
				"thumb_right": {
					"rotation": [2.74715, -12.19908, -12.79362]
				},
				"thumb_right2": {
					"rotation": [0, 22.5, 0]
				},
				"tail_left": {
					"rotation": [10, 0, 22.5]
				},
				"tail_left2": {
					"rotation": [35, 0, 0]
				},
				"tail_left3": {
					"rotation": [32.5, 0, 0]
				},
				"tail_left4": {
					"rotation": [25, 0, 0]
				},
				"tail_left5": {
					"rotation": [30, 0, 0]
				},
				"tail_right": {
					"rotation": [10, 0, -25]
				},
				"tail_right2": {
					"rotation": [35, 0, 0]
				},
				"tail_right3": {
					"rotation": [32.5, 0, 0]
				},
				"tail_right4": {
					"rotation": [25, 0, 0]
				},
				"tail_right5": {
					"rotation": [30, 0, 0]
				},
				"leg_left": {
					"rotation": [-12.589, -8.403, -10.75155]
				},
				"leg_left2": {
					"rotation": [25.5, 0, 0]
				},
				"foot_left": {
					"rotation": [-8.88733, 1.29876, 9.91615]
				},
				"leg_right": {
					"rotation": [-12.5, 7.5, 12.5]
				},
				"leg_right2": {
					"rotation": [25, 0, 0]
				},
				"foot_right": {
					"rotation": [-9.81594, -2.15393, -9.76758]
				},
				"fingers_left": {
					"rotation": [0, 0, 10]
				},
				"fingers_right": {
					"rotation": [0, 0, -12.5]
				}
			}
		},
		"animation.electivire.blink": {
			"animation_length": 0.16667,
			"bones": {
				"eyelid_left": {
					"position": {
						"0.0": [0, 0, -0.1],
						"0.125": [0, 0, -0.1],
						"0.1667": [0, 0, 0]
					}
				},
				"eyelid_right": {
					"position": {
						"0.0": [0, 0, -0.1],
						"0.125": [0, 0, -0.1],
						"0.1667": [0, 0, 0]
					}
				}
			}
		}
	}
}