{
	"format_version": "1.8.0",
	"animations": {
		"animation.maushold_four.ground_idle": {
			"loop": true,
			"bones": {
				"maushold": {
					"position": [0, 0, 0]
				},
				"body_1": {
					"rotation": [0, 20, 0],
					"position": [-2, 0, -2]
				},
				"torso_left": {
					"position": [0, "math.sin(q.anim_time*90*5)*0.1-0.1", 0]
				},
				"arm_right": {
					"rotation": [0, -15, "math.sin(q.anim_time*90*5-90)*2"],
					"position": [0, "math.sin(q.anim_time*90*5)*0.05", 0]
				},
				"arm_left": {
					"rotation": [0, -7.5, "-12.5 - math.sin(q.anim_time*90*5-90)*2"]
				},
				"head": {
					"rotation": ["math.sin(q.anim_time*90*5+90)*1.5", -20, 0]
				},
				"tail": {
					"rotation": ["math.sin(q.anim_time*90*5-90)*2", 35, 0]
				},
				"body_2": {
					"rotation": [0, -10, 0],
					"position": [3, 0, 1]
				},
				"torso_right": {
					"position": [0, "math.sin(q.anim_time*90*5-180)*0.1-0.1", 0]
				},
				"head2": {
					"rotation": ["math.sin(q.anim_time*90*5+90-180)*1.5", 10, 0]
				},
				"arm_right2": {
					"rotation": [0, -15, "math.sin(q.anim_time*90*5-180-90)*2"]
				},
				"arm_left2": {
					"rotation": [0, 15, "-math.sin(q.anim_time*90*5-180-90)*2"]
				},
				"baby_1": {
					"rotation": [0, -12.5, 15],
					"position": [6.5, 0, -4]
				},
				"torso_left2": {
					"position": [0, "math.sin(q.anim_time*90*5-90)*0.075-0.075", 0]
				},
				"arm_left3": {
					"rotation": [0, 0, "-math.sin(q.anim_time*90*5-90-90)*4"],
					"position": [0, 0, 0]
				},
				"arm_right3": {
					"rotation": [0, -37.5, "22.5+math.sin(q.anim_time*90*5)*5"],
					"position": [0, 0, 0]
				},
				"head3": {
					"rotation": ["math.sin(q.anim_time*90*5+90-90)*3", 12.5, 0]
				},
				"leg_left3": {
					"rotation": [0, 0, -15],
					"position": [0, 0.1, 0]
				},
				"baby_2": {
					"position": [-7.5, 0, -4.3]
				},
				"torso_right2": {
					"position": [0, "math.sin(q.anim_time*90*5-270)*0.075-0.075", 0]
				},
				"arm_left4": {
					"rotation": [0, 20, "-47.5 - math.sin(q.anim_time*90*5-180)*5"],
					"position": [-0.2, 0, 0]
				},
				"arm_right4": {
					"rotation": [0, -22.5, "-17.5 - math.sin(q.anim_time*90*5-90-90)*4"]
				},
				"head4": {
					"rotation": ["math.sin(q.anim_time*90*5+90-270)*3", 0, -7.5]
				}
			}
		},
		"animation.maushold_four.ground_walk": {
			"loop": true,
			"bones": {
				"body_1": {
					"rotation": [0, 0, 0],
					"position": [-2, "4*math.abs(math.sin(q.anim_time*90*6-30))", -2]
				},
				"arm_right": {
					"rotation": [0, 0, "-5*math.sin(q.anim_time*90*12-30)"]
				},
				"arm_left": {
					"rotation": [0, 0, "5*math.sin(q.anim_time*90*12-30)"]
				},
				"head": {
					"rotation": ["5*math.sin(q.anim_time*90*12-30)", "15*math.sin(q.anim_time*90*6-30)", 0]
				},
				"ear_right": {
					"rotation": ["2.5*math.sin(q.anim_time*90*12-30)", 0, 0]
				},
				"ear_left": {
					"rotation": ["2.5*math.sin(q.anim_time*90*12-30)", 0, 0]
				},
				"tail": {
					"rotation": ["-15*math.sin(q.anim_time*90*12-30)", 0, 0]
				},
				"leg_left": {
					"rotation": ["20*math.sin(q.anim_time*90*6-30)", 0, 0]
				},
				"leg_right": {
					"rotation": ["-20*math.sin(q.anim_time*90*6-30)", 0, 0]
				},
				"body_2": {
					"position": [2, "0+4*math.abs(math.sin(q.anim_time*90*6))", 1]
				},
				"tail2": {
					"rotation": ["-15*math.sin(q.anim_time*90*12)", 0, 0]
				},
				"head2": {
					"rotation": ["5*math.sin(q.anim_time*90*12)", "-15*math.sin(q.anim_time*90*6)", 0]
				},
				"ear_right2": {
					"rotation": ["2.5*math.sin(q.anim_time*90*12)", 0, 0]
				},
				"ear_left2": {
					"rotation": ["2.5*math.sin(q.anim_time*90*12)", 0, 0]
				},
				"arm_right2": {
					"rotation": [0, 0, "-5*math.sin(q.anim_time*90*12)"]
				},
				"arm_left2": {
					"rotation": [0, 0, "5*math.sin(q.anim_time*90*12)"]
				},
				"leg_left2": {
					"rotation": ["-20*math.sin(q.anim_time*90*6)", 0, 0]
				},
				"leg_right2": {
					"rotation": ["20*math.sin(q.anim_time*90*6)", 0, 0]
				},
				"baby_1": {
					"position": [6, "0+2.5*math.abs(math.sin(q.anim_time*90*6-60))", -3]
				},
				"head3": {
					"rotation": ["2.5*math.sin(q.anim_time*90*12-150)", "-5*math.sin(q.anim_time*90*6-60)", 0]
				},
				"leg_left3": {
					"rotation": ["-15*math.sin(q.anim_time*90*6-60)", 0, 0]
				},
				"leg_right3": {
					"rotation": ["15*math.sin(q.anim_time*90*6-60)", 0, 0]
				},
				"baby_2": {
					"position": [-8, "0+2.5*math.abs(math.sin(q.anim_time*90*6-90))", -3]
				},
				"head4": {
					"rotation": ["2.5*math.sin(q.anim_time*90*12-180)", "5*math.sin(q.anim_time*90*6-90)", 0]
				},
				"leg_right4": {
					"rotation": ["-15*math.sin(q.anim_time*90*6-90)", 0, 0]
				},
				"leg_left4": {
					"rotation": ["15*math.sin(q.anim_time*90*6-90)", 0, 0]
				},
				"torso_left": {
					"rotation": [0, "-15*math.sin(q.anim_time*90*6-30)", 0]
				},
				"torso_right": {
					"rotation": [0, "15*math.sin(q.anim_time*90*6)", 0]
				},
				"torso_left2": {
					"rotation": [0, "5*math.sin(q.anim_time*90*6-60)", 0]
				},
				"torso_right2": {
					"rotation": [0, "-5*math.sin(q.anim_time*90*6-90)", 0]
				}
			}
		},
		"animation.maushold_four.faint": {
			"loop": true,
			"animation_length": 3,
			"bones": {
				"body_1": {
					"rotation": {
						"0.0": [0, 0, 0],
						"0.1667": [0, -274, 0],
						"0.3333": [0, -351.45, 0],
						"0.5": [0, -360, 0],
						"0.5417": [-50, -360, 0],
						"0.625": [-88, -360, 0]
					},
					"position": {
						"0.0": [0, 0, 0],
						"0.0833": [-1, 11, 7],
						"0.25": [-1.25, 13, 12.4],
						"0.4167": [-1.35, 11, 14],
						"0.5": [-1.35, 0, 14],
						"0.625": [-1.35, -1.25, 17.725],
						"0.7917": [-1.35, -1.25, 20],
						"1.0": [-1.35, -1.25, 20.25],
						"1.4583": [-1.35, -1.25, 20.25],
						"1.5417": [-1.35, -1.5, 20.25],
						"1.6667": [-1.35, -1, 20.25]
					}
				},
				"torso_left": {
					"rotation": {
						"0.0": [35, 0, 0],
						"0.3333": [-7.5, 0, 0],
						"0.4167": [0, 0, 0],
						"0.5": [22.5, 0, 0],
						"0.6667": [5, 0, 0],
						"0.7917": [14.75, 0, 0],
						"0.9167": [17.5, 0, 0]
					}
				},
				"arm_right": {
					"rotation": {
						"0.0": [0, 0, 0],
						"0.1667": [0, -72.5, 0],
						"0.4583": [1.34386, 2.10829, 32.52473],
						"0.5417": [-0.57587, -20.05826, -12.29096],
						"0.75": [0, 0, 0],
						"1.0": [0, -2.5, 0]
					}
				},
				"arm_left": {
					"rotation": {
						"0.0": [0, 0, 0],
						"0.1667": [0, 72.5, 0],
						"0.4583": [1.34386, -2.10829, -32.52473],
						"0.5417": [-0.57587, 20.05826, 12.29096],
						"0.75": [0, 0, 0],
						"1.0": [0, 2.5, 0]
					}
				},
				"head": {
					"rotation": {
						"0.0": [0, 0, 0],
						"0.1667": [22.5, 0, 0],
						"0.4167": [-12.5, 0, 0],
						"0.5": [20, 0, 0],
						"0.7083": [5, 0, 0],
						"0.9583": [-2.5, 0, 0],
						"1.4583": [-2.5, 0, 0],
						"1.5417": [5, 0, 0],
						"1.6667": [-2.5, 0, 0],
						"1.75": [-7.5, 0, 0]
					}
				},
				"eyelids": {
					"position": {
						"0.0": [0, 0, 0],
						"0.0417": [0, 0, -0.125],
						"1.4583": [0, 0, -0.125],
						"1.5": [0, 0, 0],
						"1.5833": [0, 0, 0],
						"1.625": [0, 0, -0.125]
					}
				},
				"leg_left": {
					"rotation": {
						"0.0": [0, 0, 0],
						"0.3333": [-30, 0, -35],
						"0.5833": [-2.5, 0, -35],
						"0.6667": [-21, 0, -35],
						"0.75": [-22.5, 0, -35],
						"0.8333": [-8.9, 0, -35],
						"0.9583": [-2.925, 0, -35],
						"1.1667": [0.075, 0, -35]
					}
				},
				"leg_right": {
					"rotation": {
						"0.0": [0, 0, 0],
						"0.3333": [-30, 0, 35],
						"0.5833": [-2.5, 0, 35],
						"0.6667": [-21, 0, 35],
						"0.75": [-22.5, 0, 35],
						"0.8333": [-8.9, 0, 35],
						"0.9583": [-2.925, 0, 35],
						"1.1667": [0.075, 0, 35]
					}
				},
				"body_2": {
					"rotation": {
						"0.0": [0, 0, 0],
						"0.2083": [0, -67.5, 0],
						"0.375": [0, -72.5, 0],
						"0.7083": [0, -72.5, 0],
						"0.8333": [0, -117.5, 0]
					},
					"position": {
						"0.0833": [0, 0, 0],
						"0.1667": [0, 2, 0],
						"0.2917": [0, 2.5, 0],
						"0.375": [0, 0, 0],
						"0.75": [0, 0, 0],
						"0.7917": [0, 1.5, 0],
						"0.9167": [0, 2, 0],
						"1.0": [0, 0, 0],
						"1.125": [0, 0, 0],
						"1.1667": [2.5, 2.75, 1.5],
						"1.2917": [4.25, 3.5, 2.5],
						"1.375": [5, 0, 3],
						"1.4167": [6.75, 2.75, 4.25],
						"1.5417": [7.75, 3, 4.75],
						"1.625": [8.25, -0.25, 4.75],
						"2.5": [8.25, -0.25, 4.75],
						"2.5833": [8.025, -0.58, 4.65],
						"2.6667": [7.475, -1.5, 4.125],
						"2.75": [7.4, -1.625, 4.1],
						"2.7917": [7.4, -1.395, 4.1]
					}
				},
				"torso_right": {
					"rotation": {
						"1.5833": [0, 0, 0],
						"1.7917": [25, 0, 0],
						"2.0": [30, 0, 0],
						"2.1667": [-10, 0, 0]
					}
				},
				"tail2": {
					"rotation": {
						"0.0": [0, 0, 0],
						"0.25": [0, 30, 0],
						"0.4167": [0, 0, 0],
						"0.5417": [0, -7.5, 0],
						"0.75": [0, -10, 0],
						"0.8333": [-18.81038, -10, 0],
						"1.0": [0.97028, -10, 0],
						"1.125": [10.97028, -10, 0],
						"1.1667": [-19.02972, -10, 0],
						"1.2917": [20.97028, -10, 0],
						"1.375": [10.97028, -10, 0],
						"1.4167": [-19.02972, -10, 0],
						"1.5417": [20.97028, -10, 0],
						"1.625": [35.97028, -10, 0]
					}
				},
				"head2": {
					"rotation": {
						"0.0": [0, 0, 0],
						"0.0833": [-17.5, -47.5, 0],
						"0.4583": [0, -55, 0],
						"0.7083": [0, -62.5, 0],
						"0.7917": [4.11855, -28.85604, 1.82348],
						"0.9167": [20, -9.375, 0],
						"1.125": [25, -4.5, 0],
						"1.5": [21.86222, 25.5026, -0.35824],
						"1.75": [20.745, 5.01912, -1.17317],
						"2.0": [20.08912, 1.87344, -1.5131],
						"2.1667": [33.73458, 1.87344, -1.5131],
						"2.25": [13.66575, 1.87344, -1.5131],
						"2.375": [10.86412, 1.87344, -1.5131],
						"2.5417": [15.16412, 1.87344, -1.5131]
					},
					"position": [0, 0, 0]
				},
				"mouth2": {
					"position": {
						"0.0": [0, 0, 0],
						"0.0417": [0, -0.05, -0.05],
						"0.5417": [0, -0.05, -0.05],
						"0.5833": [0, 0, 0],
						"0.9167": [0, 0, 0],
						"0.9583": [0, -0.05, -0.05],
						"1.625": [0, -0.05, -0.05],
						"1.6667": [0, 0, 0]
					}
				},
				"eyelids2": {
					"position": {
						"0.75": [0, 0, 0],
						"0.7917": [0, 0, -0.175],
						"0.9167": [0, 0, -0.175],
						"0.9583": [0, 0, 0],
						"2.5": [0, 0, 0],
						"2.5417": [0, 0, -0.175]
					}
				},
				"arm_right2": {
					"rotation": {
						"0.0": [0, 0, 0],
						"0.2083": [0, -62.5, -25],
						"0.375": [0, -67.5, -35]
					}
				},
				"arm_left2": {
					"rotation": {
						"0.0": [0, 0, 0],
						"0.2083": [0, 62.5, 25],
						"0.375": [0, 67.5, 35]
					}
				},
				"leg_left2": {
					"rotation": {
						"0.0": [0, 0, 0],
						"0.2083": [-37.26251, -4.55749, -5.96275],
						"0.3333": [-37.26251, -5.05749, -5.96275],
						"0.4583": [0, 0, 0],
						"1.125": [0, 0, 0],
						"1.25": [-37.5, 0, 0],
						"1.3333": [-32.325, 0, 0],
						"1.375": [0, 0, 0],
						"1.5": [37.5, 0, 0],
						"1.5833": [32.325, 0, 0],
						"1.625": [0, 0, 0],
						"2.5": [0, 0, 0],
						"2.6667": [-84.6809, -19.92066, -1.81693],
						"2.7917": [-84.59039, -22.40972, -2.06754]
					}
				},
				"leg_right2": {
					"rotation": {
						"0.0": [0, 0, 0],
						"0.2083": [-37.26251, 4.55749, 5.96275],
						"0.3333": [-37.26251, 5.05749, 5.96275],
						"0.4583": [0, 0, 0],
						"1.125": [0, 0, 0],
						"1.25": [37.5, 0, 0],
						"1.3333": [32.325, 0, 0],
						"1.375": [0, 0, 0],
						"1.5": [-37.5, 0, 0],
						"1.5833": [-32.325, 0, 0],
						"1.625": [0, 0, 0],
						"2.5": [0, 0, 0],
						"2.6667": [-84.6809, 19.92066, 1.81693],
						"2.7917": [-84.59039, 22.40972, 2.06754]
					}
				},
				"baby_1": {
					"rotation": {
						"0.0": [0, 0, 0],
						"0.3333": [1.18564, -36.81944, -0.63701],
						"0.4583": [5.65, -42.475, 0],
						"0.625": [25.72, -44.9, 0],
						"0.7083": [76.6, -44.9, 0],
						"0.8333": [91.6, -44.65, 0]
					},
					"position": {
						"0.0": [0, 0, 0],
						"1.9583": [0, 0, 0],
						"2.125": [-1, 0, 0.25],
						"2.25": [-1, 1.625, 0.24],
						"2.3333": [-1, 2, 0.225],
						"2.4583": [-1, 2.1, 0.23],
						"2.5833": [-1, 1.965, 0.23],
						"2.7083": [-1.675, 0.875, -0.145],
						"2.7917": [-1.7, 0.945, -0.17]
					}
				},
				"arm_left3": {
					"rotation": {
						"2.1667": [0, 0, 0],
						"2.375": [0, 35, 0],
						"2.625": [0, 45, 0]
					}
				},
				"arm_right3": {
					"rotation": {
						"2.1667": [0, 0, 0],
						"2.375": [0, -35, 0],
						"2.625": [0, -45, 0]
					}
				},
				"head3": {
					"rotation": {
						"0.0": [0, 0, 0],
						"0.125": [-61.27408, -39.40865, 17.40119],
						"0.2917": [-61.27408, -35.60865, 17.40119],
						"0.5": [-40.26926, -27.70114, 2.31392],
						"0.625": [-1.775, 0, 0],
						"0.7083": [8.15, 0, 0],
						"0.7917": [-2.5, 0, 0],
						"0.9167": [-7.5, 0, 0],
						"1.875": [-7.5, 0, 0],
						"2.125": [12.5, 0, 0],
						"2.2917": [35, 0, 0],
						"2.4583": [30, 0, 0]
					}
				},
				"leg_left3": {
					"rotation": {
						"2.2083": [0, 0, 0],
						"2.3333": [-45, 0, 0],
						"2.5417": [-50, 0, 0]
					}
				},
				"leg_right3": {
					"rotation": {
						"2.2083": [0, 0, 0],
						"2.3333": [-45, 0, 0],
						"2.5417": [-50, 0, 0]
					}
				},
				"baby_2": {
					"rotation": {
						"0.0": [0, 0, 0],
						"0.125": [0, -61.25, 0],
						"0.25": [0, -77.5, 0],
						"0.5": [0, -77.5, 0],
						"0.7917": [0, -132.5, 0],
						"1.2083": [0, -132.5, 0],
						"1.4167": [82.5, -132.5, 0]
					},
					"position": {
						"0.0": [0, 0, 0],
						"0.0833": [0, 1.75, 0],
						"0.1667": [0, 2, 0],
						"0.25": [0, 0, 0],
						"0.5417": [0, 0, 0],
						"0.6667": [-1, -0.25, -0.75],
						"0.7083": [-0.1, 2.5, 2],
						"0.7917": [0.6, 3, 3.25],
						"0.9167": [1.05, -0.1, 4.8],
						"1.0": [2.53, 2.9, 7.05],
						"1.0833": [3.655, 3.4, 8.9],
						"1.1667": [4.28, -0.025, 10.05],
						"1.25": [6.53, 3.22, 11.8],
						"1.375": [7.53, 3.72, 12.675],
						"1.4583": [8.28, 1.22, 13.55],
						"1.5": [8.28, 0.72, 13.55],
						"1.5833": [8.28, 0.895, 13.55],
						"1.7083": [8.28, 1.075, 13.55]
					}
				},
				"arm_left4": {
					"rotation": {
						"0.0": [0, 0, 0],
						"0.2917": [0, 110, 0],
						"0.4583": [0, 90, 0],
						"0.625": [-13.57875, 11.1448, -51.33099],
						"1.3333": [-13.58, -6.36, -51.33],
						"1.4167": [-13.58, -48.86, -51.33],
						"1.5": [0, 0, 0],
						"1.5833": [0, 57, 0],
						"1.7083": [0, 67.5, 0]
					}
				},
				"arm_right4": {
					"rotation": {
						"0.0": [0, 0, 0],
						"0.2917": [0, -110, 0],
						"0.4583": [0, -90, 0],
						"0.625": [-13.57875, -11.1448, 51.33099],
						"1.3333": [-13.58, 6.36, 51.33],
						"1.4167": [-13.58, 48.86, 51.33],
						"1.5": [0, 0, 0],
						"1.5833": [0, -57, 0],
						"1.7083": [0, -67.5, 0]
					}
				},
				"head4": {
					"rotation": {
						"0.0": [-20, 0, 0],
						"0.3333": [-22.79588, -28.02432, 11.17023],
						"0.5417": [6.92732, -51.57984, -1.8473],
						"0.7917": [4.29868, 0.71393, 3.64396]
					}
				},
				"leg_right4": {
					"rotation": {
						"0.0": [0, 0, 0],
						"0.4583": [0, 32.5, 0],
						"0.625": [0, 0, 0],
						"0.7083": [52.5, -0.3, 0],
						"0.8333": [52.5, -0.3, 0],
						"0.9167": [0, 0, 0],
						"1.0": [-52.5, -0.3, 0],
						"1.125": [-52.5, -0.3, 0],
						"1.2083": [0, 0, 0],
						"1.2917": [52.5, -0.3, 0],
						"1.4167": [52.5, -0.3, 0],
						"1.5": [0, 0, 0],
						"1.6667": [0, 0, 0],
						"1.7083": ["12.5+Math.cos((query.anim_time) * 90 * 16) * 10", 0, 0],
						"2.4167": ["12.5+Math.cos((query.anim_time) * 90 * 16) * 10", 0, 0],
						"2.75": [0, 0, 0]
					}
				},
				"leg_left4": {
					"rotation": {
						"0.0": [0, 0, 0],
						"0.4583": [0, -32.5, 0],
						"0.625": [0, 0, 0],
						"0.7083": [-52.5, 0.3, 0],
						"0.8333": [-52.5, 0.3, 0],
						"0.9167": [0, 0, 0],
						"1.0": [52.5, 0.3, 0],
						"1.125": [52.5, 0.3, 0],
						"1.2083": [0, 0, 0],
						"1.2917": [-52.5, 0.3, 0],
						"1.4167": [-52.5, 0.3, 0],
						"1.5": [0, 0, 0],
						"1.6667": [0, 0, 0],
						"1.7083": ["12.5+Math.cos((query.anim_time) * 90 * 16) * -10", 0, 0],
						"2.4167": ["12.5+Math.cos((query.anim_time) * 90 * 16) * -10", 0, 0],
						"2.75": [0, 0, 0]
					}
				}
			}
		},
		"animation.maushold_four.blink1": {
			"animation_length": 0.25,
			"bones": {
				"eyelids2": {
					"position": {
						"0.0": [0, 0, -0.1],
						"0.2083": [0, 0, -0.1],
						"0.25": [0, 0, 0]
					}
				}
			}
		},
		"animation.maushold_four.blink2": {
			"animation_length": 0.25,
			"bones": {
				"eyelids": {
					"position": {
						"0.0": [0, 0, -0.1],
						"0.2083": [0, 0, -0.1],
						"0.25": [0, 0, 0]
					}
				}
			}
		},
		"animation.maushold_four.blink3": {
			"animation_length": 0.25,
			"bones": {
				"eyes3": {
					"position": {
						"0.0": [0, 0, 0.1],
						"0.2083": [0, 0, 0.1],
						"0.25": [0, 0, 0]
					}
				}
			}
		},
		"animation.maushold_four.blink4": {
			"animation_length": 0.25,
			"bones": {
				"eyes4": {
					"position": {
						"0.0": [0, 0, 0.1],
						"0.2083": [0, 0, 0.1],
						"0.25": [0, 0, 0]
					}
				}
			}
		},
		"animation.maushold_four.cry": {
			"animation_length": 1.25,
			"bones": {
				"head": {
					"rotation": {
						"0.0": [0, 0, 0],
						"0.0833": [10, 0, 0],
						"0.25": [-15, 0, 0],
						"1.0": [-15, 0, 0],
						"1.25": [0, 0, 0]
					}
				},
				"mouth": {
					"position": {
						"0.125": [0, 0, 0],
						"0.1667": [0, -0.075, -0.15],
						"0.9583": [0, -0.075, -0.15],
						"1.0": [0, 0, 0]
					}
				},
				"head2": {
					"rotation": {
						"0.0": [0, 0, 0],
						"0.0833": [10, 0, 0],
						"0.25": [-15, 0, 0],
						"1.0": [-15, 0, 0],
						"1.25": [0, 0, 0]
					}
				},
				"mouth2": {
					"position": {
						"0.125": [0, 0, 0],
						"0.1667": [0, -0.075, -0.15],
						"0.9583": [0, -0.075, -0.15],
						"1.0": [0, 0, 0]
					}
				},
				"head3": {
					"rotation": {
						"0.0": [0, 0, 0],
						"0.0833": [10, 0, 0],
						"0.25": [-15, 0, 0],
						"1.0": [-15, 0, 0],
						"1.25": [0, 0, 0]
					}
				},
				"head4": {
					"rotation": {
						"0.0": [0, 0, 0],
						"0.0833": [10, 0, 0],
						"0.25": [-15, 0, 0],
						"1.0": [-15, 0, 0],
						"1.25": [0, 0, 0]
					}
				}
			}
		},
		"animation.maushold_four.sleep": {
			"loop": true,
			"bones": {
				"body_1": {
					"rotation": [-90, 0, -60],
					"position": [0, 0, -2]
				},
				"torso_left": {
					"rotation": ["10 + math.sin(q.anim_time*90-90+90)*2.5", 0, 0]
				},
				"arm_right": {
					"rotation": [0, -70, 0]
				},
				"arm_left": {
					"rotation": [0, 90, 0]
				},
				"head": {
					"rotation": ["math.sin(q.anim_time*90-90)*2.5", -5, 10]
				},
				"eyelids": {
					"position": [0, 0, -0.1]
				},
				"leg_left": {
					"rotation": ["-math.sin(q.anim_time*90-90)*2.5 ", 0, 10]
				},
				"leg_right": {
					"rotation": ["-math.sin(q.anim_time*90-90)*2.5", 0, 15]
				},
				"body_2": {
					"rotation": [-90, 0, 60]
				},
				"torso_right": {
					"rotation": ["10 + math.sin(q.anim_time*90+90)*2.5", 0, 0]
				},
				"head2": {
					"rotation": ["math.sin(q.anim_time*90)*2.5", 5, -10]
				},
				"ear_left2": {
					"rotation": [0, 0, 0]
				},
				"eyelids2": {
					"position": [0, 0, -0.1]
				},
				"arm_right2": {
					"rotation": [0, -90, 0]
				},
				"arm_left2": {
					"rotation": [0, 70, 0]
				},
				"leg_left2": {
					"rotation": ["-math.sin(q.anim_time*90)*2.5", 0, -15]
				},
				"leg_right2": {
					"rotation": ["-math.sin(q.anim_time*90)*2.5", 0, -10]
				},
				"baby_1": {
					"rotation": [-90, 17.5, 0],
					"position": [-3, -0.5, -7]
				},
				"torso_left2": {
					"position": [0, 0, 0]
				},
				"head3": {
					"position": [0, 0, -0.25]
				},
				"leg_left3": {
					"rotation": ["-math.clamp(math.sin(q.anim_time*90*4)*5,0,5)", 0, 0]
				},
				"leg_right3": {
					"rotation": ["-math.clamp(math.sin(q.anim_time*90*4-180)*5,0,5)", 0, 0]
				},
				"baby_2": {
					"rotation": [-90, -15, 0],
					"position": [2, -0.5, -0.5]
				},
				"head4": {
					"position": [0, 0, -0.25]
				},
				"leg_right4": {
					"rotation": ["-math.clamp(math.sin(q.anim_time*90*4-45)*5,0,5)", 0, 0]
				},
				"leg_left4": {
					"rotation": ["-math.clamp(math.sin(q.anim_time*90*4-180-45)*5,0,5)", 0, 0]
				},
				"eyes3": {
					"position": [0, 0, 0.1]
				},
				"eyes4": {
					"position": [0, 0, 0.1]
				}
			}
		}
	},
	"geckolib_format_version": 2
}