{
    "type": "minecraft:crafting_shaped",
    "pattern": [
        "###",
        "#M#",
        "###"
    ],
    "key": {
        "#": {
            "item": "minecraft:sand"
        },
        "M": {
            "item": "cobblemon:mulch_base"
        }
    },
    "result":
    {
        "item": "cobblemon:sandy_mulch"
    }
}