{
	"format_version": "1.8.0",
	"animations": {
		"animation.wooper.ground_walk": {
			"loop": true,
			"bones": {
				"torso": {
					"rotation": ["2.5+7.5*math.sin(q.anim_time*90*8.2-270)", 0, 0],
					"position": [0, "5*math.clamp(math.abs(math.sin(q.anim_time*90*4.1)),0.4,1)-2.0", 0]
				},
				"head": {
					"rotation": ["7.5*math.sin(q.anim_time*90*8.2)", 0, 0],
					"position": [0, "0.7*math.sin(q.anim_time*90*8.2-180)-0.35", 0]
				},
				"gills_left": {
					"rotation": ["5*math.sin(q.anim_time*90*8.2-90)", "-7.5 - 15*math.sin(q.anim_time*90*8.2-90)", "math.sin(q.anim_time*90*4.1*2)*10"]
				},
				"gills_right": {
					"rotation": ["5*math.sin(q.anim_time*90*8.2-90)", "7.5 + 15*math.sin(q.anim_time*90*8.2-90)", "math.sin(q.anim_time*90*4.1*2)*-10"]
				},
				"tail": {
					"rotation": ["30*math.sin(q.anim_time*90*8.2-180-30)", 0, 0]
				},
				"tail2": {
					"rotation": ["math.clamp(20*math.sin(q.anim_time*90*8.2-180-90),-20,20)", 0, 0]
				},
				"foot_right": {
					"rotation": ["-5+math.clamp(120*math.sin(q.anim_time*90*8.2-30),-20,120)+math.clamp(60*math.sin(q.anim_time*90*8.2-30),-120,-10)", 12.5, 0],
					"position": [0, "3*math.abs(math.sin(q.anim_time*90*4.1))", "-0.5+2*math.sin(q.anim_time*90*8.2)"]
				},
				"foot_left": {
					"rotation": ["-5+math.clamp(120*math.sin(q.anim_time*90*8.2-30),-20,120)+math.clamp(60*math.sin(q.anim_time*90*8.2-30),-120,-10)", -12.5, 0],
					"position": [0, "3*math.abs(math.sin(q.anim_time*90*4.1))", "-0.5+2*math.sin(q.anim_time*90*8.2)"]
				},
				"body": {
					"position": [
						0,
						"7*math.clamp(math.abs(math.sin(q.anim_time*90*4.1)),0.4,1)-2.8",
						"-3.5*math.sin(q.anim_time*90*8.2-180+math.sin(q.anim_time*90*8.2-180)*-20)"
					]
				}
			}
		},
		"animation.wooper.ground_idle": {
			"loop": true,
			"bones": {
				"tail": {
					"rotation": ["-7.5+10*math.sin(q.anim_time*90*5-180)", 0, 0]
				},
				"tail2": {
					"rotation": ["12.5+10*math.sin(q.anim_time*90*5-270)", 0, 0]
				},
				"torso": {
					"rotation": ["2*math.sin(q.anim_time*90*5)", 0, 0],
					"position": [0, "0.3*math.sin(q.anim_time*90*5-90)", "-0.15+0.15*math.sin(q.anim_time*90*2.5+90)"]
				},
				"head": {
					"rotation": ["3*math.sin(q.anim_time*90*5-90)", 0, 0],
					"position": [0, "-0.2*math.sin(q.anim_time*90*5)", 0]
				},
				"gills_left": {
					"rotation": ["2*math.sin(q.anim_time*90*5-135)", 0, 0]
				},
				"gills_right": {
					"rotation": ["2*math.sin(q.anim_time*90*5-135)", 0, 0]
				},
				"foot_right": {
					"rotation": ["5+5*math.sin(q.anim_time*90*5-90)", 0, 0],
					"position": [0, "0.4 -0.4*math.sin(q.anim_time*90*5+90)", "-0.125 + 0.125*math.sin(q.anim_time*90*5+90)"]
				},
				"foot_left": {
					"rotation": ["5+5*math.sin(q.anim_time*90*5-90)", 0, 0],
					"position": [0, "0.4 -0.4*math.sin(q.anim_time*90*5+90)", "-0.125 + 0.125*math.sin(q.anim_time*90*5+90)"]
				}
			}
		},
		"animation.wooper.water_idle": {
			"loop": true,
			"bones": {
				"body": {
					"rotation": [15, 0, 0]
				},
				"head": {
					"rotation": [-10, 0, 0]
				},
				"leftfoot": {
					"rotation": [15, 0, 0]
				},
				"rightfoot": {
					"rotation": [15, 0, 0]
				},
				"tail": {
					"rotation": [-30, 0, 0]
				},
				"tail2": {
					"rotation": [7.5, 0, 0]
				}
			}
		},
		"animation.wooper.water_swim": {
			"loop": true,
			"bones": {
				"body": {
					"rotation": [60, 0, 0]
				},
				"head": {
					"rotation": [-45, 0, 0]
				},
				"leftfoot": {
					"rotation": [30, 0, 0]
				},
				"rightfoot": {
					"rotation": [30, 0, 0]
				},
				"tail": {
					"rotation": [-60, 0, 0]
				},
				"tail2": {
					"rotation": [7.5, 0, 0]
				},
				"pointythingysright": {
					"rotation": [0, 15, 0]
				}
			}
		},
		"animation.wooper.cry": {
			"animation_length": 1,
			"bones": {
				"head": {
					"rotation": {
						"0.0": [0, 0, 0],
						"0.125": [-15, 0, 0],
						"0.6667": [-15, 0, 0],
						"0.8333": [0, 0, 0]
					}
				},
				"mouth_open": {
					"position": {
						"0.0": [0, 0, 0],
						"0.125": [0, 0, -0.1],
						"0.6667": [0, 0, -0.1],
						"0.8333": [0, 0, 0]
					}
				}
			}
		},
		"animation.wooper.sleep": {
			"loop": true,
			"bones": {
				"torso": {
					"rotation": ["7.5+2*math.sin(q.anim_time*90*1.5)", 0, 0],
					"position": [0, -1, "0.1-0.1*math.sin(q.anim_time*90*1.5)"]
				},
				"head": {
					"rotation": ["20+2*math.sin(q.anim_time*90*1.5-90)", 0, 0]
				},
				"lefteyelid": {
					"position": [0, 0, -0.1]
				},
				"righteyelid": {
					"position": [0, 0, -0.1]
				},
				"gills_left": {
					"rotation": ["1.5*math.sin(q.anim_time*90*1.5-90)", 0, 0]
				},
				"gills_right": {
					"rotation": ["1.5*math.sin(q.anim_time*90*1.5-90)", 0, 0]
				},
				"smile": {
					"position": [0, 0, 0.1]
				},
				"mouth_open_small": {
					"position": [0, 0, -0.1]
				},
				"tail": {
					"rotation": ["-25+(-2.5)*math.sin(q.anim_time*90*1.5)", 0, 0]
				},
				"tail2": {
					"rotation": ["12.5+(2.5)*math.sin(q.anim_time*90*1.5)", 0, 0]
				},
				"foot_right": {
					"rotation": ["-60+1*math.sin(q.anim_time*90*1.5-45)", 25, 0],
					"position": [0, 0.5, -3]
				},
				"foot_left": {
					"rotation": ["-60+1*math.sin(q.anim_time*90*1.5-45)", -25, 0],
					"position": [0, 0.5, -3]
				}
			}
		},
		"animation.wooper.blink": {
			"animation_length": 0.1667,
			"bones": {
				"eyelid_right": {
					"position": {
						"0.0": [0, 0, -0.1],
						"0.125": [0, 0, -0.1],
						"0.1667": [0, 0, 0]
					}
				},
				"eyelid_left": {
					"position": {
						"0.0": [0, 0, -0.1],
						"0.125": [0, 0, -0.1],
						"0.1667": [0, 0, 0]
					}
				},
				"lefteyelid": {
					"position": {
						"0.0": [0, 0, -0.1],
						"0.125": [0, 0, -0.1],
						"0.1667": [0, 0, 0]
					}
				},
				"righteyelid": {
					"position": {
						"0.0": [0, 0, -0.1],
						"0.125": [0, 0, -0.1],
						"0.1667": [0, 0, 0]
					}
				}
			}
		}
	}
}