{
  "implemented": true,
  "name": "Corvisquire",
  "nationalPokedexNumber": 822,
  "primaryType": "flying",
  "abilities": [
    "keeneye",
    "unnerve",
    "h:bigpecks"
  ],
  "baseStats": {
    "hp": 68,
    "attack": 67,
    "defence": 55,
    "special_attack": 43,
    "special_defence": 55,
    "speed": 77
  },
  "catchRate": 120,
  "maleRatio": 0.5,
  "shoulderMountable": false,
  "baseExperienceYield": 128,
  "experienceGroup": "medium_slow",
  "behaviour": {
    "moving": {
      "fly": {
        "canFly": true
      }
    }
  },
  "eggCycles": 15,
  "eggGroups": [
    "flying"
  ],
  "moves": [
    "1:honeclaws",
    "1:leer",
    "1:peck",
    "1:powertrip",
    "12:furyattack",
    "16:pluck",
    "22:taunt",
    "28:scaryface",
    "34:drillpeck",
    "40:swagger",
    "46:bravebird",
    "tm:aerialace",
    "tm:agility",
    "tm:aircutter",
    "tm:airslash",
    "tm:assurance",
    "tm:attract",
    "tm:bravebird",
    "tm:endure",
    "tm:facade",
    "tm:faketears",
    "tm:fly",
    "tm:focusenergy",
    "tm:hurricane",
    "tm:nastyplot",
    "tm:payback",
    "tm:protect",
    "tm:rest",
    "tm:retaliate",
    "tm:revenge",
    "tm:reversal",
    "tm:round",
    "tm:scaryface",
    "tm:sleeptalk",
    "tm:snore",
    "tm:substitute",
    "tm:sunnyday",
    "tm:swift",
    "tm:tailwind",
    "tm:takedown",
    "tm:taunt",
    "tm:terablast",
    "tm:thief",
    "tm:uturn",
    "tm:workup",
    "tutor:dualwingbeat"
  ],
  "labels": [
    "gen8"
  ],
  "pokedex": [
    "cobblemon.species.corvisquire.desc"
  ],
  "preEvolution": "rookidee",
  "evolutions": [
    {
      "id": "corvisquire_corviknight",
      "variant": "level_up",
      "result": "corviknight",
      "consumeHeldItem": false,
      "learnableMoves": [
        "steelwing"
      ],
      "requirements": [
        {
          "variant": "level",
          "minLevel": 38
        }
      ]
    }
  ],
  "baseScale": 1,
  "hitbox": {
    "width": 0.65,
    "height": 1.1,
    "fixed": false
  },
  "baseFriendship": 50,
  "evYield": {
    "hp": 0,
    "attack": 0,
    "defence": 0,
    "special_attack": 0,
    "special_defence": 0,
    "speed": 2
  },
  "height": 8,
  "weight": 160,
  "aspects": [],
  "cannotDynamax": false
}