{
  "type": "choice",
  "keys": ["vivillon_wings"],
  "default": "meadow",
  "choices": [
    "archipelago",
    "continental",
    "elegant",
    "fancy",
    "garden",
    "high_plains",
    "icy_snow",
    "jungle",
    "marine",
    "meadow",
    "modern",
    "monsoon",
    "ocean",
    "poke-ball",
    "polar",
    "river",
    "sandstorm",
    "savanna",
    "sun",
    "tundra",
    "blazing",
    "ender"
  ],
  "isAspect": true,
  "aspectFormat": "vivillon-wings-{{choice}}"
}