{
	"format_version": "1.8.0",
	"animations": {
		"animation.thievul.ground_idle": {
			"loop": true,
			"bones": {
				"tail": {
					"rotation": ["28.5+math.sin(q.anim_time*90*1*2-90)*1", "math.cos(q.anim_time*90*1-90)*10", 0]
				},
				"tail2": {
					"rotation": ["-28+math.sin(q.anim_time*90*1*2-90-30)*1", "0+math.cos(q.anim_time*90*1-90-30)*5", 0]
				},
				"tail3": {
					"rotation": ["-27.5+math.sin(q.anim_time*90*1*2-90-60)*1", "0+math.cos(q.anim_time*90*1-90-60)*5", 0]
				},
				"tail4": {
					"rotation": ["-24.5+math.sin(q.anim_time*90*1*2-90-120)*1", "0+math.cos(q.anim_time*90*1-90-120)*5", 0]
				},
				"tail5": {
					"rotation": ["25+math.sin(q.anim_time*90*1*2-90-150)*1", "math.cos(q.anim_time*90*1-90-120)*15", 0]
				},
				"tail6": {
					"rotation": ["12.5+math.sin(q.anim_time*90*1*2-90-180)*2", "math.cos(q.anim_time*90*1-90-180)*30", 0]
				},
				"mane2": {
					"rotation": ["2-math.sin(q.anim_time*90*1-240)*2", 0, 0]
				},
				"mane3": {
					"rotation": ["-4-math.sin(q.anim_time*90*1-240-60)*2", 0, 0]
				},
				"mane4": {
					"rotation": ["40-math.sin(q.anim_time*90*1-240-90)*10", 0, 0]
				},
				"neck": {
					"rotation": [-15, 0, "math.cos(q.anim_time*90*1/2-90-180)*2"],
					"position": [0, 0, -0.5]
				},
				"head": {
					"rotation": [20, 0, "-math.cos(q.anim_time*90*1/2-90-180)*2.5"]
				},
				"mask_right": {
					"rotation": [0, 0, "-2+math.cos(q.anim_time*90*1/2-90-30)*2"]
				},
				"mask_left": {
					"rotation": [0, 0, "2+math.cos(q.anim_time*90*1/2-90-30)*2"]
				},
				"stache_right": {
					"rotation": [0, "5+math.sin(q.anim_time*90*1/2)*5", 0]
				},
				"stache_left": {
					"rotation": [0, "-5-math.sin(q.anim_time*90*1/2)*5", 0]
				},
				"ear_right": {
					"rotation": [0, 0, "1+math.sin(q.anim_time*90*1*2)*2-math.sin(q.anim_time*90*1-60)*1"]
				},
				"ear_left": {
					"rotation": [0, 0, "-1-math.sin(q.anim_time*90*1*2)*2+math.sin(q.anim_time*90*1-60)*1"]
				},
				"torso": {
					"position": [0, "0.1+math.sin(q.anim_time*90*1-240)*0.05", 0]
				},
				"tail_flap_right": {
					"rotation": [0, "math.sin(q.anim_time*90*3-23)*-10", 0]
				},
				"tail_flap_up": {
					"rotation": ["-math.sin(q.anim_time*90*3-23)*-10", 0, 0]
				},
				"tail_flap_left": {
					"rotation": [0, "-math.sin(q.anim_time*90*3-23)*-10", 0]
				},
				"tail_flap_down": {
					"rotation": ["35+math.sin(q.anim_time*90*3-23)*-10", 0, 0]
				},
				"tail_flap_upright": {
					"rotation": ["-math.sin(q.anim_time*90*3-23)*-10", 0, 0]
				},
				"tail_flap_upleft": {
					"rotation": ["-math.sin(q.anim_time*90*3-23)*-10", 0, 0]
				},
				"tail_flap_downright": {
					"rotation": ["20+math.sin(q.anim_time*90*3-23)*-10", 0, 0]
				},
				"tail_flap_downleft": {
					"rotation": ["20+math.sin(q.anim_time*90*3-23)*-10", 0, 0]
				},
				"jaw": {
					"rotation": [0, 0, 0]
				}
			}
		},
		"animation.thievul.ground_walk": {
			"loop": true,
			"bones": {
				"tail": {
					"rotation": ["3.5+math.sin(q.anim_time*90*3*2-90)*2", "math.cos(q.anim_time*90*3-90)*20", 0],
					"position": [0, "math.clamp(math.sin(q.anim_time*90*3*2-300)*0.2, 0, 1)", 0]
				},
				"tail2": {
					"rotation": ["-38+math.sin(q.anim_time*90*3*2-90-30)*2", "0+math.cos(q.anim_time*90*3-90-30)*10 ", 0]
				},
				"tail3": {
					"rotation": ["-20+math.sin(q.anim_time*90*3*2-90-60)*2", "math.cos(q.anim_time*90*3-90-60)*10", 0]
				},
				"tail4": {
					"rotation": ["20.5+math.sin(q.anim_time*90*3*2-90-120)*2", "0+math.cos(q.anim_time*90*3-90-120)*10", 0]
				},
				"tail5": {
					"rotation": ["  20+math.sin(q.anim_time*90*3*2-90-150)*2", "0+math.cos(q.anim_time*90*3-90-120)*25", 0]
				},
				"tail6": {
					"rotation": ["12.5+math.sin(q.anim_time*90*3*2-90-180)*2", "math.cos(q.anim_time*90*3-90-180)*30", 0]
				},
				"body": {
					"position": ["math.sin(q.anim_time*90*3-220)*0.25", "math.sin(q.anim_time*90*3*2-240)*0.1 +math.clamp(math.sin(q.anim_time*90*3*2-240)*0.1, 0, 1)", 0]
				},
				"mane": {
					"rotation": ["2-math.sin(q.anim_time*90*3*2-240)*2", 0, 0]
				},
				"mane2": {
					"rotation": ["-2-math.sin(q.anim_time*90*3*2-240-30)*2", 0, 0]
				},
				"mane3": {
					"rotation": ["-4-math.sin(q.anim_time*90*3*2-240-60)*4", 0, 0]
				},
				"mane4": {
					"rotation": ["40-math.sin(q.anim_time*90*3*2-240-90)*20", 0, 0]
				},
				"neck": {
					"rotation": ["1+math.sin(q.anim_time*90*3*2-240+180)*2", 0, 0],
					"position": [0, 0, "-0.2+math.sin(q.anim_time*90*3*2-240)*0.2"]
				},
				"head": {
					"rotation": ["-1-math.sin(q.anim_time*90*3*2-280-180)*3", 0, 0]
				},
				"mask_right": {
					"rotation": [0, "-2+math.sin(q.anim_time*90*3*2-240-180)*2", "-1+math.sin(q.anim_time*90*3*2-240-180)*0.2"]
				},
				"mask_left": {
					"rotation": [0, "2-math.sin(q.anim_time*90*3*2-240-180)*2", "1-math.sin(q.anim_time*90*3*2-240-180)*0.2"]
				},
				"stache_right": {
					"rotation": [0, "30+math.sin(q.anim_time*90*3*2-210-180)*20", 0]
				},
				"stache_left": {
					"rotation": [0, "-30-math.sin(q.anim_time*90*3*2-210-180)*20", 0]
				},
				"fluff_right": {
					"position": [0, "math.sin(q.anim_time*90*3*2-30)*0.1", 0]
				},
				"fluff_left": {
					"position": [0, "math.sin(q.anim_time*90*3*2-30)*0.1", 0]
				},
				"ear_right": {
					"rotation": [0, 0, "-2+math.sin(q.anim_time*90*3*2)*2-math.sin(q.anim_time*90*3-60)*1"]
				},
				"ear_left": {
					"rotation": [0, 0, "2-math.sin(q.anim_time*90*3*2)*2+math.sin(q.anim_time*90*3-60)*1"]
				},
				"leg_front_right": {
					"rotation": ["10+math.sin(q.anim_time*90*3+180)*20+math.clamp(math.sin(q.anim_time*90*3-20+180)*20, 0, 20)", 0, 0],
					"position": [0, "-0.4+math.clamp(math.sin(q.anim_time*90*3+60+180)*0.8, -0.2, 1)", "0.5+math.cos(q.anim_time*90*3+180+180)*0.1"]
				},
				"leg_front_right2": {
					"rotation": [
						"-25+math.sin(q.anim_time*90*3+90+180)*20+math.clamp(math.sin(q.anim_time*90*3+90+30+180)*20, -20, 0)+math.clamp(math.sin(q.anim_time*90*3+110+180)*10, 0, 20)+math.clamp(math.sin(q.anim_time*90*3+70+180)*10, 0, 20)",
						0,
						0
					],
					"position": [0, 0, "-0.8-math.sin(q.anim_time*90*3-90+180)*0.8"]
				},
				"leg_front_right3": {
					"rotation": [
						"53+math.clamp(-math.sin(q.anim_time*90*3-100)*60-math.clamp(math.sin(q.anim_time*90*3-0)*60, -60, 0)-math.clamp(math.sin(q.anim_time*90*3-10)*30, 0, 30), -50, 100)+math.clamp(math.sin(q.anim_time*90*3-90-20+180)*10, -30, 0)",
						0,
						0
					]
				},
				"leg_front_left": {
					"rotation": ["10+math.sin(q.anim_time*90*3)*20+math.clamp(math.sin(q.anim_time*90*3-20)*20, 0, 20)", 0, 0],
					"position": [0, "-0.4+math.clamp(math.sin(q.anim_time*90*3+60)*0.8, -0.2, 1)", "0.5+math.cos(q.anim_time*90*3+180)*0.1"]
				},
				"leg_front_left2": {
					"rotation": [
						"-25+math.sin(q.anim_time*90*3+90)*20+math.clamp(math.sin(q.anim_time*90*3+90+30)*20, -20, 0)+math.clamp(math.sin(q.anim_time*90*3+110)*10, 0, 20)+math.clamp(math.sin(q.anim_time*90*3+70)*10, 0, 20)",
						0,
						0
					],
					"position": [0, 0, "-0.8-math.sin(q.anim_time*90*3-90)*0.8"]
				},
				"leg_front_left3": {
					"rotation": [
						"53+math.clamp(-math.sin(q.anim_time*90*3-100-180)*60-math.clamp(math.sin(q.anim_time*90*3-0-180)*60, -60, 0)-math.clamp(math.sin(q.anim_time*90*3-10-180)*30, 0, 30), -50, 100)+math.clamp(math.sin(q.anim_time*90*3-20-80)*10, -30, 0)",
						0,
						0
					]
				},
				"torso": {
					"position": ["math.sin(q.anim_time*90*3-200)*0.25", "0.2+math.clamp(math.sin(q.anim_time*90*3*2-240)*0.25, -0.2, 1)", 0]
				},
				"tail_flap_right": {
					"rotation": [0, "math.sin(q.anim_time*90*3-23)*-40", 0]
				},
				"tail_flap_up": {
					"rotation": ["-math.sin(q.anim_time*90*3-23)*-40", 0, 0]
				},
				"tail_flap_left": {
					"rotation": [0, "-math.sin(q.anim_time*90*3-23)*-40", 0]
				},
				"tail_flap_down": {
					"rotation": ["math.sin(q.anim_time*90*3-23)*-40", 0, 0]
				},
				"tail_flap_upright": {
					"rotation": ["-math.sin(q.anim_time*90*3-23)*-40", 0, 0]
				},
				"tail_flap_upleft": {
					"rotation": ["-math.sin(q.anim_time*90*3-23)*-40", 0, 0]
				},
				"tail_flap_downright": {
					"rotation": ["math.sin(q.anim_time*90*3-23)*-40", 0, 0]
				},
				"tail_flap_downleft": {
					"rotation": ["math.sin(q.anim_time*90*3-23)*-40", 0, 0]
				},
				"leg_back_right": {
					"rotation": ["15+math.sin(q.anim_time*90*3-40)*20", 0, 0],
					"position": [0, "-math.sin(q.anim_time*90*3-30+180)*0.5", 0]
				},
				"leg_back_right2": {
					"rotation": ["-10+math.sin(q.anim_time*90*3+40)*20+math.clamp(math.sin(q.anim_time*90*3+40)*10, -20, 0)", 0, 0]
				},
				"leg_back_right3": {
					"rotation": [
						"math.sin(q.anim_time*90*3+10+180)*10-math.clamp(math.sin(q.anim_time*90*3-20+180)*60, -60, 0)-math.clamp(math.sin(q.anim_time*90*3-20+180)*20, 0, 30)+math.clamp(math.sin(q.anim_time*90*3-20-40+180)*10, 0, 20)",
						0,
						0
					]
				},
				"leg_back_left": {
					"rotation": ["15+math.sin(q.anim_time*90*3+180-40)*20", 0, 0],
					"position": [0, "-math.sin(q.anim_time*90*3-20)*0.5", 0]
				},
				"leg_back_left2": {
					"rotation": ["-10+math.sin(q.anim_time*90*3+180+40)*20+math.clamp(math.sin(q.anim_time*90*3+180+40)*10, -20, 0)", 0, 0]
				},
				"leg_back_left3": {
					"rotation": [
						"math.sin(q.anim_time*90*3+10)*10-math.clamp(math.sin(q.anim_time*90*3-20)*60, -60, 0)-math.clamp(math.sin(q.anim_time*90*3-20)*20, 0, 30) +math.clamp(math.sin(q.anim_time*90*3-20-40)*10, 0, 20)",
						0,
						0
					]
				}
			}
		},
		"animation.thievul.battle_idle": {
			"loop": true,
			"bones": {
				"body": {
					"rotation": [-7.5, 0, 0]
				},
				"torso": {
					"rotation": ["2.5+math.cos(q.anim_time*90*2)*2+math.cos(q.anim_time*90*1)*10", 0, 0]
				},
				"neck": {
					"rotation": ["-10+math.sin(q.anim_time*90*1+180)*2-(math.cos(q.anim_time*90*2)*2+math.cos(q.anim_time*90*1)*10)+math.cos(q.anim_time*90*3)*2", 0, 0],
					"position": [0, "math.clamp((-1+math.sin(q.anim_time*90*1+180)*2-(math.cos(q.anim_time*90*2)*2+math.cos(q.anim_time*90*1)*10))*0.05,-5,0)", -0.5]
				},
				"head": {
					"rotation": [
						"25-math.sin(q.anim_time*90*1+180)*2+math.cos(q.anim_time*90*3-60)*1",
						"0+math.clamp(math.cos(q.anim_time*90*1), -0.5, 1)*2-math.clamp(math.cos(q.anim_time*90*1+180), -0.5, 1)*2",
						"0+math.clamp(math.cos(q.anim_time*90*1), 0.7, 1)*5+math.clamp(math.cos(q.anim_time*90*1), -0.7, 0.2)*5-math.clamp(math.cos(q.anim_time*90*1+180), -0.7, 0.2)*5-math.clamp(math.cos(q.anim_time*90*1+180), 0.7, 1)*5+math.cos(q.anim_time*90*4+90)*1"
					],
					"position": [0, 0.6, 0]
				},
				"jaw": {
					"rotation": ["1+math.cos(q.anim_time*90*2)*2-math.cos(q.anim_time*90*3)*1", 0, 0]
				},
				"tail": {
					"rotation": [
						"50+math.sin(q.anim_time*90*2-120)*2",
						"math.clamp(math.cos(q.anim_time*90*1-120-40), -0.5, 1)*25-math.clamp(math.cos(q.anim_time*90*1-120-40+180), -0.5, 1)*25",
						0
					]
				},
				"tail2": {
					"rotation": [
						"-35+math.sin(q.anim_time*90*2-120-20)*2",
						"math.clamp(math.cos(q.anim_time*90*1-120-10), -0.5, 0.9)*10-math.clamp(math.cos(q.anim_time*90*1-120-10+180), -0.5, 0.9)*10",
						0
					]
				},
				"tail3": {
					"rotation": [
						"-45+math.sin(q.anim_time*90*2-120-40)*2",
						"math.clamp(math.cos(q.anim_time*90*1-120-20), -0.5, 1)*10-math.clamp(math.cos(q.anim_time*90*1-120-20+180), -0.5, 1)*10",
						0
					]
				},
				"tail4": {
					"rotation": [-25, "math.clamp(math.cos(q.anim_time*90*1-120-30), -0.5, 0.8)*15-math.clamp(math.cos(q.anim_time*90*1-120-30+180), -0.5, 0.8)*15", 0]
				},
				"tail5": {
					"rotation": ["27.5+math.sin(q.anim_time*90*2-120-30+90)*30", "math.cos(q.anim_time*90*1-120-50)*40 ", 0]
				},
				"tail6": {
					"rotation": [
						"10+math.sin(q.anim_time*90*2-120-50+90)*10 +math.clamp(math.sin(q.anim_time*90*2-120-120+90),-0.6,1)*20",
						"math.cos(q.anim_time*90*1-120-70)*50",
						0
					]
				},
				"leg_front_right": {
					"rotation": ["7.5+math.cos(q.anim_time*90*2)*2+math.cos(q.anim_time*90*1)*20", 0, 0],
					"position": [0, "-1-math.cos(q.anim_time*90*2)*0.5-math.cos(q.anim_time*90*1)*2", 0]
				},
				"leg_front_right2": {
					"rotation": ["-11-math.cos(q.anim_time*90*2)*4-math.cos(q.anim_time*90*1)*30", 0, 0],
					"position": [0, 0, "-0.5-math.cos(q.anim_time*90*1)*0.5"]
				},
				"leg_front_right3": {
					"rotation": [22.5, 0, 0]
				},
				"leg_front_left": {
					"rotation": ["-12.5+math.cos(q.anim_time*90*1)*10", 0, 0],
					"position": [0, "0-math.cos(q.anim_time*90*2)*0.5-math.cos(q.anim_time*90*1)*2", "0.4+math.sin(q.anim_time*90*1-180)*0.1"]
				},
				"leg_front_left2": {
					"rotation": ["-50+math.cos(q.anim_time*90*1-30)*6", 0, 0],
					"position": [0, 0, -1.6]
				},
				"leg_front_left3": {
					"rotation": ["155+math.cos(q.anim_time*90*1-60)*25+math.cos(q.anim_time*90*3-180-60)*10", 0, 0],
					"position": [0, -0.1, 0.2]
				},
				"leg_back_right": {
					"rotation": ["20-math.cos(q.anim_time*90*2-20)*1-math.cos(q.anim_time*90*1-20)*4", -1.08089, 4.88206],
					"position": [0, 1, 0]
				},
				"leg_back_right2": {
					"rotation": ["-7+math.cos(q.anim_time*90*2-30)*2+math.cos(q.anim_time*90*1-30)*8", 0, -5]
				},
				"leg_back_right3": {
					"rotation": ["15+math.clamp(-math.cos(q.anim_time*90*2-40)*2-math.cos(q.anim_time*90*1-40)*12, -9, 20)", 0, 0],
					"position": [
						0,
						"-0.2+math.clamp(math.sin(q.anim_time*90*1+90),0.2,0.8)*0.7-math.clamp(math.sin(q.anim_time*90*1+90),0.2, 1)*0.3",
						"0.2+math.cos(q.anim_time*90*1)*0.1"
					]
				},
				"leg_back_left": {
					"rotation": ["-12.5-math.cos(q.anim_time*90*2-20)*1/2-math.cos(q.anim_time*90*1-20)*2", 1.08089, -4.88206],
					"position": [0, 1, 0]
				},
				"leg_back_left2": {
					"rotation": ["-2+math.cos(q.anim_time*90*2-30)*1+math.cos(q.anim_time*90*1-30)*4", 0, 5]
				},
				"leg_back_left3": {
					"rotation": ["25+math.clamp(-math.cos(q.anim_time*90*2-40)*1-math.cos(q.anim_time*90*1-40)*6, -9, 20)", 0, 0],
					"position": [
						0,
						"-0.2+math.clamp(math.sin(q.anim_time*90*1+90),0.2,0.8)*0.2-math.clamp(math.sin(q.anim_time*90*1+90),0.2, 1)*0.1",
						"0.2+math.cos(q.anim_time*90*1)*0.1"
					]
				},
				"chest": {
					"rotation": [7.5, 0, 0]
				}
			}
		},
		"animation.thievul.blink": {
			"animation_length": 0.16667,
			"bones": {
				"eyelid_right": {
					"position": {
						"0.0": [-0.1, 0, -0.1],
						"0.125": [-0.1, 0, -0.1],
						"0.1667": [0, 0, 0]
					}
				},
				"eyelid_left": {
					"position": {
						"0.0": [0.1, 0, -0.1],
						"0.125": [0.1, 0, -0.1],
						"0.1667": [0, 0, 0]
					}
				}
			}
		},
		"animation.thievul.sleep": {
			"loop": true,
			"bones": {
				"body": {
					"rotation": [0.0873, -2.49848, -92.0019],
					"position": [0, -13.35, 0]
				},
				"torso": {
					"rotation": [-15, 0, 10],
					"scale": ["1+math.cos(q.anim_time*90*1)*0.02", 1, 1]
				},
				"mane": {
					"rotation": [32.36766, -1.81964, 8.23949],
					"position": [-0.1, -4, 1],
					"scale": [1, 1, "1.09+math.cos(q.anim_time*90*1)*0.05"]
				},
				"mane2": {
					"rotation": ["2-math.sin(q.anim_time*90*1-130)*1/4", 0, 0]
				},
				"mane3": {
					"rotation": [-5, 0, 0]
				},
				"mane4": {
					"rotation": ["65+math.sin(q.anim_time*90*1-120)*15", 0, 0]
				},
				"neck": {
					"rotation": [77.5, 0, 0],
					"position": [0, -1, -6.5],
					"scale": ["1-math.cos(q.anim_time*90*1)*0.02", 1, 1]
				},
				"head": {
					"rotation": [25.12707, -0.33962, 4.28917]
				},
				"mask_right": {
					"rotation": [0, 35, 0]
				},
				"stache_right": {
					"rotation": [0, "-28+math.cos(q.anim_time*90*1-90)*5", 0]
				},
				"stache_left": {
					"rotation": [0, "42.5-math.cos(q.anim_time*90*1-90)*5", 0]
				},
				"fluff_right": {
					"rotation": [22.5, 47.5, 0]
				},
				"eyelid_right": {
					"position": [-0.2, 0, -0.1]
				},
				"eyelid_left": {
					"position": [0.1, 0, -0.1]
				},
				"ear_right": {
					"rotation": [0, 0, "-10+math.sin(query.anim_time*90*2)*1"]
				},
				"ear_left": {
					"rotation": [
						0,
						0,
						"15+math.sin(query.anim_time*90*1)*2-math.clamp(-math.sin(query.anim_time*90*1/2)*10-math.clamp(math.sin(q.anim_time*90*2/2)*10, -5, 10)-math.clamp(math.sin(q.anim_time*90*1/2+180)*1, 0, 10)-math.clamp(math.sin(q.anim_time*90*4-90)*5,-5, 0), 2, 40)"
					]
				},
				"tail": {
					"rotation": [-32.7234, -6.3202, 4.04618],
					"scale": ["1-math.cos(q.anim_time*90*1)*0.02", 1, 1]
				},
				"tail2": {
					"rotation": [-27.5, 5, 0]
				},
				"tail3": {
					"rotation": ["-32.7246+math.sin(query.anim_time*90*1/2-40)*1/2", 6.29742, -4.08163]
				},
				"tail4": {
					"rotation": ["-41.8992+math.sin(query.anim_time*90*1/2-60)*1/5", 2.96163, 1.45101]
				},
				"tail5": {
					"rotation": [
						"-25.5+math.sin(q.anim_time*90*1-130+20)*1/2+math.clamp(math.sin(q.anim_time*90*1-130+20)*1/2, 0, 1)+math.sin(query.anim_time*90*1/2-60)*1/8",
						2.5,
						0
					]
				},
				"tail6": {
					"rotation": [
						"-17.3205+math.sin(q.anim_time*90*1-110)*1+math.clamp(math.sin(q.anim_time*90*1-110)*1, 0, 3)+math.sin(query.anim_time*90*1/2-80)*1/4",
						2.90421,
						1.97814
					]
				},
				"tail_flap_right": {
					"rotation": [0, "15+math.sin(q.anim_time*90*1-140+90)*15", 0]
				},
				"tail_flap_up": {
					"rotation": ["-22.5+math.sin(q.anim_time*90*1-110)*40+math.clamp(math.sin(q.anim_time*90*1-110)*10+math.sin(q.anim_time*90*6)*10, 0, 20) ", 0, 0]
				},
				"tail_flap_left": {
					"rotation": [0, "-15-math.sin(q.anim_time*90*1-140+90)*15", 0]
				},
				"tail_flap_down": {
					"rotation": ["math.sin(q.anim_time*90*1-110)*30+math.clamp(math.sin(q.anim_time*90*1-110)*10+math.sin(q.anim_time*90*6)*10, 0, 20) ", 0, 0]
				},
				"tail_flap_upright": {
					"rotation": ["-15+math.sin(q.anim_time*90*1-110)*25+math.clamp(math.sin(q.anim_time*90*1-110)*10+math.sin(q.anim_time*90*6)*10, 0, 20)", 0, 0]
				},
				"tail_flap_upleft": {
					"rotation": ["-15+math.sin(q.anim_time*90*1-110)*25+math.clamp(math.sin(q.anim_time*90*1-110)*10+math.sin(q.anim_time*90*6)*10, 0, 20)", 0, 0],
					"scale": ["1-math.cos(q.anim_time*90*2)*0.01 ", 1, 1]
				},
				"tail_flap_downright": {
					"rotation": ["math.sin(q.anim_time*90*1-110)*25+math.clamp(math.sin(q.anim_time*90*1-110)*10+math.sin(q.anim_time*90*6)*10, 0, 20) ", 0, 0]
				},
				"tail_flap_downleft": {
					"rotation": ["math.sin(q.anim_time*90*1-110)*25+math.clamp(math.sin(q.anim_time*90*1-110)*10+math.sin(q.anim_time*90*6)*10, 0, 20) ", 0, 0]
				},
				"leg_front_right": {
					"rotation": [-25.01565, 2.38422, -0.7522]
				},
				"leg_front_right2": {
					"rotation": [-42.5, 0, 0]
				},
				"leg_front_right3": {
					"rotation": [80, -18.98533, -4.38208]
				},
				"leg_front_left": {
					"rotation": [12.42982, -1.67232, 19.60122],
					"position": [1, 0, 0]
				},
				"leg_front_left2": {
					"rotation": [-25.144, 22.32924, 24.25045]
				},
				"leg_front_left3": {
					"rotation": [30, -12.36594, 1.76964]
				},
				"leg_back_right": {
					"rotation": [-37.40109, 2.68407, 4.22005]
				},
				"leg_back_right2": {
					"rotation": [-53, 0, 0]
				},
				"leg_back_right3": {
					"rotation": [37.5, 0, 0]
				},
				"leg_back_left": {
					"rotation": [-19.9864, 0.86505, 22.40639],
					"position": [0.2, 0, 0]
				},
				"leg_back_left2": {
					"rotation": [-34.3516, 10.21235, 7.24677]
				},
				"leg_back_left3": {
					"rotation": [42, 0, 0]
				},
				"chest": {
					"rotation": [15, 0, 0]
				}
			}
		},
		"animation.thievul.quirk_sleep": {
			"animation_length": 7,
			"bones": {
				"leg_front_right3": {
					"rotation": {
						"0.0": [0, 0, 0],
						"0.1667": [
							"math.sin(query.anim_time*90*1-60)*2+math.clamp(-math.sin(query.anim_time*90*1/2-60)*10-math.clamp(math.sin(q.anim_time*90*2/2-60)*10, -5, 10)-math.clamp(math.sin(q.anim_time*90*1/2+180-60)*1, 0, 10)-math.clamp(math.sin(q.anim_time*90*8-90-40)*1,-5, 0), 2, 40)",
							0,
							0
						],
						"4.5417": [
							"math.sin(query.anim_time*90*1-60)*2+math.clamp(-math.sin(query.anim_time*90*1/2-60)*10-math.clamp(math.sin(q.anim_time*90*2/2-60)*10, -5, 10)-math.clamp(math.sin(q.anim_time*90*1/2+180-60)*1, 0, 10)-math.clamp(math.sin(q.anim_time*90*8-90-40)*1,-5, 0), 2, 40)",
							0,
							0
						],
						"5.0": [0, 0, 0]
					}
				},
				"leg_front_left3": {
					"rotation": {
						"0.0": [0, 0, 0],
						"0.1667": [
							"math.sin(query.anim_time*90*1-40)*2+math.clamp(-math.sin(query.anim_time*90*1/2-40)*10-math.clamp(math.sin(q.anim_time*90*2/2-40)*10, -5, 10)-math.clamp(math.sin(q.anim_time*90*1/2+180-40)*1, 0, 10)-math.clamp(math.sin(q.anim_time*90*8-90-10)*1,-5, 0), 2, 40)",
							0,
							0
						],
						"4.5417": [
							"math.sin(query.anim_time*90*1-40)*2+math.clamp(-math.sin(query.anim_time*90*1/2-40)*10-math.clamp(math.sin(q.anim_time*90*2/2-40)*10, -5, 10)-math.clamp(math.sin(q.anim_time*90*1/2+180-40)*1, 0, 10)-math.clamp(math.sin(q.anim_time*90*8-90-10)*1,-5, 0), 2, 40)",
							0,
							0
						],
						"5.0": [0, 0, 0]
					}
				},
				"leg_back_right2": {
					"rotation": {
						"0.0": [0, 0, 0],
						"0.1667": [
							"math.sin(query.anim_time*90*1-70-20)*1+math.clamp(-math.sin(query.anim_time*90*1/2-70-20)*2-math.clamp(math.sin(q.anim_time*90*2/2-70-20)*5, -2.5, 10)-math.clamp(math.sin(q.anim_time*90*1/2+180-70-20)*1/2, 0, 10)-math.clamp(math.sin(q.anim_time*90*8-90-30-20)*2,-5, 0), 2, 40)",
							0,
							0
						],
						"4.5417": [
							"math.sin(query.anim_time*90*1-70-20)*1+math.clamp(-math.sin(query.anim_time*90*1/2-70-20)*2-math.clamp(math.sin(q.anim_time*90*2/2-70-20)*5, -2.5, 10)-math.clamp(math.sin(q.anim_time*90*1/2+180-70-20)*1/2, 0, 10)-math.clamp(math.sin(q.anim_time*90*8-90-30-20)*2,-5, 0), 2, 40)",
							0,
							0
						],
						"5.0": [0, 0, 0]
					}
				},
				"leg_back_right3": {
					"rotation": {
						"0.0": [0, 0, 0],
						"0.1667": [
							"math.sin(query.anim_time*90*1-60-30)*2+math.clamp(-math.sin(query.anim_time*90*1/2-60-30)*10-math.clamp(math.sin(q.anim_time*90*2/2-60-30)*10, -5, 10)-math.clamp(math.sin(q.anim_time*90*1/2+180-60-30)*1, 0, 10)-math.clamp(math.sin(q.anim_time*90*8-90-40-30)*10,-10, 6), 2, 40)",
							0,
							0
						],
						"4.5417": [
							"math.sin(query.anim_time*90*1-60-30)*2+math.clamp(-math.sin(query.anim_time*90*1/2-60-30)*10-math.clamp(math.sin(q.anim_time*90*2/2-60-30)*10, -5, 10)-math.clamp(math.sin(q.anim_time*90*1/2+180-60-30)*1, 0, 10)-math.clamp(math.sin(q.anim_time*90*8-90-40-30)*10,-10, 6), 2, 40)",
							0,
							0
						],
						"5.0": [0, 0, 0]
					}
				},
				"leg_back_left": {
					"rotation": {
						"0.0": [0, 0, 0],
						"0.1667": ["-math.clamp(math.sin(query.anim_time*90*1/2+40)*20, -5, 20)/4", 0, 0],
						"4.5417": ["-math.clamp(math.sin(query.anim_time*90*1/2+40)*20, 0, 20)/4", 0, 0],
						"5.0": [0, 0, 0]
					},
					"position": {
						"0.0": [0, 0, 0],
						"0.1667": [0, 0, 0],
						"4.5417": [0, 0, 0],
						"5.0": [0, 0, 0]
					}
				},
				"leg_back_left2": {
					"rotation": {
						"0.0": [0, 0, 0],
						"0.1667": [
							"math.sin(query.anim_time*90*1-70)*2+math.clamp(-math.sin(query.anim_time*90*1/2-70)*10-math.clamp(math.sin(q.anim_time*90*2/2-70)*10, -5, 10)-math.clamp(math.sin(q.anim_time*90*1/2+180-70)*1, 0, 10)-math.clamp(math.sin(q.anim_time*90*8-90-30)*5,-5, 0), 2, 40)",
							0,
							0
						],
						"4.5417": [
							"math.sin(query.anim_time*90*1-70)*2+math.clamp(-math.sin(query.anim_time*90*1/2-70)*10-math.clamp(math.sin(q.anim_time*90*2/2-70)*10, -5, 10)-math.clamp(math.sin(q.anim_time*90*1/2+180-70)*1, 0, 10)-math.clamp(math.sin(q.anim_time*90*8-90-30)*5,-5, 0), 2, 40)",
							0,
							0
						],
						"5.0": [0, 0, 0]
					}
				},
				"leg_back_left3": {
					"rotation": {
						"0.0": [0, 0, 0],
						"0.1667": [
							"math.sin(query.anim_time*90*1-60)*2+math.clamp(-math.sin(query.anim_time*90*1/2-60)*10-math.clamp(math.sin(q.anim_time*90*2/2-60)*10, -5, 10)-math.clamp(math.sin(q.anim_time*90*1/2+180-60)*1, 0, 10)-math.clamp(math.sin(q.anim_time*90*8-90-40)*10,-10, 6), 2, 40)",
							0,
							0
						],
						"4.5417": [
							"math.sin(query.anim_time*90*1-60)*2+math.clamp(-math.sin(query.anim_time*90*1/2-60)*10-math.clamp(math.sin(q.anim_time*90*2/2-60)*10, -5, 10)-math.clamp(math.sin(q.anim_time*90*1/2+180-60)*1, 0, 10)-math.clamp(math.sin(q.anim_time*90*8-90-40)*10,-10, 6), 2, 40)",
							0,
							0
						],
						"5.0": [0, 0, 0]
					}
				}
			}
		},
		"animation.thievul.cry": {
			"animation_length": 1.5,
			"bones": {
				"chest": {
					"rotation": {
						"0.0": {
							"post": [0, 0, 0],
							"lerp_mode": "catmullrom"
						},
						"0.2917": {
							"post": [-5, 0, 0],
							"lerp_mode": "catmullrom"
						},
						"0.875": {
							"post": [-5, 0, 0],
							"lerp_mode": "catmullrom"
						},
						"0.9167": {
							"post": [-4.5, 0, 0],
							"lerp_mode": "catmullrom"
						},
						"1.0": {
							"post": [-2, 0, 0],
							"lerp_mode": "catmullrom"
						},
						"1.2083": {
							"post": [-0.5, 0, 0],
							"lerp_mode": "catmullrom"
						},
						"1.5": {
							"post": [0, 0, 0],
							"lerp_mode": "catmullrom"
						}
					},
					"position": {
						"0.0": {
							"post": [0, 0, 0],
							"lerp_mode": "catmullrom"
						},
						"0.2917": {
							"post": [0, 0, 0.5],
							"lerp_mode": "catmullrom"
						},
						"0.875": {
							"post": [0, 0, 0.5],
							"lerp_mode": "catmullrom"
						},
						"0.9167": {
							"post": [0, 0, 0.45],
							"lerp_mode": "catmullrom"
						},
						"1.0": {
							"post": [0, 0, 0.2],
							"lerp_mode": "catmullrom"
						},
						"1.2083": {
							"post": [0, 0, 0.05],
							"lerp_mode": "catmullrom"
						},
						"1.5": {
							"post": [0, 0, 0],
							"lerp_mode": "catmullrom"
						}
					}
				},
				"neck": {
					"rotation": {
						"0.0": {
							"post": [0, 0, 0],
							"lerp_mode": "catmullrom"
						},
						"0.2917": {
							"post": [-7, 0, 0],
							"lerp_mode": "catmullrom"
						},
						"0.875": {
							"post": [-7, 0, 0],
							"lerp_mode": "catmullrom"
						},
						"1.2083": {
							"post": [-2, 0, 0],
							"lerp_mode": "catmullrom"
						},
						"1.5": {
							"post": [0, 0, 0],
							"lerp_mode": "catmullrom"
						}
					},
					"position": {
						"0.0": {
							"post": [0, 0, 0],
							"lerp_mode": "catmullrom"
						},
						"0.2917": {
							"post": [0, 0, -0.2],
							"lerp_mode": "catmullrom"
						},
						"0.875": {
							"post": [0, 0, -0.3],
							"lerp_mode": "catmullrom"
						},
						"1.2083": {
							"post": [0, 0, -0.2],
							"lerp_mode": "catmullrom"
						},
						"1.5": {
							"post": [0, 0, 0],
							"lerp_mode": "catmullrom"
						}
					}
				},
				"head": {
					"rotation": {
						"0.0": {
							"post": [0, 0, 0],
							"lerp_mode": "catmullrom"
						},
						"0.2083": {
							"post": [5, 0, 0],
							"lerp_mode": "catmullrom"
						},
						"0.875": {
							"post": [0, 0, 0],
							"lerp_mode": "catmullrom"
						},
						"1.2917": {
							"post": [1, 0, 0],
							"lerp_mode": "catmullrom"
						},
						"1.5": {
							"post": [0, 0, 0],
							"lerp_mode": "catmullrom"
						}
					}
				},
				"jaw": {
					"rotation": {
						"0.0": {
							"post": [0, 0, 0],
							"lerp_mode": "catmullrom"
						},
						"0.1667": {
							"post": [6.3, 0, 0],
							"lerp_mode": "catmullrom"
						},
						"0.2917": {
							"post": [29, 0, 0],
							"lerp_mode": "catmullrom"
						},
						"0.7917": {
							"post": [29, 0, 0],
							"lerp_mode": "catmullrom"
						},
						"1.0417": {
							"post": [20.6, 0, 0],
							"lerp_mode": "catmullrom"
						},
						"1.4583": {
							"post": [0, 0, 0],
							"lerp_mode": "catmullrom"
						}
					}
				}
			}
		},
		"animation.thievul.faint_WIP": {
			"animation_length": 3,
			"bones": {
				"body": {
					"rotation": {
						"0.0": [-7.5, 0, 0],
						"0.625": [-46.35707, 12.27659, -12.56853],
						"1.125": [-46.35707, 12.27659, -12.56853],
						"1.2917": [-49.36, 12.28, -12.57],
						"1.3333": [-63.36, 12.28, -12.57],
						"1.5": [-107.54657, 19.27053, -0.6211],
						"1.6667": [-125.65565, 46.90167, -5.95256],
						"1.9167": [-116.61535, 3.41917, 91.01619]
					},
					"position": {
						"0.8333": [0, 0, 0],
						"1.125": [0, 0, 0],
						"1.2083": [0.6, -2.46, 0],
						"1.2917": [1, -2.69, 0],
						"1.3333": [1.2, -4.3, 0],
						"1.4167": [0.27, -7.13, 4.2],
						"1.4583": [0.5, -8.1, 6.3],
						"1.7083": [1, -10.74, 6.3],
						"1.9167": [1, -11.1, 6.3],
						"1.9583": [1, "-11.1+math.clamp(math.cos(q.anim_time*90*20)*2,0,2)", 6.3],
						"2.2083": [1, "-11.1+math.clamp(math.cos(q.anim_time*90*10)*0.6,0,1)", 6.3],
						"2.375": [1, "-11.1+math.cos(q.anim_time*90*0)*0.6", 6.3]
					}
				},
				"torso": {
					"rotation": {
						"0.0": ["2.5+math.cos(q.anim_time*90*2)*2+math.cos(q.anim_time*90*1)*10", 0, 0],
						"0.625": [0, "math.sin(q.anim_time*90*1)*15", 0],
						"0.8333": [0, "4+math.sin(q.anim_time*90*1)*15", 0],
						"1.125": [0, "4+math.sin(q.anim_time*90*1)*15", 0],
						"1.1667": [-2.58988, 19.33887, -0.33724],
						"1.375": [-6.90635, "math.sin(q.anim_time*90*1)*20", -0.89931],
						"2.4583": [-6.49076, -0.00425, -0.97261]
					}
				},
				"mane3": {
					"rotation": {
						"0.0": {
							"post": [-22.5, 0, 0],
							"lerp_mode": "catmullrom"
						},
						"0.2917": {
							"post": [-24.59, 0, 0],
							"lerp_mode": "catmullrom"
						},
						"0.5": {
							"post": [-52.5, 0, 0],
							"lerp_mode": "catmullrom"
						},
						"0.625": {
							"post": [-66.87, 0, 0],
							"lerp_mode": "catmullrom"
						},
						"0.7083": {
							"post": [-65.62, 0, 0],
							"lerp_mode": "catmullrom"
						},
						"0.875": {
							"post": [-14.42, 0, 0],
							"lerp_mode": "catmullrom"
						},
						"1.25": {
							"post": [-22.5, 0, 0],
							"lerp_mode": "catmullrom"
						},
						"1.4583": {
							"post": [-72.5, 0, 0],
							"lerp_mode": "catmullrom"
						},
						"1.7083": {
							"post": [-82.5, 0, 0],
							"lerp_mode": "catmullrom"
						},
						"1.8333": {
							"post": [-47.70971, -21.10516, 25.30665],
							"lerp_mode": "catmullrom"
						},
						"1.9167": {
							"post": [-7.5, 0, 0],
							"lerp_mode": "catmullrom"
						},
						"2.5417": [-22.5, 0, 0]
					}
				},
				"mane4": {
					"rotation": {
						"0.0": {
							"post": [57.5, 0, 0],
							"lerp_mode": "catmullrom"
						},
						"0.2917": {
							"post": [84.04, 0, 0],
							"lerp_mode": "catmullrom"
						},
						"0.5": {
							"post": [127.5, 0, 0],
							"lerp_mode": "catmullrom"
						},
						"0.625": {
							"post": [137.5, 0, 0],
							"lerp_mode": "catmullrom"
						},
						"0.8333": {
							"post": [71.67, 0, 0],
							"lerp_mode": "catmullrom"
						},
						"0.9167": {
							"post": [63.28, 0, 0],
							"lerp_mode": "catmullrom"
						},
						"1.0833": {
							"post": [93.66, 0, 0],
							"lerp_mode": "catmullrom"
						},
						"1.25": {
							"post": [65, 0, 0],
							"lerp_mode": "catmullrom"
						},
						"1.3333": {
							"post": [64.28, 0, 0],
							"lerp_mode": "catmullrom"
						},
						"1.4583": {
							"post": [85, 0, 0],
							"lerp_mode": "catmullrom"
						},
						"1.7083": {
							"post": [135, 0, 0],
							"lerp_mode": "catmullrom"
						},
						"1.7917": {
							"post": [49.57, 0, 0],
							"lerp_mode": "catmullrom"
						},
						"2.5417": [57.5, 0, 0]
					}
				},
				"neck": {
					"rotation": {
						"0.0": ["-10+math.sin(q.anim_time*90*1+180)*2-(math.cos(q.anim_time*90*2)*2+math.cos(q.anim_time*90*1)*10)", 0, 0],
						"0.2917": [-14.53487, 2.53022, -6.31467],
						"0.375": {
							"pre": [-7.2401, -0.86379, 5.47925],
							"post": [-7.2401, -0.86379, 5.47925],
							"lerp_mode": "catmullrom"
						},
						"0.5": {
							"post": [3.16024, 3.55533, -6.60801],
							"lerp_mode": "catmullrom"
						},
						"0.625": [-0.83856, 2.8887, -5.36901],
						"0.7083": {
							"pre": [2.63604, -1.34456, 7.37167],
							"post": [2.63604, -1.34456, 7.37167],
							"lerp_mode": "catmullrom"
						},
						"0.7917": {
							"post": [3.71359, -3.19836, 10.57324],
							"lerp_mode": "catmullrom"
						},
						"1.1667": [32.5, 0, 0],
						"1.2917": [40, 0, 0],
						"1.3333": [55, 0, 0]
					},
					"position": {
						"0.0": [0, 0, -0.5],
						"1.1667": [0, 0, -3],
						"1.2917": [0, 0, -4.5],
						"1.3333": [0, 0, -5]
					}
				},
				"head": {
					"rotation": {
						"0.0": [
							"25-math.sin(q.anim_time*90*1+180)*2",
							"0+math.clamp(math.cos(q.anim_time*90*1), -0.5, 1)*2-math.clamp(math.cos(q.anim_time*90*1+180), -0.5, 1)*2",
							"0+math.clamp(math.cos(q.anim_time*90*1), 0.7, 1)*5+math.clamp(math.cos(q.anim_time*90*1), -0.7, 0.2)*5-math.clamp(math.cos(q.anim_time*90*1+180), -0.7, 0.2)*5-math.clamp(math.cos(q.anim_time*90*1+180), 0.7, 1)*5+math.cos(q.anim_time*90*4+90)*1"
						],
						"1.1667": [0, 0, 0],
						"1.2917": [-3.44, 0, 0],
						"1.5": [37.5, 0, 0],
						"1.7083": [-38.89, 0, 0],
						"2.25": [-5, 0, 0]
					},
					"position": {
						"0.0": [0, 0.6, 0],
						"1.1667": [0, 0, 0]
					}
				},
				"jaw": {
					"rotation": {
						"0.0": ["1+math.cos(q.anim_time*90*2)*2-math.cos(q.anim_time*90*3)*1", 0, 0],
						"1.1667": [25, 0, 0]
					}
				},
				"eyelid_right": {
					"position": {
						"0.0": [0, 0, 0],
						"0.125": {"pre": [0, 0, 0], "post": [-0.1, 0, -0.1]},
						"0.2083": {"pre": [-0.1, 0, -0.1], "post": [0, 0, 0]},
						"0.25": {"pre": [0, 0, 0], "post": [-0.1, 0, -0.1]},
						"0.375": {"pre": [-0.1, 0, -0.1], "post": [0, 0, 0]},
						"0.4167": {"pre": [0, 0, 0], "post": [-0.1, 0, -0.1]},
						"1.2917": {"pre": [-0.1, 0, -0.1], "post": [-0.1, 0, -0.1]},
						"1.375": {"pre": [-0.1, 0, -0.1], "post": [0, 0, 0]},
						"1.9167": {"pre": [0, 0, 0], "post": [-0.1, 0, -0.1]}
					}
				},
				"eyelid_left": {
					"position": {
						"0.0": [0, 0, 0],
						"0.125": {"pre": [0, 0, 0], "post": [0.1, 0, -0.1]},
						"0.2083": {"pre": [0.1, 0, -0.1], "post": [0, 0, 0]},
						"0.25": {"pre": [0, 0, 0], "post": [0.1, 0, -0.1]},
						"0.375": {"pre": [0.1, 0, -0.1], "post": [0, 0, 0]},
						"0.4167": {"pre": [0, 0, 0], "post": [0.1, 0, -0.1]},
						"1.2917": {"pre": [0.1, 0, -0.1], "post": [0.1, 0, -0.1]},
						"1.375": {"pre": [0.1, 0, -0.1], "post": [0, 0, 0]},
						"1.9167": {"pre": [0, 0, 0], "post": [0.1, 0, -0.1]}
					}
				},
				"tail": {
					"rotation": {
						"0.0": [
							"50+math.sin(q.anim_time*90*2-120)*2",
							"math.clamp(math.cos(q.anim_time*90*1-120-40), -0.5, 1)*25-math.clamp(math.cos(q.anim_time*90*1-120-40+180), -0.5, 1)*25",
							0
						],
						"0.25": [61.82212, -9.70816, 0],
						"0.6667": {
							"pre": [64.26259, -5.99014, 0],
							"post": [64.26259, -5.99014, 0],
							"lerp_mode": "catmullrom"
						},
						"0.875": {
							"post": [62.44232, -5.37047, 0],
							"lerp_mode": "catmullrom"
						},
						"1.0": {
							"post": [61.34017, -5.53113, 0],
							"lerp_mode": "catmullrom"
						},
						"1.25": {
							"post": [64.26259, -5.99014, 0],
							"lerp_mode": "catmullrom"
						},
						"1.4167": {
							"post": [97.44232, -5.37047, 0],
							"lerp_mode": "catmullrom"
						},
						"1.5417": {
							"post": [131.29513, -4.7508, 0],
							"lerp_mode": "catmullrom"
						},
						"1.75": {
							"post": [165.14401, -3.71802, 0],
							"lerp_mode": "catmullrom"
						},
						"1.8333": {
							"post": [111.48097, 8.18646, -27.77832],
							"lerp_mode": "catmullrom"
						},
						"1.9167": {
							"post": [52.94534, -2.89179, 0],
							"lerp_mode": "catmullrom"
						},
						"2.2917": {
							"post": [28.39734, -1.65245, 0],
							"lerp_mode": "catmullrom"
						},
						"3.0": [6.74, 6.31, -0.93]
					}
				},
				"tail2": {
					"rotation": {
						"0.0": [
							"-35+math.sin(q.anim_time*90*2-120-20)*2",
							"math.clamp(math.cos(q.anim_time*90*1-120-10), -0.5, 0.9)*10-math.clamp(math.cos(q.anim_time*90*1-120-10+180), -0.5, 0.9)*10",
							0
						],
						"0.25": [0.52615, -12.29868, 0],
						"0.6667": {
							"pre": [0.30736, 3.42176, 0.12446],
							"post": [0.30736, 3.42176, 0.12446],
							"lerp_mode": "catmullrom"
						},
						"1.0": {
							"post": [0.27557, -0.03566, 0.11158],
							"lerp_mode": "catmullrom"
						},
						"1.25": {
							"post": [0.30736, 3.42176, 0.12446],
							"lerp_mode": "catmullrom"
						},
						"1.4167": {
							"post": [40.27557, -0.03566, 0.11158],
							"lerp_mode": "catmullrom"
						},
						"1.5417": {
							"post": [15.62839, -3.49309, 0.09871],
							"lerp_mode": "catmullrom"
						},
						"1.75": {
							"post": [-17.37313, -28.19153, 7.97076],
							"lerp_mode": "catmullrom"
						},
						"1.8333": {
							"post": [-8.73, -7.99, -1.01],
							"lerp_mode": "catmullrom"
						},
						"1.9167": {
							"post": [15.7621, -5.25013, -2.6009],
							"lerp_mode": "catmullrom"
						},
						"2.2917": {
							"post": [-16.44111, 0.75786, -6.61814],
							"lerp_mode": "catmullrom"
						},
						"3.0": [-35.95, 4.46, -7.29]
					}
				},
				"tail3": {
					"rotation": {
						"0.0": [
							"-45+math.sin(q.anim_time*90*2-120-40)*2",
							"math.clamp(math.cos(q.anim_time*90*1-120-20), -0.5, 1)*10-math.clamp(math.cos(q.anim_time*90*1-120-20+180), -0.5, 1)*10",
							0
						],
						"0.25": [-16.03965, -13.00159, 0],
						"0.6667": {
							"pre": [-12.92836, 20.52099, -8.7253],
							"post": [-12.92836, 20.52099, -8.7253],
							"lerp_mode": "catmullrom"
						},
						"1.0": {
							"post": [5.2342, -13.78636, -1.49231],
							"lerp_mode": "catmullrom"
						},
						"1.25": {
							"post": [-12.92836, 20.52099, -8.7253],
							"lerp_mode": "catmullrom"
						},
						"1.4167": {
							"post": [5.2342, -13.78636, -1.49231],
							"lerp_mode": "catmullrom"
						},
						"1.5417": {
							"post": [16.26487, -15.3687, -1.32012],
							"lerp_mode": "catmullrom"
						},
						"1.75": {
							"post": [2.10177, -26.06751, -6.03807],
							"lerp_mode": "catmullrom"
						},
						"1.8333": {
							"post": [-1.25, -17.32, -2.08],
							"lerp_mode": "catmullrom"
						},
						"1.9167": {
							"post": [12.46266, -15.90952, -3.65178],
							"lerp_mode": "catmullrom"
						},
						"2.2917": {
							"post": [-31.74124, -12.76489, -7.57975],
							"lerp_mode": "catmullrom"
						},
						"3.0": [-29.89, -12.65, -7.65]
					}
				},
				"tail4": {
					"rotation": {
						"0.0": [-25, "math.clamp(math.cos(q.anim_time*90*1-120-30), -0.5, 0.8)*15-math.clamp(math.cos(q.anim_time*90*1-120-30+180), -0.5, 0.8)*15", 0],
						"0.25": [-1.58856, -0.55414, -0.58017],
						"0.6667": {
							"pre": [-6.81751, 35.03351, -5.75254],
							"post": [-6.81751, 35.03351, -5.75254],
							"lerp_mode": "catmullrom"
						},
						"1.0": {
							"post": [23.95188, -14.09568, -3.94571],
							"lerp_mode": "catmullrom"
						},
						"1.25": {
							"post": [-6.81751, 35.03351, -5.75254],
							"lerp_mode": "catmullrom"
						},
						"1.4167": {
							"post": [23.95188, -14.09568, -3.94571],
							"lerp_mode": "catmullrom"
						},
						"1.5417": {
							"post": [1.78953, 16.76927, 0.05899],
							"lerp_mode": "catmullrom"
						},
						"1.75": {
							"post": [8.68311, 4.9716, 0.04617],
							"lerp_mode": "catmullrom"
						},
						"1.8333": {
							"post": [26.48, 3.65, -0.13],
							"lerp_mode": "catmullrom"
						},
						"1.9167": {
							"post": [36.04011, 3.5227, -0.38612],
							"lerp_mode": "catmullrom"
						},
						"2.2917": {
							"post": [-22.9244, 1.34934, -1.03455],
							"lerp_mode": "catmullrom"
						},
						"3.0": [-27.71, 3.18, 5.44]
					}
				},
				"tail5": {
					"rotation": {
						"0.0": ["27.5+math.sin(q.anim_time*90*2-120-30+90)*30", "math.cos(q.anim_time*90*1-120-50)*40 ", 0],
						"0.25": [-1.80435, -13.83996, -3.11514],
						"0.6667": {
							"pre": [3.18474, 25.62669, -6.02357],
							"post": [3.18474, 25.62669, -6.02357],
							"lerp_mode": "catmullrom"
						},
						"1.0": {
							"post": [23.34492, -13.61864, -10.45341],
							"lerp_mode": "catmullrom"
						},
						"1.25": {
							"post": [3.18474, 25.62669, -6.02357],
							"lerp_mode": "catmullrom"
						},
						"1.4167": {
							"post": [23.34492, -13.61864, -10.45341],
							"lerp_mode": "catmullrom"
						},
						"1.5417": {
							"post": [-13.24136, 22.34802, -12.91216],
							"lerp_mode": "catmullrom"
						},
						"1.75": {
							"post": [2.13719, 7.16367, -10.10517],
							"lerp_mode": "catmullrom"
						},
						"1.8333": {
							"post": [20.98, 4.09, -8.54],
							"lerp_mode": "catmullrom"
						},
						"1.9167": {
							"post": [11.91632, 1.92254, -6.67507],
							"lerp_mode": "catmullrom"
						},
						"2.2917": {
							"post": [-15.91499, -5.93914, -1.52993],
							"lerp_mode": "catmullrom"
						},
						"3.0": [-22.62, -5.58, 0.81]
					}
				},
				"tail6": {
					"rotation": {
						"0.0": [
							"10+math.sin(q.anim_time*90*2-120-50+90)*10 +math.clamp(math.sin(q.anim_time*90*2-120-120+90),-0.6,1)*20",
							"math.cos(q.anim_time*90*1-120-70)*50",
							0
						],
						"0.25": [0.38744, -20.08703, 0.26524],
						"0.6667": {
							"pre": [0.2794, 28.34962, 0.51138],
							"post": [0.2794, 28.34962, 0.51138],
							"lerp_mode": "catmullrom"
						},
						"1.0": {
							"post": [0.24837, -18.03105, 0.29812],
							"lerp_mode": "catmullrom"
						},
						"1.25": {
							"post": [0.2794, 28.34962, 0.51138],
							"lerp_mode": "catmullrom"
						},
						"1.4167": {
							"post": [0.24837, -18.03105, 0.29812],
							"lerp_mode": "catmullrom"
						},
						"1.5417": {
							"post": [-17.93068, 28.71669, -2.61527],
							"lerp_mode": "catmullrom"
						},
						"1.75": {
							"post": [0.96729, 9.97393, -2.04674],
							"lerp_mode": "catmullrom"
						},
						"1.8333": {
							"post": [32.68, 5.21, 0.59],
							"lerp_mode": "catmullrom"
						},
						"1.9167": {
							"post": [22.85158, 1.13506, 4.34644],
							"lerp_mode": "catmullrom"
						},
						"2.2917": {
							"post": [-20.57199, -12.12324, 13.93619],
							"lerp_mode": "catmullrom"
						},
						"3.0": [-17.04, -6.04, 6.63]
					}
				},
				"leg_front_right": {
					"rotation": {
						"0.0": ["7.5+math.cos(q.anim_time*90*2)*2+math.cos(q.anim_time*90*1)*20", 0, 0],
						"0.5": [23.24071, 1.31541, -3.53],
						"1.1667": [36.50703, -10.54529, 10.72858],
						"1.2917": [28.13516, -18.88579, 43.12671],
						"1.4583": {
							"pre": [23.85907, 16.47272, 28.78607],
							"post": [23.85907, 16.47272, 28.78607],
							"lerp_mode": "catmullrom"
						},
						"1.5417": {
							"post": [23.85907, 16.47272, 28.78607],
							"lerp_mode": "catmullrom"
						},
						"1.625": {
							"post": [-26.1914, 7.76911, 18.80187],
							"lerp_mode": "catmullrom"
						},
						"1.75": {
							"post": [-63.66086, 8.06867, 19.58725],
							"lerp_mode": "catmullrom"
						},
						"1.8333": {
							"post": [-34.29604, 11.49228, 26.84866],
							"lerp_mode": "catmullrom"
						},
						"2.1667": {
							"post": [-16.62379, -3.34824, -6.64],
							"lerp_mode": "catmullrom"
						},
						"2.5417": [-7.21975, -3.40487, -9.40804]
					},
					"position": {
						"0.0": [0, "-1-math.cos(q.anim_time*90*2)*0.5-math.cos(q.anim_time*90*1)*2", 0],
						"0.625": [-2.56, -0.89, 0],
						"0.8333": [-3.67, -0.55, 0],
						"1.1667": [-3.7, 0, 0],
						"1.375": {
							"pre": [-3.7, 0, 0],
							"post": [-3.7, 0, 0],
							"lerp_mode": "catmullrom"
						},
						"1.5": {
							"post": [-2.42, -4, 5],
							"lerp_mode": "catmullrom"
						},
						"1.7917": {
							"post": [-2.94, 0, 0],
							"lerp_mode": "catmullrom"
						},
						"1.9167": {
							"post": [-2.75, 0, 1],
							"lerp_mode": "catmullrom"
						},
						"2.2083": {
							"post": [-0.5, 0, 1],
							"lerp_mode": "catmullrom"
						},
						"2.5": [0.2, 0, 1]
					}
				},
				"leg_front_right2": {
					"rotation": {
						"0.0": ["-11-math.cos(q.anim_time*90*2)*4-math.cos(q.anim_time*90*1)*30", 0, 0],
						"0.5": [14.09, 0, 0],
						"1.1667": [0, 0, 0],
						"1.25": {
							"pre": [-13, 0, 0],
							"post": [-13, 0, 0],
							"lerp_mode": "catmullrom"
						},
						"1.3333": {
							"post": [-29.11063, -6.74585, -3.83856],
							"lerp_mode": "catmullrom"
						},
						"1.375": {
							"post": [-18.21469, -0.45583, -8.84868],
							"lerp_mode": "catmullrom"
						},
						"1.4583": {
							"post": [-20.3189, 6.70678, -13.7794],
							"lerp_mode": "catmullrom"
						},
						"1.5417": {
							"post": [-23.61916, 7.73873, -6.20281],
							"lerp_mode": "catmullrom"
						},
						"1.5833": {
							"post": [-4.97268, 7.9495, -0.86399],
							"lerp_mode": "catmullrom"
						},
						"1.75": {
							"post": [-51.93217, 9.40538, 17.08312],
							"lerp_mode": "catmullrom"
						},
						"1.875": {
							"post": [-54.11148, 16.41371, 6.15491],
							"lerp_mode": "catmullrom"
						},
						"1.9583": {
							"post": [-48.30499, 3.53693, -0.63792],
							"lerp_mode": "catmullrom"
						},
						"2.0833": {
							"post": [-27.25102, -4.97361, -3.93588],
							"lerp_mode": "catmullrom"
						},
						"2.2083": [-19.94308, -4.22811, -1.54189]
					},
					"position": {
						"0.0": [0, 0, "-0.5-math.cos(q.anim_time*90*1)*0.5"],
						"1.125": [0, 0, -0.9],
						"1.25": {
							"pre": [0, 0, 0],
							"post": [0, 0, 0],
							"lerp_mode": "catmullrom"
						},
						"1.375": {
							"post": [0, 0, -1.25],
							"lerp_mode": "catmullrom"
						},
						"1.4583": {
							"post": [0, 0, -1.9],
							"lerp_mode": "catmullrom"
						},
						"1.625": [0, 0, -1.3]
					}
				},
				"leg_front_right3": {
					"rotation": {
						"0.0": [22.5, 0, 0],
						"1.1667": [75, 0, 0],
						"1.2083": {
							"pre": [33.75, 0, 0],
							"post": [33.75, 0, 0],
							"lerp_mode": "catmullrom"
						},
						"1.25": {
							"post": [35, 0, 0],
							"lerp_mode": "catmullrom"
						},
						"1.3333": {
							"post": [75, 0, 0],
							"lerp_mode": "catmullrom"
						},
						"1.4167": {
							"post": [132.5, 0, 0],
							"lerp_mode": "catmullrom"
						},
						"1.5": {
							"post": [65, 0, 0],
							"lerp_mode": "catmullrom"
						},
						"1.5833": {
							"post": [47.5, 0, 0],
							"lerp_mode": "catmullrom"
						},
						"1.6667": {
							"post": [45, 0, 0],
							"lerp_mode": "catmullrom"
						},
						"1.7083": [82.5, 0, 0]
					}
				},
				"leg_front_left": {
					"rotation": {
						"0.0": ["-12.5+math.cos(q.anim_time*90*1)*10", 0, 0],
						"0.5833": [-89.46311, -6.78614, 3.19691],
						"0.75": [-87.86446, -9.46523, 18.31112],
						"0.8333": [-84.33001, -6.82534, 6.08011],
						"1.0": [-80.21362, -6.49053, 3.76613],
						"1.1667": [-80.21362, -6.49053, 3.76613],
						"1.2917": [-68.52042, -6.13867, 4.27085],
						"1.3333": [-50.45602, -6.02138, 4.43909],
						"1.4583": {
							"pre": [-17.82523, -18.7846, -6.42572],
							"post": [-17.82523, -18.7846, -6.42572],
							"lerp_mode": "catmullrom"
						},
						"1.5833": {
							"post": [-17.82523, -18.7846, -6.42572],
							"lerp_mode": "catmullrom"
						},
						"1.6667": {
							"post": [-50.2101, -27.53024, -4.63401],
							"lerp_mode": "catmullrom"
						},
						"1.875": {
							"post": [-41.596, -32.13863, -6.8714],
							"lerp_mode": "catmullrom"
						},
						"1.9583": {
							"post": [-45.32937, -26.86477, 1.0477],
							"lerp_mode": "catmullrom"
						},
						"2.2083": [-47.87239, -23.01593, 6.5944]
					},
					"position": {
						"0.0": [0, "0-math.cos(q.anim_time*90*2)*0.5-math.cos(q.anim_time*90*1)*2", "0.4+math.sin(q.anim_time*90*1-180)*0.1"],
						"0.4583": [-1, -0.82, 0.17],
						"1.1667": [-4, 0, 0],
						"1.2917": [-3.84, 0.46, -0.01],
						"1.5": {
							"pre": [-1.17, -4.74, 5.99],
							"post": [-1.17, -4.74, 5.99],
							"lerp_mode": "catmullrom"
						},
						"1.7083": {
							"post": [-1.95, 0, 0],
							"lerp_mode": "catmullrom"
						},
						"2.2083": [-1.4, 0, 0]
					}
				},
				"leg_front_left2": {
					"rotation": {
						"0.0": ["-50+math.cos(q.anim_time*90*1-30)*6", 0, 0],
						"0.5833": [-41.55739, 14.00386, 14.56984],
						"0.8333": [-41.06663, 9.08661, 17.89244],
						"1.0": {
							"pre": [-41.06663, 9.08661, 17.89244],
							"post": [-41.06663, 9.08661, 17.89244],
							"lerp_mode": "catmullrom"
						},
						"1.125": {
							"post": [-41.06663, 9.08661, 17.89244],
							"lerp_mode": "catmullrom"
						},
						"1.4167": {
							"post": [-33.56663, 9.08661, 17.89244],
							"lerp_mode": "catmullrom"
						},
						"1.4583": {
							"post": [-27.22086, 2.29773, 14.63195],
							"lerp_mode": "catmullrom"
						},
						"1.5833": {
							"post": [-12.9252, 17.2881, 13.35157],
							"lerp_mode": "catmullrom"
						},
						"1.875": {
							"post": [-16.06663, 9.08661, 17.89244],
							"lerp_mode": "catmullrom"
						},
						"1.9583": {
							"post": [-14.80923, 12.89041, 24.47848],
							"lerp_mode": "catmullrom"
						},
						"2.2083": [-6.61308, 11.40343, 16.72693]
					},
					"position": {
						"0.0": [0, 0, -1.6],
						"1.1667": [0, 0, 0]
					}
				},
				"leg_front_left3": {
					"rotation": {
						"0.0": ["155+math.cos(q.anim_time*90*1-60)*25+math.cos(q.anim_time*90*3-180-60)*10", 0, 0],
						"0.5833": [98.59, 4.16, 56.98],
						"0.8333": [63.22876, 4.5193, 65.68379],
						"1.0": {
							"pre": [75.72876, 4.5193, 65.68379],
							"post": [75.72876, 4.5193, 65.68379],
							"lerp_mode": "catmullrom"
						},
						"1.125": {
							"post": [83.22876, 4.5193, 65.68379],
							"lerp_mode": "catmullrom"
						},
						"1.4167": {
							"post": [77.84965, -2.23787, 46.84513],
							"lerp_mode": "catmullrom"
						},
						"1.6667": [79.60272, -4.31227, 16.86517]
					},
					"position": [0, -0.1, 0.2]
				},
				"leg_back_right": {
					"rotation": {
						"0.0": ["20-math.cos(q.anim_time*90*2-20)*1-math.cos(q.anim_time*90*1-20)*4", -1.08089, 4.88206],
						"0.125": [59.73763, -4.14015, 6.52579],
						"0.2917": [-13.12224, -7.1994, 8.16951],
						"0.3333": [-14.26619, -8.4231, 8.827],
						"0.4167": [-1.7, -9.24, 9.27],
						"0.625": {
							"pre": [43.66, -13.32, 11.46],
							"post": [43.66, -13.32, 11.46],
							"lerp_mode": "catmullrom"
						},
						"0.9167": {
							"post": [43.66, -13.32, 11.46],
							"lerp_mode": "catmullrom"
						},
						"1.0417": {
							"post": [42.88972, -9.99096, 15.26979],
							"lerp_mode": "catmullrom"
						},
						"1.0833": {
							"post": [37.43094, -11.52331, 16.6642],
							"lerp_mode": "catmullrom"
						},
						"1.1667": {
							"post": [10.84738, 11.59199, 27.67254],
							"lerp_mode": "catmullrom"
						},
						"1.2083": {
							"post": [-19.74722, -4.94888, 30.25084],
							"lerp_mode": "catmullrom"
						},
						"1.2917": {
							"post": [-17.36131, -3.36819, 29.97574],
							"lerp_mode": "catmullrom"
						},
						"1.375": {
							"post": [-14.6102, -3.07886, 24.84489],
							"lerp_mode": "catmullrom"
						},
						"1.4583": {
							"post": [2.61778, -1.12147, 14.26242],
							"lerp_mode": "catmullrom"
						},
						"1.5417": {
							"post": [10.25686, -2.6656, 18.05625],
							"lerp_mode": "catmullrom"
						},
						"1.75": {
							"post": [8.76271, -4.09775, 19.78296],
							"lerp_mode": "catmullrom"
						},
						"2.375": [6.47144, 3.77849, -23.58754]
					},
					"position": {
						"0.0": [0, 1, 0],
						"0.4167": [0, -0.33, -0.67],
						"0.625": {
							"pre": [0, 0, 0],
							"post": [0, 0, 0],
							"lerp_mode": "catmullrom"
						},
						"0.9167": {
							"post": [0, 0, 0],
							"lerp_mode": "catmullrom"
						},
						"1.0833": {
							"post": [0, 0, 0],
							"lerp_mode": "catmullrom"
						},
						"1.375": {
							"post": [-0.4, -0.4, -1.5],
							"lerp_mode": "catmullrom"
						},
						"2.375": [-2, -2, 1]
					}
				},
				"leg_back_right2": {
					"rotation": {
						"0.0": ["-7+math.cos(q.anim_time*90*2-30)*2+math.cos(q.anim_time*90*1-30)*8", 0, -5],
						"0.125": [-46.60244, 0, -3.75],
						"0.2917": [-47.11134, 10.54564, 4.24949],
						"0.4167": [-35.3, 2.64, 0.12],
						"0.625": [-63.99796, -2.16663, -1.37313],
						"0.9167": [-63.99796, -2.16663, -1.37313],
						"1.0": {
							"pre": [-63.99796, -2.16663, -1.37313],
							"post": [-63.99796, -2.16663, -1.37313],
							"lerp_mode": "catmullrom"
						},
						"1.0417": {
							"post": [-64.24796, -2.16663, -1.37313],
							"lerp_mode": "catmullrom"
						},
						"1.0833": {
							"post": [-61.49796, -2.16663, -1.37313],
							"lerp_mode": "catmullrom"
						},
						"1.1667": {
							"post": [-43.26235, -0.37973, 0.28636],
							"lerp_mode": "catmullrom"
						},
						"1.2083": {
							"post": [-10.83, 0, 0],
							"lerp_mode": "catmullrom"
						},
						"1.5": {
							"post": [-10.54015, -3.54019, -9.35835],
							"lerp_mode": "catmullrom"
						},
						"1.6667": {
							"post": [-10.81187, -0.88874, -2.33679],
							"lerp_mode": "catmullrom"
						},
						"1.7083": {
							"post": [-9.67293, 6.98567, 18.78733],
							"lerp_mode": "catmullrom"
						},
						"1.75": {
							"post": [-0.7366, 10.24154, 28.35194],
							"lerp_mode": "catmullrom"
						},
						"1.8333": {
							"post": [2.56693, 9.09179, 18.27463],
							"lerp_mode": "catmullrom"
						},
						"1.875": {
							"post": [-13.36007, 6.17014, 11.30451],
							"lerp_mode": "catmullrom"
						},
						"1.9583": {
							"post": [-14.09235, 1.12367, -0.15858],
							"lerp_mode": "catmullrom"
						},
						"2.375": [-14.04358, -1.93863, -7.0059]
					},
					"position": {
						"0.4167": [0, 0, 0],
						"0.625": [0, 0, 0],
						"0.9167": [0, 0, 0]
					}
				},
				"leg_back_right3": {
					"rotation": {
						"0.0": ["15+math.clamp(-math.cos(q.anim_time*90*2-40)*2-math.cos(q.anim_time*90*1-40)*12, -9, 20)", 0, 0],
						"0.125": [33.69, 0, 0],
						"0.25": [46.02, 0, 0],
						"0.2917": [51.8, 0, 0],
						"0.375": [3.35, 0, 0],
						"0.4167": [26.27, 0, 0],
						"0.5417": [55.17, 0, 0],
						"0.625": [67.5, 0, 0],
						"0.9167": [67.5, 0, 0],
						"1.1667": [67.5, 0, 0]
					},
					"position": {
						"0.0": [
							0,
							"-0.2+math.clamp(math.sin(q.anim_time*90*1+90),0.2,0.8)*0.7-math.clamp(math.sin(q.anim_time*90*1+90),0.2, 1)*0.3",
							"0.2+math.cos(q.anim_time*90*1)*0.1"
						],
						"0.4167": [0, 0.04, 0.09],
						"0.625": [0, 0, 0],
						"0.9167": [0, 0, 0],
						"1.1667": [0, 0, 0]
					}
				},
				"leg_back_left": {
					"rotation": {
						"0.0": ["-12.5-math.cos(q.anim_time*90*2-20)*1/2-math.cos(q.anim_time*90*1-20)*2", 1.08089, -4.88206],
						"0.25": [7.1, 0.79, -3.57],
						"0.375": [19.6, 0.79, -3.57],
						"0.5417": [32.82068, 0.45037, -2.03419],
						"0.8333": {
							"pre": [14.53588, 1.86597, -15.35932],
							"post": [14.53588, 1.86597, -15.35932],
							"lerp_mode": "catmullrom"
						},
						"1.0": {
							"post": [14.41898, 2.86648, -18.19002],
							"lerp_mode": "catmullrom"
						},
						"1.0833": {
							"post": [11.16406, -3.0899, -22.78149],
							"lerp_mode": "catmullrom"
						},
						"1.2917": {
							"post": [16.68474, -8.61627, -37.07823],
							"lerp_mode": "catmullrom"
						},
						"1.4583": {
							"post": [12.69467, -2.5177, -36.33584],
							"lerp_mode": "catmullrom"
						},
						"1.7083": {
							"post": [12.69467, -2.5177, -36.33584],
							"lerp_mode": "catmullrom"
						},
						"1.75": {
							"post": [10.41339, -6.97909, -15.71231],
							"lerp_mode": "catmullrom"
						},
						"2.375": [9.54905, -7.75858, -5.8345]
					},
					"position": {
						"0.0": [0, 1, 0],
						"0.25": [0.35, 1, 0],
						"0.375": [0.55, 1, 0.5],
						"0.625": [0.54, 1, 0.23],
						"0.8333": {
							"pre": [1, 1, 0],
							"post": [1, 1, 0],
							"lerp_mode": "catmullrom"
						},
						"1.0": {
							"post": [1, 1, 0],
							"lerp_mode": "catmullrom"
						},
						"1.4583": [1, 1, -2]
					}
				},
				"leg_back_left2": {
					"rotation": {
						"0.0": ["-2+math.cos(q.anim_time*90*2-30)*1+math.cos(q.anim_time*90*1-30)*4", 0, 5],
						"0.25": [-18.26487, 0.34873, 8.43478],
						"0.375": [-30.76487, 0.34873, 8.43478],
						"0.5417": [-44.19363, 0.8137, 13.01449],
						"0.8333": {
							"pre": [-10.23808, -4.87249, 7.73163],
							"post": [-10.23808, -4.87249, 7.73163],
							"lerp_mode": "catmullrom"
						},
						"1.0": {
							"post": [-7.73808, -4.87249, 7.73163],
							"lerp_mode": "catmullrom"
						},
						"1.125": {
							"post": [-4.34315, -9.618, 13.68883],
							"lerp_mode": "catmullrom"
						},
						"1.2083": {
							"post": [-12.78571, -10.92348, 5.14541],
							"lerp_mode": "catmullrom"
						},
						"1.2917": {
							"post": [-11.22828, -12.22895, -3.398],
							"lerp_mode": "catmullrom"
						},
						"1.375": {
							"post": [-18.93279, -17.80234, -16.94123],
							"lerp_mode": "catmullrom"
						},
						"1.4583": {
							"post": [-5.60353, -8.05637, -3.8772],
							"lerp_mode": "catmullrom"
						},
						"1.5833": {
							"post": [-20.56026, 6.69617, -16.77812],
							"lerp_mode": "catmullrom"
						},
						"1.6667": {
							"post": [-35.86587, -10.73466, -42.55889],
							"lerp_mode": "catmullrom"
						},
						"1.7083": {
							"post": [-54.3129, 6.12886, -5.69024],
							"lerp_mode": "catmullrom"
						},
						"1.75": {
							"post": [-54.37559, 17.39084, -15.62388],
							"lerp_mode": "catmullrom"
						},
						"1.9167": {
							"post": [-37.03064, 15.38571, 18.01387],
							"lerp_mode": "catmullrom"
						},
						"2.2083": {
							"post": [-3.88669, 14.01369, 6.31419],
							"lerp_mode": "catmullrom"
						},
						"2.5417": [7.4069, 11.15492, 1.59251]
					},
					"position": {
						"0.0": [0, 0, 0],
						"0.25": [0, 0, -0.46],
						"0.375": [0, 0, -0.46],
						"0.5417": [0, 0, -1]
					}
				},
				"leg_back_left3": {
					"rotation": {
						"0.0": [25, 0, 0],
						"0.25": [32.31, -6.38, -2.42],
						"0.375": {
							"pre": [39.81, -6.38, -2.42],
							"post": [39.81, -6.38, -2.42],
							"lerp_mode": "catmullrom"
						},
						"0.8333": {
							"post": [54.22776, -25.50509, -9.66748],
							"lerp_mode": "catmullrom"
						},
						"1.0": {
							"post": [54.22776, -25.50509, -9.66748],
							"lerp_mode": "catmullrom"
						},
						"1.2917": [66.05793, -15.54088, -4.83286],
						"2.375": [27.49858, 21.46902, 13.12427]
					},
					"position": {
						"0.0": [
							0,
							"-0.2+math.clamp(math.sin(q.anim_time*90*1+90),0.2,0.8)*0.2-math.clamp(math.sin(q.anim_time*90*1+90),0.2, 1)*0.1",
							"0.2+math.cos(q.anim_time*90*1)*0.1"
						],
						"0.25": [0, -0.1, 0.23],
						"0.375": {
							"pre": [0, -0.1, 0.23],
							"post": [0, -0.1, 0.23],
							"lerp_mode": "catmullrom"
						},
						"0.8333": {
							"post": [0, -0.04, 0.1],
							"lerp_mode": "catmullrom"
						},
						"1.0": {
							"post": [0, -0.04, 0.1],
							"lerp_mode": "catmullrom"
						},
						"1.1667": [0, 0, 0]
					}
				},
				"mane": {
					"rotation": {
						"0.0": [0, 0, 0],
						"2.5417": [0, 0, 0]
					}
				},
				"mane2": {
					"rotation": {
						"0.0": {
							"post": [0, 0, 0],
							"lerp_mode": "catmullrom"
						},
						"1.25": {
							"post": [-2.5, 0, 0],
							"lerp_mode": "catmullrom"
						},
						"1.4583": {
							"post": [-15, 0, 0],
							"lerp_mode": "catmullrom"
						},
						"2.5417": [0, 0, 0]
					}
				},
				"chest": {
					"rotation": {
						"0.0": {
							"post": [7.5, 0, 0],
							"lerp_mode": "catmullrom"
						},
						"0.5": {
							"post": [-2.5, 0, 0],
							"lerp_mode": "catmullrom"
						},
						"1.0": {
							"post": [-2.5, 0, 0],
							"lerp_mode": "catmullrom"
						},
						"1.2917": {
							"post": [2.50954, 2.99523, 0.21865],
							"lerp_mode": "catmullrom"
						},
						"1.5": {
							"post": [55.23095, 6.29357, 6.15518],
							"lerp_mode": "catmullrom"
						},
						"1.7083": {
							"post": [30.09468, 7.32875, 2.50477],
							"lerp_mode": "catmullrom"
						},
						"1.875": {
							"post": [0.36, 13.25, 0],
							"lerp_mode": "catmullrom"
						},
						"2.0417": {
							"post": [8.36, 9, 0],
							"lerp_mode": "catmullrom"
						},
						"2.2917": [10, 0, 0]
					}
				}
			}
		},
		"animation.thievul.attack": {
			"loop": true,
			"bones": {
				"body": {
					"position": [0, -2, 0]
				},
				"torso": {
					"rotation": [12.5, 0, 0],
					"position": [0, -1, 0]
				},
				"mane": {
					"position": [0, -0.8, 0]
				},
				"neck": {
					"rotation": [10, 0, 0],
					"position": [0, 0, 0]
				},
				"head": {
					"rotation": [-22.5, 0, 0]
				},
				"tail": {
					"rotation": [42.5, 0, 0]
				},
				"tail2": {
					"rotation": [-22.5, 0, 0]
				},
				"tail3": {
					"rotation": [-40, 0, 0]
				},
				"tail4": {
					"rotation": [-40, 0, 0]
				},
				"tail5": {
					"rotation": [20, 0, 0]
				},
				"tail6": {
					"rotation": [27.5, 0, 0]
				},
				"leg_front_right": {
					"rotation": [57.5, 0, 0],
					"position": [0, -2, 0]
				},
				"leg_front_right2": {
					"rotation": [-52.5, 0, 0],
					"position": [0, 0, -1.5]
				},
				"leg_front_left": {
					"rotation": [-2.5, 0, 0],
					"position": [0, -3, 0]
				},
				"leg_front_left2": {
					"rotation": [-50, 0, 0],
					"position": [0, 0, -1.35]
				},
				"leg_front_left3": {
					"rotation": [53.5, 0, 0]
				},
				"leg_back_right": {
					"rotation": [30, 0, 0],
					"position": [0, 0, -2]
				},
				"leg_back_right2": {
					"rotation": [-7.5, 0, 0]
				},
				"leg_back_right3": {
					"rotation": [7.5, 0, 0]
				},
				"leg_back_left": {
					"rotation": [12.5, 0, 0],
					"position": [0, -1.2, -1]
				},
				"leg_back_left2": {
					"rotation": [-47.5, 0, 0]
				},
				"leg_back_left3": {
					"rotation": [35.54161, -0.73263, 0.61153]
				}
			}
		}
	}
}