{
	"format_version": "1.8.0",
	"animations": {
		"animation.glimmora.ground_idle": {
			"loop": true,
			"bones": {
				"frontpetal_top_rotation": {
					"rotation": [5, 0, 0]
				},
				"frontpetal_top2": {
					"rotation": ["-65+Math.cos((query.anim_time) * 90 * 1 - 120) * 2", 0, 0]
				},
				"frontpetal_top3": {
					"rotation": [-30, 0, 0]
				},
				"frontpetal_top4": {
					"rotation": [-20, 0, 0]
				},
				"frontpetal_top_left_rotation": {
					"rotation": [5, 0, 0]
				},
				"frontpetal_top_left2": {
					"rotation": ["-65+Math.cos((query.anim_time) * 90 * 1 - 120) * 2", 0, 0]
				},
				"frontpetal_top_left3": {
					"rotation": [-30, 0, 0]
				},
				"frontpetal_top_left4": {
					"rotation": [-20, 0, 0]
				},
				"frontpetal_top_right2": {
					"rotation": ["-65+Math.cos((query.anim_time) * 90 * 1 - 120) * 2", 0, 0]
				},
				"frontpetal_top_right3": {
					"rotation": [-30, 0, 0]
				},
				"frontpetal_top_right4": {
					"rotation": [-20, 0, 0]
				},
				"frontpetal_bottom2": {
					"rotation": ["65+Math.cos((query.anim_time) * 90 * 1 - 120) * -2", 0, 0]
				},
				"frontpetal_bottom3": {
					"rotation": [30, 0, 0]
				},
				"frontpetal_bottom4": {
					"rotation": [20, 0, 0]
				},
				"frontpetal_bottom_left2": {
					"rotation": ["65+Math.cos((query.anim_time) * 90 * 1 - 120) * -2", 0, 0]
				},
				"frontpetal_bottom_left3": {
					"rotation": [30, 0, 0]
				},
				"frontpetal_bottom_left4": {
					"rotation": [20, 0, 0]
				},
				"frontpetal_bottom_right2": {
					"rotation": ["65+Math.cos((query.anim_time) * 90 * 1 - 120) * -2", 0, 0]
				},
				"frontpetal_bottom_right3": {
					"rotation": [30, 0, 0]
				},
				"frontpetal_bottom_right4": {
					"rotation": [20, 0, 0]
				},
				"midpetal_top_left": {
					"rotation": [0, 0, 7.5]
				},
				"midpetal_top_left_rotation": {
					"rotation": [-15, 0, 0]
				},
				"midpetal_top_left2": {
					"rotation": ["-55+Math.cos((query.anim_time) * 90 * 1 - 160) * 1", 0, 0]
				},
				"midpetal_top_left3": {
					"rotation": [-35, 0, 0]
				},
				"midpetal_top_left4": {
					"rotation": ["-5+Math.cos((query.anim_time)*90*1-160)*-8", 0, 0]
				},
				"midpetal_top_right4": {
					"rotation": ["-5+Math.cos((query.anim_time)*90*1-160)*-8", 0, 0]
				},
				"midpetal_top_right3": {
					"rotation": [-35, 0, 0]
				},
				"midpetal_top_right2": {
					"rotation": ["-55+Math.cos((query.anim_time) * 90 * 1 - 160) * 1", 0, 0]
				},
				"midpetal_top_right_rotation": {
					"rotation": [-15, 0, 0]
				},
				"midpetal_top_right": {
					"rotation": [0, 0, -7.5]
				},
				"midpetal_bottom_left": {
					"rotation": [0, 0, -7.5]
				},
				"midpetal_bottom_left_rotation": {
					"rotation": [15, 0, 0]
				},
				"midpetal_bottom_left2": {
					"rotation": ["55+Math.cos((query.anim_time) * 90 * 1 - 160) * -1", 0, 0]
				},
				"midpetal_bottom_left3": {
					"rotation": [35, 0, 0]
				},
				"midpetal_bottom_left4": {
					"rotation": ["5+Math.cos((query.anim_time)*90*1-160)*8", 0, 0]
				},
				"midpetal_bottom_right": {
					"rotation": [0, 0, 7.5]
				},
				"midpetal_bottom_right_rotation": {
					"rotation": [15, 0, 0]
				},
				"midpetal_bottom_right2": {
					"rotation": ["55+Math.cos((query.anim_time) * 90 * 1 - 160) * -1", 0, 0]
				},
				"midpetal_bottom_right3": {
					"rotation": [35, 0, 0]
				},
				"midpetal_bottom_right4": {
					"rotation": ["5+Math.cos((query.anim_time)*90*1-160)*8", 0, 0]
				},
				"backpetal_bottom_rotation": {
					"rotation": [77.5, 0, 0]
				},
				"backpetal_bottom2": {
					"rotation": [25, 0, 0]
				},
				"backpetal_top_left_rotation": {
					"rotation": [-77.5, 0, 0]
				},
				"backpetal_top_left2": {
					"rotation": [-25, 0, 0]
				},
				"backpetal_top_right_rotation": {
					"rotation": [-77.5, 0, 0]
				},
				"backpetal_top_right2": {
					"rotation": [-25, 0, 0]
				},
				"frontpetal_top_right_rotation": {
					"rotation": [5, 0, 0]
				},
				"frontpetal_bottom_rotation": {
					"rotation": [-5, 0, 0]
				},
				"frontpetal_bottom_left_rotation": {
					"rotation": [-2.5, 0, 0]
				},
				"frontpetal_bottom_right_rotation": {
					"rotation": [-5, 0, 0]
				},
				"body": {
					"rotation": ["0+Math.cos((query.anim_time) * 90 * 1 - 90) * -2", 0, "0+Math.cos((query.anim_time) * 90 * 1/2) * -2"],
					"position": [0, "0+Math.cos((query.anim_time) * 90 * 1) * 0.5", 0]
				}
			}
		},
		"animation.glimmora.ground_walk": {
			"loop": true,
			"bones": {
				"frontpetal_top_rotation": {
					"rotation": [5, 0, 0]
				},
				"frontpetal_top2": {
					"rotation": ["-65+Math.cos((query.anim_time) * 90 * 4 - 150) * 3", 0, 0]
				},
				"frontpetal_top3": {
					"rotation": [-30, 0, 0]
				},
				"frontpetal_top4": {
					"rotation": [-20, 0, 0]
				},
				"frontpetal_top_left_rotation": {
					"rotation": [5, 0, 0]
				},
				"frontpetal_top_left2": {
					"rotation": ["-65+Math.cos((query.anim_time) * 90 * 4 - 150) * 3", 0, 0]
				},
				"frontpetal_top_left3": {
					"rotation": [-30, 0, 0]
				},
				"frontpetal_top_left4": {
					"rotation": [-20, 0, 0]
				},
				"frontpetal_top_right2": {
					"rotation": ["-65+Math.cos((query.anim_time) * 90 * 4 - 150) * 3", 0, 0]
				},
				"frontpetal_top_right3": {
					"rotation": [-30, 0, 0]
				},
				"frontpetal_top_right4": {
					"rotation": [-20, 0, 0]
				},
				"frontpetal_bottom2": {
					"rotation": ["65+Math.cos((query.anim_time) * 90 * 4 - 150) * -3", 0, 0]
				},
				"frontpetal_bottom3": {
					"rotation": [30, 0, 0]
				},
				"frontpetal_bottom4": {
					"rotation": [20, 0, 0]
				},
				"frontpetal_bottom_left2": {
					"rotation": ["65+Math.cos((query.anim_time) * 90 * 4 - 150) * -3", 0, 0]
				},
				"frontpetal_bottom_left3": {
					"rotation": [30, 0, 0]
				},
				"frontpetal_bottom_left4": {
					"rotation": [20, 0, 0]
				},
				"frontpetal_bottom_right2": {
					"rotation": ["65+Math.cos((query.anim_time) * 90 * 4 - 150) * -3", 0, 0]
				},
				"frontpetal_bottom_right3": {
					"rotation": [30, 0, 0]
				},
				"frontpetal_bottom_right4": {
					"rotation": [20, 0, 0]
				},
				"midpetal_top_left": {
					"rotation": [0, 0, 7.5]
				},
				"midpetal_top_left_rotation": {
					"rotation": [-15, 0, 0]
				},
				"midpetal_top_left2": {
					"rotation": ["-55+Math.cos((query.anim_time) * 90 * 4 - 180) * 2", 0, 0]
				},
				"midpetal_top_left3": {
					"rotation": [-32.5, 0, 0]
				},
				"midpetal_top_left4": {
					"rotation": [-2.5, 0, 0]
				},
				"midpetal_top_right4": {
					"rotation": [-2.5, 0, 0]
				},
				"midpetal_top_right3": {
					"rotation": [-32.5, 0, 0]
				},
				"midpetal_top_right2": {
					"rotation": ["-55+Math.cos((query.anim_time) * 90 * 4 - 180) * 2", 0, 0]
				},
				"midpetal_top_right_rotation": {
					"rotation": [-15, 0, 0]
				},
				"midpetal_top_right": {
					"rotation": [0, 0, -7.5]
				},
				"midpetal_bottom_left": {
					"rotation": [0, 0, -7.5]
				},
				"midpetal_bottom_left_rotation": {
					"rotation": [15, 0, 0]
				},
				"midpetal_bottom_left2": {
					"rotation": ["55+Math.cos((query.anim_time) * 90 * 4 - 180) * -2", 0, 0]
				},
				"midpetal_bottom_left3": {
					"rotation": [32.5, 0, 0]
				},
				"midpetal_bottom_left4": {
					"rotation": [2.5, 0, 0]
				},
				"midpetal_bottom_right": {
					"rotation": [0, 0, 7.5]
				},
				"midpetal_bottom_right_rotation": {
					"rotation": [15, 0, 0]
				},
				"midpetal_bottom_right2": {
					"rotation": ["55+Math.cos((query.anim_time) * 90 * 4 - 180) * -2", 0, 0]
				},
				"midpetal_bottom_right3": {
					"rotation": [32.5, 0, 0]
				},
				"midpetal_bottom_right4": {
					"rotation": [2.5, 0, 0]
				},
				"backpetal_bottom_rotation": {
					"rotation": [77.5, 0, 0]
				},
				"backpetal_bottom2": {
					"rotation": [25, 0, 0]
				},
				"backpetal_top_left_rotation": {
					"rotation": [-77.5, 0, 0]
				},
				"backpetal_top_left2": {
					"rotation": [-25, 0, 0]
				},
				"backpetal_top_right_rotation": {
					"rotation": [-77.5, 0, 0]
				},
				"backpetal_top_right2": {
					"rotation": [-25, 0, 0]
				},
				"frontpetal_top_right_rotation": {
					"rotation": [5, 0, 0]
				},
				"frontpetal_bottom_rotation": {
					"rotation": [-5, 0, 0]
				},
				"frontpetal_bottom_left_rotation": {
					"rotation": [-2.5, 0, 0]
				},
				"frontpetal_bottom_right_rotation": {
					"rotation": [-5, 0, 0]
				},
				"body": {
					"rotation": ["0+Math.cos((query.anim_time) * 90 * 4 - 90) * 4", 0, "0+Math.cos((query.anim_time) * 90 * 2 - 45) * -3"],
					"position": [0, "0+Math.cos((query.anim_time) * 90 * 4) * 0.5", 0]
				}
			}
		},
		"animation.glimmora.battle_idle": {
			"loop": true,
			"bones": {
				"frontpetal_top": {
					"rotation": [0, 0, 0]
				},
				"frontpetal_top_rotation": {
					"rotation": [15, 0, 0]
				},
				"frontpetal_top2": {
					"rotation": ["-30+Math.cos((query.anim_time) * 90 * 2 - 120) * -3", 0, 0]
				},
				"frontpetal_top3": {
					"rotation": [-12.5, 0, 0]
				},
				"frontpetal_top4": {
					"rotation": [-27.5, 0, 0]
				},
				"frontpetal_top_left_rotation": {
					"rotation": [15, 0, 0]
				},
				"frontpetal_top_left2": {
					"rotation": ["-30+Math.cos((query.anim_time) * 90 * 2 - 120) * -3", 0, 0]
				},
				"frontpetal_top_left3": {
					"rotation": [-12.5, 0, 0]
				},
				"frontpetal_top_left4": {
					"rotation": [-27.5, 0, 0]
				},
				"body": {
					"rotation": ["0+Math.cos((query.anim_time) * 90 * 2 - 90) * -2", 0, "0+Math.cos((query.anim_time) * 90 * 1 - 45) * 5"],
					"position": [0, "11+Math.cos((query.anim_time) * 90 * 2) * 0.8", 0]
				},
				"frontpetal_top_right_rotation": {
					"rotation": [15, 0, 0]
				},
				"frontpetal_top_right2": {
					"rotation": ["-30+Math.cos((query.anim_time) * 90 * 2 - 120) * -3", 0, 0]
				},
				"frontpetal_top_right3": {
					"rotation": [-12.5, 0, 0]
				},
				"frontpetal_top_right4": {
					"rotation": [-27.5, 0, 0]
				},
				"frontpetal_bottom_rotation": {
					"rotation": [-15, 0, 0]
				},
				"frontpetal_bottom2": {
					"rotation": ["30+Math.cos((query.anim_time) * 90 * 2 - 120) * 3", 0, 0]
				},
				"frontpetal_bottom3": {
					"rotation": [12.5, 0, 0]
				},
				"frontpetal_bottom4": {
					"rotation": [27.5, 0, 0]
				},
				"frontpetal_bottom_left_rotation": {
					"rotation": [-15, 0, 0]
				},
				"frontpetal_bottom_left2": {
					"rotation": ["30+Math.cos((query.anim_time) * 90 * 2 - 120) * 3", 0, 0]
				},
				"frontpetal_bottom_left3": {
					"rotation": [12.5, 0, 0]
				},
				"frontpetal_bottom_left4": {
					"rotation": [27.5, 0, 0]
				},
				"frontpetal_bottom_right_rotation": {
					"rotation": [-15, 0, 0]
				},
				"frontpetal_bottom_right2": {
					"rotation": ["30+Math.cos((query.anim_time) * 90 * 2 - 120) * 3", 0, 0]
				},
				"frontpetal_bottom_right3": {
					"rotation": [12.5, 0, 0]
				},
				"frontpetal_bottom_right4": {
					"rotation": [27.5, 0, 0]
				},
				"midpetal_top_left": {
					"rotation": [0, 0, 0]
				},
				"midpetal_top_left_rotation": {
					"rotation": [-12.5, 0, 0]
				},
				"midpetal_top_left2": {
					"rotation": ["-17.5+Math.cos((query.anim_time) * 90 * 2 - 160) * -3", 0, 0]
				},
				"midpetal_top_left3": {
					"rotation": [-20, 0, 0]
				},
				"midpetal_top_left4": {
					"rotation": [-12.5, 0, 0]
				},
				"midpetal_top_right": {
					"rotation": [0, 0, 0]
				},
				"midpetal_top_right_rotation": {
					"rotation": [-12.5, 0, 0]
				},
				"midpetal_top_right2": {
					"rotation": ["-17.5+Math.cos((query.anim_time) * 90 * 2 - 160) * -3", 0, 0]
				},
				"midpetal_top_right3": {
					"rotation": [-20, 0, 0]
				},
				"midpetal_top_right4": {
					"rotation": [-12.5, 0, 0]
				},
				"midpetal_bottom_left": {
					"rotation": [0, 0, 0]
				},
				"midpetal_bottom_left_rotation": {
					"rotation": [12.5, 0, 0]
				},
				"midpetal_bottom_left2": {
					"rotation": ["17.5+Math.cos((query.anim_time) * 90 * 2 - 160) * 3", 0, 0]
				},
				"midpetal_bottom_left3": {
					"rotation": [20, 0, 0]
				},
				"midpetal_bottom_left4": {
					"rotation": [12.5, 0, 0]
				},
				"midpetal_bottom_right_rotation": {
					"rotation": [12.5, 0, 0]
				},
				"midpetal_bottom_right2": {
					"rotation": ["17.5+Math.cos((query.anim_time) * 90 * 2 - 160) * 3", 0, 0]
				},
				"midpetal_bottom_right3": {
					"rotation": [20, 0, 0]
				},
				"midpetal_bottom_right4": {
					"rotation": [12.5, 0, 0]
				},
				"backpetal_bottom2": {
					"rotation": [15, 0, 0]
				},
				"backpetal_bottom_rotation": {
					"rotation": ["50+Math.cos((query.anim_time) * 90 * 2 - 200) * 3", 0, 0]
				},
				"backpetal_top_left_rotation": {
					"rotation": ["-50+Math.cos((query.anim_time) * 90 * 2 - 200) * -3", 0, 0]
				},
				"backpetal_top_left2": {
					"rotation": [-15, 0, 0]
				},
				"backpetal_top_right_rotation": {
					"rotation": ["-50+Math.cos((query.anim_time) * 90 * 2 - 200) * -3", 0, 0]
				},
				"backpetal_top_right2": {
					"rotation": [-15, 0, 0]
				}
			}
		},
		"animation.glimmora.sleep": {
			"loop": true,
			"bones": {
				"frontpetal_top_rotation": {
					"rotation": [5, 0, 0]
				},
				"frontpetal_top2": {
					"rotation": ["-75+Math.cos((query.anim_time) * 90 * 1) * 1", 0, 0]
				},
				"frontpetal_top3": {
					"rotation": [-25, 0, 0]
				},
				"frontpetal_top4": {
					"rotation": [-20, 0, 0]
				},
				"frontpetal_top_left_rotation": {
					"rotation": [5, 0, 0]
				},
				"frontpetal_top_left2": {
					"rotation": ["-65+Math.cos((query.anim_time) * 90 * 1) * 1", 0, 0]
				},
				"frontpetal_top_left3": {
					"rotation": [-30, 0, 0]
				},
				"frontpetal_top_left4": {
					"rotation": [-20, 0, 0]
				},
				"frontpetal_top_right2": {
					"rotation": ["-65+Math.cos((query.anim_time) * 90 * 1) * 1", 0, 0]
				},
				"frontpetal_top_right3": {
					"rotation": [-30, 0, 0]
				},
				"frontpetal_top_right4": {
					"rotation": [-20, 0, 0]
				},
				"frontpetal_bottom2": {
					"rotation": [90, 0, 0]
				},
				"frontpetal_bottom3": {
					"rotation": [30, 0, 0]
				},
				"frontpetal_bottom4": {
					"rotation": [20, 0, 0]
				},
				"frontpetal_bottom_left2": {
					"rotation": [63.21865, "20.2935+Math.cos((query.anim_time) * 90 * 1 - 90) * 1", -9.92926]
				},
				"frontpetal_bottom_left3": {
					"rotation": [29.40842, -6.21271, 10.86815]
				},
				"frontpetal_bottom_left4": {
					"rotation": [20, 0, 0]
				},
				"frontpetal_bottom_right2": {
					"rotation": [63.21865, "-20.2935+Math.cos((query.anim_time) * 90 * 1 - 90) * 1", 9.92926]
				},
				"frontpetal_bottom_right3": {
					"rotation": [29.40842, 6.21271, -10.86815]
				},
				"frontpetal_bottom_right4": {
					"rotation": [20, 0, 0]
				},
				"midpetal_top_left": {
					"rotation": [0, 0, 7.5]
				},
				"midpetal_top_left_rotation": {
					"rotation": [-15, 0, 0]
				},
				"midpetal_top_left2": {
					"rotation": [-54.76837, 6.13784, 4.31837]
				},
				"midpetal_top_left3": {
					"rotation": [-35, 0, 0]
				},
				"midpetal_top_left4": {
					"rotation": [-10, 0, 0]
				},
				"midpetal_top_right4": {
					"rotation": [-10, 0, 0]
				},
				"midpetal_top_right3": {
					"rotation": [-35, 0, 0]
				},
				"midpetal_top_right2": {
					"rotation": [-54.76837, -6.13784, -4.31837]
				},
				"midpetal_top_right_rotation": {
					"rotation": [-15, 0, 0]
				},
				"midpetal_top_right": {
					"rotation": [0, 0, -7.5]
				},
				"midpetal_bottom_left": {
					"rotation": [0, 0, -7.5]
				},
				"midpetal_bottom_left_rotation": {
					"rotation": [15, 0, 0]
				},
				"midpetal_bottom_left2": {
					"rotation": [55, 0, 0]
				},
				"midpetal_bottom_left3": {
					"rotation": [26.94078, 20.52869, 15.28676]
				},
				"midpetal_bottom_left4": {
					"rotation": [10, 0, 0]
				},
				"midpetal_bottom_right": {
					"rotation": [0, 0, 7.5]
				},
				"midpetal_bottom_right_rotation": {
					"rotation": [15, 0, 0]
				},
				"midpetal_bottom_right2": {
					"rotation": [55, 0, 0]
				},
				"midpetal_bottom_right3": {
					"rotation": [26.94078, -20.52869, -15.28676]
				},
				"midpetal_bottom_right4": {
					"rotation": [10, 0, 0]
				},
				"backpetal_bottom_rotation": {
					"rotation": [77.5, 0, 0]
				},
				"backpetal_bottom2": {
					"rotation": [25, 0, 0]
				},
				"backpetal_top_left_rotation": {
					"rotation": [-77.5, 0, 0]
				},
				"backpetal_top_left2": {
					"rotation": [-25, 0, 0]
				},
				"backpetal_top_right_rotation": {
					"rotation": [-77.5, 0, 0]
				},
				"backpetal_top_right2": {
					"rotation": [-25, 0, 0]
				},
				"frontpetal_top_right_rotation": {
					"rotation": [5, 0, 0]
				},
				"frontpetal_bottom_rotation": {
					"rotation": [-5, 0, 0]
				},
				"frontpetal_bottom_left_rotation": {
					"rotation": [-2.5, 0, 0]
				},
				"frontpetal_bottom_right_rotation": {
					"rotation": [-5, 0, 0]
				},
				"body": {
					"rotation": ["-7.5+Math.cos((query.anim_time) * 90 * 1 - 90) * -0.5", 0, 0],
					"position": [0, "-9+Math.cos((query.anim_time) * 90 * 1) * 0.2", 0]
				},
				"eyelid_left": {
					"position": [0, 0, -0.2]
				},
				"eyelid_right": {
					"position": [0, 0, -0.2]
				}
			}
		},
		"animation.glimmora.faint": {
			"loop": true,
			"animation_length": 3,
			"bones": {
				"frontpetal_top_rotation": {
					"rotation": [5, 0, 0]
				},
				"frontpetal_top2": {
					"rotation": {
						"0.0": [-65, 0, 0],
						"0.2083": [-77.5, 0, 0],
						"1.125": [-65, 0, 0],
						"1.25": [-77.5, 0, 0],
						"1.4583": ["-25+Math.cos((query.anim_time) * 90 * 48) * 4", 0, 0],
						"1.875": ["-12.5+Math.cos((query.anim_time) * 90 * 48) * 4", 0, 0],
						"2.0417": [-65, 0, 0],
						"2.0833": [-65, 0, 0],
						"2.1667": [-25, 0, 0],
						"2.3333": [-45, 0, 0],
						"2.5": [-92.5, 0, 0]
					}
				},
				"frontpetal_top3": {
					"rotation": {
						"0.0": [-30, 0, 0],
						"0.2083": [-15, 0, 0],
						"1.125": [-30, 0, 0],
						"1.25": [-17.5, 0, 0],
						"1.4583": [-10, 0, 0],
						"1.875": [-10, 0, 0],
						"2.0417": [-30, 0, 0],
						"2.3333": [-15, 0, 0],
						"2.625": [-41.75, 0, 0],
						"2.7917": [-37.5, 0, 0]
					}
				},
				"frontpetal_top4": {
					"rotation": [-20, 0, 0]
				},
				"frontpetal_top_left_rotation": {
					"rotation": [5, 0, 0]
				},
				"frontpetal_top_left2": {
					"rotation": {
						"0.0": [-65, 0, 0],
						"0.2083": [-77.5, 0, 0],
						"1.125": [-65, 0, 0],
						"1.25": [-77.5, 0, 0],
						"1.4583": ["-25+Math.cos((query.anim_time) * 90 * 48 - 30) * 4", 0, 0],
						"1.875": ["-12.5+Math.cos((query.anim_time) * 90 * 48 - 30) * 4", 0, 0],
						"2.0417": [-65, 0, 0],
						"2.0833": [-65, 0, 0],
						"2.1667": [-25, 0, 0],
						"2.375": [-34.75, 0, 5.25],
						"2.5417": [-20, 5, 50],
						"2.6667": [-20, 5, 45]
					}
				},
				"frontpetal_top_left3": {
					"rotation": {
						"0.0": [-30, 0, 0],
						"0.2083": [-15, 0, 0],
						"1.125": [-30, 0, 0],
						"1.25": [-17.5, 0, 0],
						"1.4583": [-10, 0, 0],
						"1.875": [-10, 0, 0],
						"2.0417": [-30, 0, 0],
						"2.3333": [-15, 0, 0],
						"2.625": [-41.75, 0, 0],
						"2.7917": [-37.5, 0, 0]
					}
				},
				"frontpetal_top_left4": {
					"rotation": [-20, 0, 0]
				},
				"frontpetal_top_right2": {
					"rotation": {
						"0.0": [-65, 0, 0],
						"0.2083": [-77.5, 0, 0],
						"1.125": [-65, 0, 0],
						"1.25": [-77.5, 0, 0],
						"1.4583": ["-25+Math.cos((query.anim_time) * 90 * 48 - 30) * 4", 0, 0],
						"1.875": ["-12.5+Math.cos((query.anim_time) * 90 * 48 - 30) * 4", 0, 0],
						"2.0417": [-65, 0, 0],
						"2.0833": [-65, 0, 0],
						"2.1667": [-25, 0, 0],
						"2.375": [-34.75, 0, -5.25],
						"2.5417": [-20, -5, -50],
						"2.6667": [-20, -5, -45]
					}
				},
				"frontpetal_top_right3": {
					"rotation": {
						"0.0": [-30, 0, 0],
						"0.2083": [-15, 0, 0],
						"1.125": [-30, 0, 0],
						"1.25": [-17.5, 0, 0],
						"1.4583": [-10, 0, 0],
						"1.875": [-10, 0, 0],
						"2.0417": [-30, 0, 0],
						"2.3333": [-15, 0, 0],
						"2.625": [-41.75, 0, 0],
						"2.7917": [-37.5, 0, 0]
					}
				},
				"frontpetal_top_right4": {
					"rotation": [-20, 0, 0]
				},
				"frontpetal_bottom2": {
					"rotation": {
						"0.0": [65, 0, 0],
						"0.2083": [77.5, 0, 0],
						"1.125": [65, 0, 0],
						"1.25": [77.5, 0, 0],
						"1.4583": ["25+Math.cos((query.anim_time) * 90 * 48 - 60) * -4", 0, 0],
						"1.875": ["12.5+Math.cos((query.anim_time) * 90 * 48 - 60) * -4", 0, 0],
						"2.0417": [65, 0, 0],
						"2.0833": [65, 0, 0],
						"2.1667": [25, 0, 0],
						"2.375": [37.5, 0, 0],
						"2.5833": [62.5, 0, 0],
						"2.7083": [57.5, 0, 0]
					}
				},
				"frontpetal_bottom3": {
					"rotation": {
						"0.0": [30, 0, 0],
						"0.2083": [15, 0, 0],
						"1.125": [30, 0, 0],
						"1.25": [17.5, 0, 0],
						"1.4583": [10, 0, 0],
						"1.875": [10, 0, 0],
						"2.0417": [30, 0, 0],
						"2.3333": [15, 0, 0],
						"2.625": [41.75, 0, 0],
						"2.7917": [37.5, 0, 0]
					}
				},
				"frontpetal_bottom4": {
					"rotation": [20, 0, 0]
				},
				"frontpetal_bottom_left2": {
					"rotation": {
						"0.0": [65, 0, 0],
						"0.2083": [77.5, 0, 0],
						"1.125": [65, 0, 0],
						"1.25": [77.5, 0, 0],
						"1.4583": ["25+Math.cos((query.anim_time) * 90 * 48 - 30) * -4", 0, 0],
						"1.875": ["12.5+Math.cos((query.anim_time) * 90 * 48 - 30) * -4", 0, 0],
						"2.0417": [65, 0, 0],
						"2.0833": [65, 0, 0],
						"2.1667": [25, 0, 0],
						"2.375": [35.75, 0, 0],
						"2.5417": [61, 12, 0],
						"2.6667": [57.5, 7.75, 0]
					}
				},
				"frontpetal_bottom_left3": {
					"rotation": {
						"0.0": [30, 0, 0],
						"0.2083": [15, 0, 0],
						"1.125": [30, 0, 0],
						"1.25": [17.5, 0, 0],
						"1.4583": [10, 0, 0],
						"1.875": [10, 0, 0],
						"2.0417": [30, 0, 0],
						"2.3333": [15, 0, 0],
						"2.625": [41.75, 0, 0],
						"2.7917": [37.5, 0, 0]
					}
				},
				"frontpetal_bottom_left4": {
					"rotation": [20, 0, 0]
				},
				"frontpetal_bottom_right2": {
					"rotation": {
						"0.0": [65, 0, 0],
						"0.2083": [77.5, 0, 0],
						"1.125": [65, 0, 0],
						"1.25": [77.5, 0, 0],
						"1.4583": ["25+Math.cos((query.anim_time) * 90 * 48 - 30) * -4", 0, 0],
						"1.875": ["12.5+Math.cos((query.anim_time) * 90 * 48 - 30) * -4", 0, 0],
						"2.0417": [65, 0, 0],
						"2.0833": [65, 0, 0],
						"2.1667": [25, 0, 0],
						"2.375": [35.75, 0, 0],
						"2.5417": [61, -12, 0],
						"2.6667": [57.5, -7.75, 0]
					}
				},
				"frontpetal_bottom_right3": {
					"rotation": {
						"0.0": [30, 0, 0],
						"0.2083": [15, 0, 0],
						"1.125": [30, 0, 0],
						"1.25": [17.5, 0, 0],
						"1.4583": [10, 0, 0],
						"1.875": [10, 0, 0],
						"2.0417": [30, 0, 0],
						"2.3333": [15, 0, 0],
						"2.625": [41.75, 0, 0],
						"2.7917": [37.5, 0, 0]
					}
				},
				"frontpetal_bottom_right4": {
					"rotation": [20, 0, 0]
				},
				"midpetal_top_left": {
					"rotation": [0, 0, 7.5]
				},
				"midpetal_top_left_rotation": {
					"rotation": [-15, 0, 0]
				},
				"midpetal_top_left2": {
					"rotation": {
						"0.0": [-55, 0, 0],
						"1.2917": [-55, 0, 0],
						"1.5": ["-10+Math.cos((query.anim_time) * 90 * 48 - 90) * 4", 0, 0],
						"1.9583": ["-10+Math.cos((query.anim_time) * 90 * 48 - 90) * 4", 0, 0],
						"2.0417": [-55, 0, 0],
						"2.125": [-51, 0, 0],
						"2.25": [-25, 0, 0],
						"2.375": [-29.75, 2, 0],
						"2.4583": [-55, 10, 0],
						"2.5417": [-55, 5, 0],
						"2.625": [-55, 10, 0]
					}
				},
				"midpetal_top_left3": {
					"rotation": {
						"0.0": [-35, 0, 0],
						"2.2917": [-35, 0, 0],
						"2.4167": [-17.5, 0, 0]
					}
				},
				"midpetal_top_left4": {
					"rotation": [-10, 0, 0]
				},
				"midpetal_top_right4": {
					"rotation": [-10, 0, 0]
				},
				"midpetal_top_right3": {
					"rotation": {
						"0.0": [-35, 0, 0],
						"2.2917": [-35, 0, 0],
						"2.4167": [-17.5, 0, 0]
					}
				},
				"midpetal_top_right2": {
					"rotation": {
						"0.0": [-55, 0, 0],
						"1.2917": [-55, 0, 0],
						"1.5": ["-10+Math.cos((query.anim_time) * 90 * 48 - 90) * 4", 0, 0],
						"1.9583": ["-10+Math.cos((query.anim_time) * 90 * 48 - 90) * 4", 0, 0],
						"2.0417": [-55, 0, 0],
						"2.125": [-51, 0, 0],
						"2.25": [-25, 0, 0],
						"2.375": [-29.75, -2, 0],
						"2.4583": [-55, -10, 0],
						"2.5417": [-55, -5, 0],
						"2.625": [-55, -10, 0]
					}
				},
				"midpetal_top_right_rotation": {
					"rotation": [-15, 0, 0]
				},
				"midpetal_top_right": {
					"rotation": [0, 0, -7.5]
				},
				"midpetal_bottom_left": {
					"rotation": [0, 0, -7.5]
				},
				"midpetal_bottom_left_rotation": {
					"rotation": [15, 0, 0]
				},
				"midpetal_bottom_left2": {
					"rotation": {
						"0.0": [55, 0, 0],
						"1.2917": [55, 0, 0],
						"1.5": ["10+Math.cos((query.anim_time) * 90 * 48 - 90) * -4", 0, 0],
						"1.9583": ["10+Math.cos((query.anim_time) * 90 * 48 - 90) * -4", 0, 0],
						"2.0417": [55, 0, 0],
						"2.125": [51, 0, 0],
						"2.25": [43.5, 0, 0],
						"2.4583": [49.25, 2, 0],
						"2.5417": [56, 10, 0],
						"2.625": [56, 8.25, 0],
						"2.7083": [56, 10, 0]
					}
				},
				"midpetal_bottom_left3": {
					"rotation": [35, 0, 0]
				},
				"midpetal_bottom_left4": {
					"rotation": [10, 0, 0]
				},
				"midpetal_bottom_right": {
					"rotation": [0, 0, 7.5]
				},
				"midpetal_bottom_right_rotation": {
					"rotation": [15, 0, 0]
				},
				"midpetal_bottom_right2": {
					"rotation": {
						"0.0": [55, 0, 0],
						"1.2917": [55, 0, 0],
						"1.5": ["10+Math.cos((query.anim_time) * 90 * 48 - 90) * -4", 0, 0],
						"1.9583": ["10+Math.cos((query.anim_time) * 90 * 48 - 90) * -4", 0, 0],
						"2.0417": [55, 0, 0],
						"2.125": [51, 0, 0],
						"2.25": [43.5, 0, 0],
						"2.4583": [49.25, -2, 0],
						"2.5417": [56, -10, 0],
						"2.625": [56, -8.25, 0],
						"2.7083": [56, -10, 0]
					}
				},
				"midpetal_bottom_right3": {
					"rotation": [35, 0, 0]
				},
				"midpetal_bottom_right4": {
					"rotation": [10, 0, 0]
				},
				"backpetal_bottom_rotation": {
					"rotation": {
						"0.0": [77.5, 0, 0],
						"1.25": [77.5, 0, 0],
						"1.4167": ["52.5+Math.cos((query.anim_time) * 90 * 48 - 30) * 4", 0, 0],
						"1.9583": [52.5, 0, 0],
						"2.125": [77.5, 0, 0]
					}
				},
				"backpetal_bottom2": {
					"rotation": [25, 0, 0]
				},
				"backpetal_top_left_rotation": {
					"rotation": {
						"0.0": [-77.5, 0, 0],
						"1.25": [-77.5, 0, 0],
						"1.4167": ["-52.5+Math.cos((query.anim_time) * 90 * 48 - 30) * -4", 0, 0],
						"1.9583": [-52.5, 0, 0],
						"2.125": [-77.5, 0, 0]
					}
				},
				"backpetal_top_left2": {
					"rotation": [-25, 0, 0]
				},
				"backpetal_top_right_rotation": {
					"rotation": {
						"0.0": [-77.5, 0, 0],
						"1.25": [-77.5, 0, 0],
						"1.4167": ["-52.5+Math.cos((query.anim_time) * 90 * 48 - 30) * -4", 0, 0],
						"1.9583": [-52.5, 0, 0],
						"2.125": [-77.5, 0, 0]
					}
				},
				"backpetal_top_right2": {
					"rotation": [-25, 0, 0]
				},
				"frontpetal_top_right_rotation": {
					"rotation": [5, 0, 0]
				},
				"frontpetal_bottom_rotation": {
					"rotation": [-5, 0, 0]
				},
				"frontpetal_bottom_left_rotation": {
					"rotation": [-2.5, 0, 0]
				},
				"frontpetal_bottom_right_rotation": {
					"rotation": [-5, 0, 0]
				},
				"body": {
					"rotation": {
						"0.0": [7.5, 0, 0],
						"0.125": {
							"pre": [24.25, 0, 60],
							"post": [24.25, 0, 60],
							"lerp_mode": "catmullrom"
						},
						"0.4167": {
							"post": [18.56, 0, 248.7],
							"lerp_mode": "catmullrom"
						},
						"0.7083": {
							"post": [14.19, 0, 326.425],
							"lerp_mode": "catmullrom"
						},
						"0.9583": [26.75, 0, 360],
						"1.125": [32.175, 0, 360],
						"1.25": [7.5, 0, 360],
						"1.375": [-26.5, 0, 360],
						"1.5417": [-40.25, 0, 360],
						"1.6667": [-45.025, 0, 360],
						"1.875": [-37.52, 0, 360],
						"2.125": [87.48, 0, 360],
						"2.25": [135.78, 0, 360],
						"2.4167": [177.005, 0, 360],
						"2.5": [187.48, 0, 360],
						"2.5833": [178.98, 0, 360],
						"2.6667": [183.98, 0, 360]
					},
					"position": {
						"0.0": [0, 0, 0],
						"0.125": [0, 0.36, 1.62],
						"0.375": [0, 1.525, 10.59],
						"0.5833": [0, 3.29, 14.18],
						"0.75": [0, 4.51, 15.36],
						"0.875": [0, 4.925, 15.5],
						"1.125": [0, 4.925, 16],
						"1.2083": [0, -0.08, 22.08],
						"1.25": [0, 4.67, 23.25],
						"1.2917": [0, 9, 12.33],
						"1.375": [0, 19.42, 5.5],
						"1.5": ["0+Math.cos((query.anim_time) * 90 * 24) * 0.4", "24.17+Math.cos((query.anim_time) * 90 * 32) * 0.4", 2.675],
						"1.6667": ["0+Math.cos((query.anim_time) * 90 * 24) * 0.4", "27.195+Math.cos((query.anim_time) * 90 * 32) * 0.4", 1.725],
						"1.875": ["0+Math.cos((query.anim_time) * 90 * 24) * 0.4", "24.445+Math.cos((query.anim_time) * 90 * 32) * 0.4", 1.155],
						"2.0": [0, 17.945, -0.845],
						"2.125": [0, -19.55, -1.5],
						"2.1667": [0, -13.3, -1.5],
						"2.25": {
							"pre": [0, -5.775, -5.5],
							"post": [0, -5.775, -5.5],
							"lerp_mode": "catmullrom"
						},
						"2.3333": {
							"post": [0, -4.55, -8.425],
							"lerp_mode": "catmullrom"
						},
						"2.4583": {
							"post": [0, -6.55, -10.725],
							"lerp_mode": "catmullrom"
						},
						"2.5": [0, -9.275, -11.3],
						"2.5833": [0, -10.275, -11.305],
						"2.6667": [0, -9.275, -11.3]
					},
					"scale": {
						"0.0": [1, 1, 1],
						"1.125": [1, 1, 1],
						"1.2083": {
							"pre": [1.2, 1.2, 0.8],
							"post": [1.2, 1.2, 0.8],
							"lerp_mode": "catmullrom"
						},
						"1.3333": {
							"post": [0.8, 0.7, 1.4],
							"lerp_mode": "catmullrom"
						},
						"1.4167": {
							"post": [0.8667, 0.8, 1.3667],
							"lerp_mode": "catmullrom"
						},
						"1.5833": [1, 1, 1],
						"2.0": [1, 1, 1],
						"2.0833": [0.8, 0.8, 1.4],
						"2.1667": [1.2, 1.2, 0.8],
						"2.2917": [1, 1, 1]
					}
				},
				"eye_left": {
					"position": {
						"1.9167": [0, 0, 0],
						"2.0": [0, 3, 0],
						"2.0417": [0, 0, 0]
					},
					"scale": {
						"1.9167": [1, 1, 1],
						"2.0": [1, 3.8, 1],
						"2.0417": [1, 1, 1]
					}
				},
				"eyelid_left": {
					"position": {
						"0.0": [0, 0, -0.1],
						"1.2083": [0, 0, -0.1],
						"1.25": [0, 0, 0],
						"1.9583": [0, 0, 0],
						"2.0": [0, 0, -0.1]
					}
				},
				"eye_right": {
					"position": {
						"1.9167": [0, 0, 0],
						"2.0": [0, 3, 0],
						"2.0417": [0, 0, 0]
					},
					"scale": {
						"1.9167": [1, 1, 1],
						"2.0": [1, 3.8, 1],
						"2.0417": [1, 1, 1]
					}
				},
				"eyelid_right": {
					"position": {
						"0.0": [0, 0, -0.1],
						"1.2083": [0, 0, -0.1],
						"1.25": [0, 0, 0],
						"1.9583": [0, 0, 0],
						"2.0": [0, 0, -0.1]
					}
				}
			}
		},
		"animation.glimmora.faint2": {
			"loop": true,
			"animation_length": 3,
			"bones": {
				"frontpetal_top_rotation": {
					"rotation": [15, 0, 0]
				},
				"frontpetal_top2": {
					"rotation": {
						"0.0": ["-30+Math.cos((query.anim_time) * 90 * 2 - 120) * -3", 0, 0],
						"0.2083": [-77.5, 0, 0],
						"1.125": [-65, 0, 0],
						"1.25": [-77.5, 0, 0],
						"1.4583": ["-25+Math.cos((query.anim_time) * 90 * 48) * 4", 0, 0],
						"1.875": ["-12.5+Math.cos((query.anim_time) * 90 * 48) * 4", 0, 0],
						"2.0417": [-65, 0, 0],
						"2.0833": [-65, 0, 0],
						"2.1667": [-25, 0, 0],
						"2.3333": [-45, 0, 0],
						"2.5": [-92.5, 0, 0]
					}
				},
				"frontpetal_top3": {
					"rotation": {
						"0.0": [-12.5, 0, 0],
						"0.2083": [-15, 0, 0],
						"1.125": [-30, 0, 0],
						"1.25": [-17.5, 0, 0],
						"1.4583": [-10, 0, 0],
						"1.875": [-10, 0, 0],
						"2.0417": [-30, 0, 0],
						"2.3333": [-15, 0, 0],
						"2.625": [-41.75, 0, 0],
						"2.7917": [-37.5, 0, 0]
					}
				},
				"frontpetal_top4": {
					"rotation": [-27.5, 0, 0]
				},
				"frontpetal_top_left_rotation": {
					"rotation": [15, 0, 0]
				},
				"frontpetal_top_left2": {
					"rotation": {
						"0.0": ["-30+Math.cos((query.anim_time) * 90 * 2 - 120) * -3", 0, 0],
						"0.2083": [-77.5, 0, 0],
						"1.125": [-65, 0, 0],
						"1.25": [-77.5, 0, 0],
						"1.4583": ["-25+Math.cos((query.anim_time) * 90 * 48 - 30) * 4", 0, 0],
						"1.875": ["-12.5+Math.cos((query.anim_time) * 90 * 48 - 30) * 4", 0, 0],
						"2.0417": [-65, 0, 0],
						"2.0833": [-65, 0, 0],
						"2.1667": [-25, 0, 0],
						"2.375": [-34.75, 0, 5.25],
						"2.5417": [-20, 5, 50],
						"2.6667": [-20, 5, 45]
					}
				},
				"frontpetal_top_left3": {
					"rotation": {
						"0.0": [-12.5, 0, 0],
						"0.2083": [-15, 0, 0],
						"1.125": [-30, 0, 0],
						"1.25": [-17.5, 0, 0],
						"1.4583": [-10, 0, 0],
						"1.875": [-10, 0, 0],
						"2.0417": [-30, 0, 0],
						"2.3333": [-15, 0, 0],
						"2.625": [-41.75, 0, 0],
						"2.7917": [-37.5, 0, 0]
					}
				},
				"frontpetal_top_left4": {
					"rotation": [-27.5, 0, 0]
				},
				"frontpetal_top_right2": {
					"rotation": {
						"0.0": ["-30+Math.cos((query.anim_time) * 90 * 2 - 120) * -3", 0, 0],
						"0.2083": [-77.5, 0, 0],
						"1.125": [-65, 0, 0],
						"1.25": [-77.5, 0, 0],
						"1.4583": ["-25+Math.cos((query.anim_time) * 90 * 48 - 30) * 4", 0, 0],
						"1.875": ["-12.5+Math.cos((query.anim_time) * 90 * 48 - 30) * 4", 0, 0],
						"2.0417": [-65, 0, 0],
						"2.0833": [-65, 0, 0],
						"2.1667": [-25, 0, 0],
						"2.375": [-34.75, 0, -5.25],
						"2.5417": [-20, -5, -50],
						"2.6667": [-20, -5, -45]
					}
				},
				"frontpetal_top_right3": {
					"rotation": {
						"0.0": [-12.5, 0, 0],
						"0.2083": [-15, 0, 0],
						"1.125": [-30, 0, 0],
						"1.25": [-17.5, 0, 0],
						"1.4583": [-10, 0, 0],
						"1.875": [-10, 0, 0],
						"2.0417": [-30, 0, 0],
						"2.3333": [-15, 0, 0],
						"2.625": [-41.75, 0, 0],
						"2.7917": [-37.5, 0, 0]
					}
				},
				"frontpetal_top_right4": {
					"rotation": [-27.5, 0, 0]
				},
				"frontpetal_bottom2": {
					"rotation": {
						"0.0": ["30+Math.cos((query.anim_time) * 90 * 2 - 120) * 3", 0, 0],
						"0.2083": [77.5, 0, 0],
						"1.125": [65, 0, 0],
						"1.25": [77.5, 0, 0],
						"1.4583": ["25+Math.cos((query.anim_time) * 90 * 48 - 60) * -4", 0, 0],
						"1.875": ["12.5+Math.cos((query.anim_time) * 90 * 48 - 60) * -4", 0, 0],
						"2.0417": [65, 0, 0],
						"2.0833": [65, 0, 0],
						"2.1667": [25, 0, 0],
						"2.375": [37.5, 0, 0],
						"2.5833": [62.5, 0, 0],
						"2.7083": [57.5, 0, 0]
					}
				},
				"frontpetal_bottom3": {
					"rotation": {
						"0.0": [12.5, 0, 0],
						"0.2083": [15, 0, 0],
						"1.125": [30, 0, 0],
						"1.25": [17.5, 0, 0],
						"1.4583": [10, 0, 0],
						"1.875": [10, 0, 0],
						"2.0417": [30, 0, 0],
						"2.3333": [15, 0, 0],
						"2.625": [41.75, 0, 0],
						"2.7917": [37.5, 0, 0]
					}
				},
				"frontpetal_bottom4": {
					"rotation": [27.5, 0, 0]
				},
				"frontpetal_bottom_left2": {
					"rotation": {
						"0.0": ["30+Math.cos((query.anim_time) * 90 * 2 - 120) * 3", 0, 0],
						"0.2083": [77.5, 0, 0],
						"1.125": [65, 0, 0],
						"1.25": [77.5, 0, 0],
						"1.4583": ["25+Math.cos((query.anim_time) * 90 * 48 - 30) * -4", 0, 0],
						"1.875": ["12.5+Math.cos((query.anim_time) * 90 * 48 - 30) * -4", 0, 0],
						"2.0417": [65, 0, 0],
						"2.0833": [65, 0, 0],
						"2.1667": [25, 0, 0],
						"2.375": [35.75, 0, 0],
						"2.5417": [61, 12, 0],
						"2.6667": [57.5, 7.75, 0]
					}
				},
				"frontpetal_bottom_left3": {
					"rotation": {
						"0.0": [12.5, 0, 0],
						"0.2083": [15, 0, 0],
						"1.125": [30, 0, 0],
						"1.25": [17.5, 0, 0],
						"1.4583": [10, 0, 0],
						"1.875": [10, 0, 0],
						"2.0417": [30, 0, 0],
						"2.3333": [15, 0, 0],
						"2.625": [41.75, 0, 0],
						"2.7917": [37.5, 0, 0]
					}
				},
				"frontpetal_bottom_left4": {
					"rotation": [27.5, 0, 0]
				},
				"frontpetal_bottom_right2": {
					"rotation": {
						"0.0": ["30+Math.cos((query.anim_time) * 90 * 2 - 120) * 3", 0, 0],
						"0.2083": [77.5, 0, 0],
						"1.125": [65, 0, 0],
						"1.25": [77.5, 0, 0],
						"1.4583": ["25+Math.cos((query.anim_time) * 90 * 48 - 30) * -4", 0, 0],
						"1.875": ["12.5+Math.cos((query.anim_time) * 90 * 48 - 30) * -4", 0, 0],
						"2.0417": [65, 0, 0],
						"2.0833": [65, 0, 0],
						"2.1667": [25, 0, 0],
						"2.375": [35.75, 0, 0],
						"2.5417": [61, -12, 0],
						"2.6667": [57.5, -7.75, 0]
					}
				},
				"frontpetal_bottom_right3": {
					"rotation": {
						"0.0": [12.5, 0, 0],
						"0.2083": [15, 0, 0],
						"1.125": [30, 0, 0],
						"1.25": [17.5, 0, 0],
						"1.4583": [10, 0, 0],
						"1.875": [10, 0, 0],
						"2.0417": [30, 0, 0],
						"2.3333": [15, 0, 0],
						"2.625": [41.75, 0, 0],
						"2.7917": [37.5, 0, 0]
					}
				},
				"frontpetal_bottom_right4": {
					"rotation": [27.5, 0, 0]
				},
				"midpetal_top_left": {
					"rotation": [0, 0, 0]
				},
				"midpetal_top_left_rotation": {
					"rotation": [-12.5, 0, 0]
				},
				"midpetal_top_left2": {
					"rotation": {
						"0.0": ["-17.5+Math.cos((query.anim_time) * 90 * 2 - 160) * -3", 0, 0],
						"0.625": [-55, 0, 0],
						"1.2917": [-55, 0, 0],
						"1.5": ["-10+Math.cos((query.anim_time) * 90 * 48 - 90) * 4", 0, 0],
						"1.9583": ["-10+Math.cos((query.anim_time) * 90 * 48 - 90) * 4", 0, 0],
						"2.0417": [-55, 0, 0],
						"2.125": [-51, 0, 0],
						"2.25": [-25, 0, 0],
						"2.375": [-29.75, 2, 0],
						"2.4583": [-55, 10, 0],
						"2.5417": [-55, 5, 0],
						"2.625": [-55, 10, 0]
					}
				},
				"midpetal_top_left3": {
					"rotation": {
						"0.0": [-20, 0, 0],
						"2.2917": [-35, 0, 0],
						"2.4167": [-17.5, 0, 0]
					}
				},
				"midpetal_top_left4": {
					"rotation": [-12.5, 0, 0]
				},
				"midpetal_top_right4": {
					"rotation": [-12.5, 0, 0]
				},
				"midpetal_top_right3": {
					"rotation": {
						"0.0": [-20, 0, 0],
						"2.2917": [-35, 0, 0],
						"2.4167": [-17.5, 0, 0]
					}
				},
				"midpetal_top_right2": {
					"rotation": {
						"0.0": ["-17.5+Math.cos((query.anim_time) * 90 * 2 - 160) * -3", 0, 0],
						"0.625": [-55, 0, 0],
						"1.2917": [-55, 0, 0],
						"1.5": ["-10+Math.cos((query.anim_time) * 90 * 48 - 90) * 4", 0, 0],
						"1.9583": ["-10+Math.cos((query.anim_time) * 90 * 48 - 90) * 4", 0, 0],
						"2.0417": [-55, 0, 0],
						"2.125": [-51, 0, 0],
						"2.25": [-25, 0, 0],
						"2.375": [-29.75, -2, 0],
						"2.4583": [-55, -10, 0],
						"2.5417": [-55, -5, 0],
						"2.625": [-55, -10, 0]
					}
				},
				"midpetal_top_right_rotation": {
					"rotation": [-12.5, 0, 0]
				},
				"midpetal_top_right": {
					"rotation": [0, 0, 0]
				},
				"midpetal_bottom_left": {
					"rotation": [0, 0, 0]
				},
				"midpetal_bottom_left_rotation": {
					"rotation": [12.5, 0, 0]
				},
				"midpetal_bottom_left2": {
					"rotation": {
						"0.0": ["17.5+Math.cos((query.anim_time) * 90 * 2 - 160) * 3", 0, 0],
						"0.625": [55, 0, 0],
						"1.2917": [55, 0, 0],
						"1.5": ["10+Math.cos((query.anim_time) * 90 * 48 - 90) * -4", 0, 0],
						"1.9583": ["10+Math.cos((query.anim_time) * 90 * 48 - 90) * -4", 0, 0],
						"2.0417": [55, 0, 0],
						"2.125": [51, 0, 0],
						"2.25": [43.5, 0, 0],
						"2.4583": [49.25, 2, 0],
						"2.5417": [56, 10, 0],
						"2.625": [56, 8.25, 0],
						"2.7083": [56, 10, 0]
					}
				},
				"midpetal_bottom_left3": {
					"rotation": [20, 0, 0]
				},
				"midpetal_bottom_left4": {
					"rotation": [12.5, 0, 0]
				},
				"midpetal_bottom_right": {
					"rotation": [0, 0, 7.5]
				},
				"midpetal_bottom_right_rotation": {
					"rotation": [12.5, 0, 0]
				},
				"midpetal_bottom_right2": {
					"rotation": {
						"0.0": ["17.5+Math.cos((query.anim_time) * 90 * 2 - 160) * 3", 0, 0],
						"0.625": [55, 0, 0],
						"1.2917": [55, 0, 0],
						"1.5": ["10+Math.cos((query.anim_time) * 90 * 48 - 90) * -4", 0, 0],
						"1.9583": ["10+Math.cos((query.anim_time) * 90 * 48 - 90) * -4", 0, 0],
						"2.0417": [55, 0, 0],
						"2.125": [51, 0, 0],
						"2.25": [43.5, 0, 0],
						"2.4583": [49.25, -2, 0],
						"2.5417": [56, -10, 0],
						"2.625": [56, -8.25, 0],
						"2.7083": [56, -10, 0]
					}
				},
				"midpetal_bottom_right3": {
					"rotation": [20, 0, 0]
				},
				"midpetal_bottom_right4": {
					"rotation": [12.5, 0, 0]
				},
				"backpetal_bottom_rotation": {
					"rotation": {
						"0.0": [77.5, 0, 0],
						"1.25": [77.5, 0, 0],
						"1.4167": ["52.5+Math.cos((query.anim_time) * 90 * 48 - 30) * 4", 0, 0],
						"1.9583": [52.5, 0, 0],
						"2.125": [77.5, 0, 0]
					}
				},
				"backpetal_bottom2": {
					"rotation": [15, 0, 0]
				},
				"backpetal_top_left_rotation": {
					"rotation": {
						"0.0": ["-50+Math.cos((query.anim_time) * 90 * 2 - 200) * -3", 0, 0],
						"1.25": [-77.5, 0, 0],
						"1.4167": ["-52.5+Math.cos((query.anim_time) * 90 * 48 - 30) * -4", 0, 0],
						"1.9583": [-52.5, 0, 0],
						"2.125": [-77.5, 0, 0]
					}
				},
				"backpetal_top_left2": {
					"rotation": [-15, 0, 0]
				},
				"backpetal_top_right_rotation": {
					"rotation": {
						"0.0": ["-50+Math.cos((query.anim_time) * 90 * 2 - 200) * -3", 0, 0],
						"1.25": [-77.5, 0, 0],
						"1.4167": ["-52.5+Math.cos((query.anim_time) * 90 * 48 - 30) * -4", 0, 0],
						"1.9583": [-52.5, 0, 0],
						"2.125": [-77.5, 0, 0]
					}
				},
				"backpetal_top_right2": {
					"rotation": [-15, 0, 0]
				},
				"frontpetal_top_right_rotation": {
					"rotation": [15, 0, 0]
				},
				"frontpetal_bottom_rotation": {
					"rotation": [-15, 0, 0]
				},
				"frontpetal_bottom_left_rotation": {
					"rotation": [-15, 0, 0]
				},
				"frontpetal_bottom_right_rotation": {
					"rotation": [-15, 0, 0]
				},
				"body": {
					"rotation": {
						"0.0": [7.5, 0, 0],
						"0.125": {
							"pre": [24.25, 0, 60],
							"post": [24.25, 0, 60],
							"lerp_mode": "catmullrom"
						},
						"0.4167": {
							"post": [18.56, 0, 248.7],
							"lerp_mode": "catmullrom"
						},
						"0.7083": {
							"post": [14.19, 0, 326.425],
							"lerp_mode": "catmullrom"
						},
						"0.9583": [26.75, 0, 360],
						"1.125": [32.175, 0, 360],
						"1.25": [7.5, 0, 360],
						"1.375": [-26.5, 0, 360],
						"1.5417": [-40.25, 0, 360],
						"1.6667": [-45.025, 0, 360],
						"1.875": [-37.52, 0, 360],
						"2.125": [87.48, 0, 360],
						"2.25": [135.78, 0, 360],
						"2.4167": [177.005, 0, 360],
						"2.5": [187.48, 0, 360],
						"2.5833": [178.98, 0, 360],
						"2.6667": [183.98, 0, 360]
					},
					"position": {
						"0.0": [0, "11+Math.cos((query.anim_time) * 90 * 2) * 0.8", 0],
						"0.125": [0, 0.36, 1.62],
						"0.375": [0, 1.525, 10.59],
						"0.5833": [0, 3.29, 14.18],
						"0.75": [0, 4.51, 15.36],
						"0.875": [0, 4.925, 15.5],
						"1.125": [0, 4.925, 16],
						"1.2083": [0, -0.08, 22.08],
						"1.25": [0, 4.67, 23.25],
						"1.2917": [0, 9, 12.33],
						"1.375": [0, 19.42, 5.5],
						"1.5": ["0+Math.cos((query.anim_time) * 90 * 24) * 0.4", "24.17+Math.cos((query.anim_time) * 90 * 32) * 0.4", 2.675],
						"1.6667": ["0+Math.cos((query.anim_time) * 90 * 24) * 0.4", "27.195+Math.cos((query.anim_time) * 90 * 32) * 0.4", 1.725],
						"1.875": ["0+Math.cos((query.anim_time) * 90 * 24) * 0.4", "24.445+Math.cos((query.anim_time) * 90 * 32) * 0.4", 1.155],
						"2.0": [0, 17.945, -0.845],
						"2.125": [0, -19.55, -1.5],
						"2.1667": [0, -13.3, -1.5],
						"2.25": {
							"pre": [0, -5.775, -5.5],
							"post": [0, -5.775, -5.5],
							"lerp_mode": "catmullrom"
						},
						"2.3333": {
							"post": [0, -4.55, -8.425],
							"lerp_mode": "catmullrom"
						},
						"2.4583": {
							"post": [0, -6.55, -10.725],
							"lerp_mode": "catmullrom"
						},
						"2.5": [0, -9.275, -11.3],
						"2.5833": [0, -10.275, -11.305],
						"2.6667": [0, -9.275, -11.3]
					},
					"scale": {
						"0.0": [1, 1, 1],
						"1.125": [1, 1, 1],
						"1.2083": {
							"pre": [1.2, 1.2, 0.8],
							"post": [1.2, 1.2, 0.8],
							"lerp_mode": "catmullrom"
						},
						"1.3333": {
							"post": [0.8, 0.7, 1.4],
							"lerp_mode": "catmullrom"
						},
						"1.4167": {
							"post": [0.8667, 0.8, 1.3667],
							"lerp_mode": "catmullrom"
						},
						"1.5833": [1, 1, 1],
						"2.0": [1, 1, 1],
						"2.0833": [0.8, 0.8, 1.4],
						"2.1667": [1.2, 1.2, 0.8],
						"2.2917": [1, 1, 1]
					}
				},
				"eye_left": {
					"position": {
						"1.9167": [0, 0, 0],
						"2.0": [0, 3, 0],
						"2.0417": [0, 0, 0]
					},
					"scale": {
						"1.9167": [1, 1, 1],
						"2.0": [1, 3.8, 1],
						"2.0417": [1, 1, 1]
					}
				},
				"eyelid_left": {
					"position": {
						"0.0": [0, 0, -0.1],
						"1.2083": [0, 0, -0.1],
						"1.25": [0, 0, 0],
						"1.9583": [0, 0, 0],
						"2.0": [0, 0, -0.1]
					}
				},
				"eye_right": {
					"position": {
						"1.9167": [0, 0, 0],
						"2.0": [0, 3, 0],
						"2.0417": [0, 0, 0]
					},
					"scale": {
						"1.9167": [1, 1, 1],
						"2.0": [1, 3.8, 1],
						"2.0417": [1, 1, 1]
					}
				},
				"eyelid_right": {
					"position": {
						"0.0": [0, 0, -0.1],
						"1.2083": [0, 0, -0.1],
						"1.25": [0, 0, 0],
						"1.9583": [0, 0, 0],
						"2.0": [0, 0, -0.1]
					}
				},
				"frontpetal_top": {
					"rotation": [0, 0, 0]
				}
			}
		},
		"animation.glimmora.blink": {
			"animation_length": 0.16667,
			"bones": {
				"eyelid_left": {
					"position": {
						"0.0": [0, 0, -0.1],
						"0.125": [0, 0, -0.1],
						"0.1667": [0, 0, 0]
					}
				},
				"eyelid_right": {
					"position": {
						"0.0": [0, 0, -0.1],
						"0.125": [0, 0, -0.1],
						"0.1667": [0, 0, 0]
					}
				}
			}
		},
		"animation.glimmora.cry": {
			"animation_length": 1.25,
			"bones": {
				"body": {
					"rotation": {
						"0.0": [0, 0, 0],
						"0.125": {
							"pre": [8, 0, 0],
							"post": [8, 0, 0],
							"lerp_mode": "catmullrom"
						},
						"0.2083": {
							"post": [10, 0, 0],
							"lerp_mode": "catmullrom"
						},
						"0.4167": {
							"post": [-7.5, 0, 0],
							"lerp_mode": "catmullrom"
						},
						"0.9583": [-7.5, 0, 0],
						"1.0833": [-2.14, 0, 0],
						"1.25": [0, 0, 0]
					},
					"position": {
						"0.0": [0, 0, 0],
						"0.125": [0, 0, 2.4],
						"0.2083": [0, 0, 3],
						"0.4167": [0, 3, -1],
						"0.9583": [0, 3, -1],
						"1.0833": [0, 0.86, -0.29],
						"1.25": [0, 0, 0]
					}
				},
				"frontpetal_top2": {
					"rotation": {
						"0.0": [0, 0, 0],
						"0.25": [-2.5, 0, 0],
						"0.4167": [20, 0, 0],
						"0.9583": [15, 0, 0],
						"1.25": [0, 0, 0]
					}
				},
				"frontpetal_top3": {
					"rotation": {
						"0.0": [0, 0, 0],
						"0.25": [0, 0, 0],
						"0.4583": [-5, 0, 0],
						"1.0": [-5, 0, 0],
						"1.25": [0, 0, 0]
					}
				},
				"frontpetal_bottom2": {
					"rotation": {
						"0.0": [0, 0, 0],
						"0.25": [2.5, 0, 0],
						"0.4167": [-20, 0, 0],
						"0.9583": [-15, 0, 0],
						"1.25": [0, 0, 0]
					}
				},
				"frontpetal_bottom3": {
					"rotation": {
						"0.0": [0, 0, 0],
						"0.25": [0, 0, 0],
						"0.4583": [-5, 0, 0],
						"1.0": [-5, 0, 0],
						"1.25": [0, 0, 0]
					}
				},
				"frontpetal_top_left2": {
					"rotation": {
						"0.0": [0, 0, 0],
						"0.25": [-2.5, 0, 0],
						"0.4167": [20, 0, 0],
						"0.9583": [15, 0, 0],
						"1.25": [0, 0, 0]
					}
				},
				"frontpetal_top_left3": {
					"rotation": {
						"0.0": [0, 0, 0],
						"0.25": [0, 0, 0],
						"0.4583": [-5, 0, 0],
						"1.0": [-5, 0, 0],
						"1.25": [0, 0, 0]
					}
				},
				"frontpetal_bottom_left2": {
					"rotation": {
						"0.0": [0, 0, 0],
						"0.25": [2.5, 0, 0],
						"0.4167": [-20, 0, 0],
						"0.9583": [-15, 0, 0],
						"1.25": [0, 0, 0]
					}
				},
				"frontpetal_bottom_left3": {
					"rotation": {
						"0.0": [0, 0, 0],
						"0.25": [0, 0, 0],
						"0.4583": [-5, 0, 0],
						"1.0": [-5, 0, 0],
						"1.25": [0, 0, 0]
					}
				},
				"frontpetal_top_right2": {
					"rotation": {
						"0.0": [0, 0, 0],
						"0.25": [-2.5, 0, 0],
						"0.4167": [20, 0, 0],
						"0.9583": [15, 0, 0],
						"1.25": [0, 0, 0]
					}
				},
				"frontpetal_top_right3": {
					"rotation": {
						"0.0": [0, 0, 0],
						"0.25": [0, 0, 0],
						"0.4583": [-5, 0, 0],
						"1.0": [-5, 0, 0],
						"1.25": [0, 0, 0]
					}
				},
				"frontpetal_bottom_right2": {
					"rotation": {
						"0.0": [0, 0, 0],
						"0.25": [2.5, 0, 0],
						"0.4167": [-20, 0, 0],
						"0.9583": [-15, 0, 0],
						"1.25": [0, 0, 0]
					}
				},
				"frontpetal_bottom_right3": {
					"rotation": {
						"0.0": [0, 0, 0],
						"0.25": [0, 0, 0],
						"0.4583": [5, 0, 0],
						"1.0": [5, 0, 0],
						"1.25": [0, 0, 0]
					}
				}
			}
		}
	}
}