{
  "implemented": true,
  "name": "Pidgey",
  "nationalPokedexNumber": 16,
  "primaryType": "normal",
  "secondaryType": "flying",
  "abilities": [
    "keeneye",
    "tangledfeet",
    "h:bigpecks"
  ],
  "baseStats": {
    "hp": 40,
    "attack": 45,
    "defence": 40,
    "special_attack": 35,
    "special_defence": 35,
    "speed": 56
  },
  "catchRate": 255,
  "maleRatio": 0.5,
  "shoulderMountable": true,
  "shoulderEffects": [
    {
      "type": "potion_effect",
      "effect": "minecraft:slow_falling",
      "amplifier": 0,
      "ambient": true,
      "showParticles": false,
      "showIcon": false
    }
  ],
  "baseExperienceYield": 50,
  "experienceGroup": "medium_slow",
  "eggCycles": 15,
  "eggGroups": [
    "flying"
  ],
  "behaviour": {
    "moving": {
      "fly": {
        "canFly": true
      }
    },
    "resting": {
      "canSleep": true,
      "willSleepOnBed": false,
      "depth": "normal",
      "light": "0-4"
    }
  },
  "drops": {
    "amount": "2",
    "entries": [
      {
        "item": "minecraft:feather",
        "percentage": 50
      },
      {
        "item": "minecraft:chicken"
      }
    ]
  },
  "moves": [
    "1:tackle",
    "5:sandattack",
    "9:gust",
    "13:quickattack",
    "17:whirlwind",
    "21:twister",
    "25:featherdance",
    "29:agility",
    "33:wingattack",
    "37:roost",
    "41:tailwind",
    "45:mirrormove",
    "49:airslash",
    "53:hurricane",
    "egg:aircutter",
    "egg:airslash",
    "egg:bravebird",
    "egg:defog",
    "egg:feintattack",
    "egg:foresight",
    "egg:pursuit",
    "egg:steelwing",
    "egg:uproar",
    "tm:aerialace",
    "tm:attract",
    "tm:captivate",
    "tm:confide",
    "tm:defog",
    "tm:doubleteam",
    "tm:endure",
    "tm:facade",
    "tm:fly",
    "tm:frustration",
    "tm:hiddenpower",
    "tm:naturalgift",
    "tm:pluck",
    "tm:protect",
    "tm:raindance",
    "tm:rest",
    "tm:return",
    "tm:roost",
    "tm:round",
    "tm:secretpower",
    "tm:sleeptalk",
    "tm:steelwing",
    "tm:substitute",
    "tm:sunnyday",
    "tm:swagger",
    "tm:thief",
    "tm:toxic",
    "tm:uturn",
    "tm:workup",
    "tutor:agility",
    "tutor:aircutter",
    "tutor:airslash",
    "tutor:attract",
    "tutor:bide",
    "tutor:curse",
    "tutor:defog",
    "tutor:detect",
    "tutor:doubleedge",
    "tutor:doubleteam",
    "tutor:endure",
    "tutor:facade",
    "tutor:feintattack",
    "tutor:fly",
    "tutor:foresight",
    "tutor:frustration",
    "tutor:gust",
    "tutor:headbutt",
    "tutor:heatwave",
    "tutor:hiddenpower",
    "tutor:mimic",
    "tutor:mirrormove",
    "tutor:mudslap",
    "tutor:ominouswind",
    "tutor:protect",
    "tutor:pursuit",
    "tutor:quickattack",
    "tutor:rage",
    "tutor:razorwind",
    "tutor:reflect",
    "tutor:rest",
    "tutor:return",
    "tutor:roost",
    "tutor:sandattack",
    "tutor:secretpower",
    "tutor:skyattack",
    "tutor:sleeptalk",
    "tutor:snore",
    "tutor:steelwing",
    "tutor:substitute",
    "tutor:sunnyday",
    "tutor:swagger",
    "tutor:swift",
    "tutor:tackle",
    "tutor:tailwind",
    "tutor:takedown",
    "tutor:thief",
    "tutor:toxic",
    "tutor:twister",
    "tutor:uproar",
    "tutor:uturn",
    "tutor:whirlwind",
    "tutor:wingattack"
  ],
  "labels": [
    "gen1"
  ],
  "pokedex": [
    "cobblemon.species.pidgey.desc"
  ],
  "evolutions": [
    {
      "id": "pidgey_pidgeotto",
      "variant": "level_up",
      "result": "pidgeotto",
      "consumeHeldItem": false,
      "learnableMoves": [],
      "requirements": [
        {
          "variant": "level",
          "minLevel": 18
        }
      ]
    }
  ],
  "baseScale": 0.8,
  "hitbox": {
    "width": 0.5,
    "height": 0.7,
    "fixed": false
  },
  "baseFriendship": 70,
  "evYield": {
    "hp": 0,
    "attack": 0,
    "defence": 0,
    "special_attack": 0,
    "special_defence": 0,
    "speed": 1
  },
  "height": 3,
  "weight": 18,
  "aspects": [],
  "cannotDynamax": false
}