{
  "implemented": true,
  "name": "Raticate",
  "nationalPokedexNumber": 20,
  "primaryType": "normal",
  "abilities": [
    "runaway",
    "guts",
    "h:hustle"
  ],
  "baseStats": {
    "hp": 55,
    "attack": 81,
    "defence": 60,
    "special_attack": 50,
    "special_defence": 70,
    "speed": 97
  },
  "behaviour": {
    "moving" : {
      "walk": {
        "walkSpeed": 0.33
      }
    },
    "resting": {
      "canSleep": true,
      "willSleepOnBed": false,
      "depth": "normal",
      "light": "0-4"
    }
  },
  "features": [
    "alolan"
  ],
  "catchRate": 127,
  "maleRatio": 0.5,
  "shoulderMountable": false,
  "forms": [
    {
      "name": "Alola",
      "primaryType": "dark",
      "secondaryType": "normal",
      "abilities": [
        "gluttony",
        "hustle",
        "h:thickfat"
      ],
      "baseStats": {
        "hp": 75,
        "attack": 71,
        "defence": 70,
        "special_attack": 40,
        "special_defence": 80,
        "speed": 77
      },
      "catchRate": 127,
      "maleRatio": 0.5,
      "baseExperienceYield": 145,
      "baseFriendship": 70,
      "evYield": {
        "hp": 0,
        "attack": 0,
        "defence": 0,
        "special_attack": 0,
        "special_defence": 0,
        "speed": 2
      },
      "experienceGroup": "medium_fast",
      "eggCycles": 15,
      "eggGroups": [
        "field"
      ],
      "moves": [
        "1:focusenergy",
        "1:quickattack",
        "1:scaryface",
        "1:swordsdance",
        "1:tackle",
        "1:tailwhip",
        "10:bite",
        "13:pursuit",
        "16:hyperfang",
        "19:assurance",
        "24:crunch",
        "29:suckerpunch",
        "34:superfang",
        "39:doubleedge",
        "44:endeavor",
        "tm:attract",
        "tm:blizzard",
        "tm:bulkup",
        "tm:confide",
        "tm:darkpulse",
        "tm:doubleteam",
        "tm:embargo",
        "tm:facade",
        "tm:frustration",
        "tm:gigaimpact",
        "tm:grassknot",
        "tm:hiddenpower",
        "tm:hyperbeam",
        "tm:icebeam",
        "tm:protect",
        "tm:quash",
        "tm:raindance",
        "tm:rest",
        "tm:return",
        "tm:roar",
        "tm:round",
        "tm:shadowball",
        "tm:shadowclaw",
        "tm:sleeptalk",
        "tm:sludgebomb",
        "tm:sludgewave",
        "tm:snarl",
        "tm:substitute",
        "tm:sunnyday",
        "tm:swagger",
        "tm:swordsdance",
        "tm:taunt",
        "tm:thief",
        "tm:torment",
        "tm:toxic",
        "tm:uturn",
        "tm:venoshock",
        "tutor:bite",
        "tutor:blizzard",
        "tutor:bulkup",
        "tutor:counter",
        "tutor:covet",
        "tutor:crunch",
        "tutor:darkpulse",
        "tutor:dig",
        "tutor:doubleedge",
        "tutor:endeavor",
        "tutor:facade",
        "tutor:focusenergy",
        "tutor:furyswipes",
        "tutor:headbutt",
        "tutor:hyperbeam",
        "tutor:hyperfang",
        "tutor:icebeam",
        "tutor:icywind",
        "tutor:irontail",
        "tutor:knockoff",
        "tutor:lastresort",
        "tutor:protect",
        "tutor:quickattack",
        "tutor:rest",
        "tutor:shadowball",
        "tutor:shockwave",
        "tutor:sludgebomb",
        "tutor:snatch",
        "tutor:snore",
        "tutor:stompingtantrum",
        "tutor:substitute",
        "tutor:suckerpunch",
        "tutor:superfang",
        "tutor:swordsdance",
        "tutor:tackle",
        "tutor:tailwhip",
        "tutor:taunt",
        "tutor:throatchop",
        "tutor:toxic",
        "tutor:uproar",
        "tutor:uturn",
        "tutor:zenheadbutt"
      ],
      "labels": [
        "gen7",
        "alola_regional"
      ],
      "aspects": [
        "alolan"
      ],
      "height": 7,
      "weight": 255,
      "preEvolution": "rattata form=alola",
      "evolutions": [],
      "cannotDynamax": false,
      "battleOnly": false
    },
    {
      "name": "Alola-Totem",
      "primaryType": "dark",
      "secondaryType": "normal",
      "abilities": [
        "thickfat"
      ],
      "baseStats": {
        "hp": 75,
        "attack": 71,
        "defence": 70,
        "special_attack": 40,
        "special_defence": 80,
        "speed": 77
      },
      "catchRate": 127,
      "maleRatio": 0.5,
      "baseExperienceYield": 145,
      "baseFriendship": 70,
      "evYield": {
        "hp": 0,
        "attack": 0,
        "defence": 0,
        "special_attack": 0,
        "special_defence": 0,
        "speed": 2
      },
      "experienceGroup": "medium_fast",
      "eggCycles": 15,
      "eggGroups": [
        "field"
      ],
      "moves": [
        "1:focusenergy",
        "1:quickattack",
        "1:scaryface",
        "1:swordsdance",
        "1:tackle",
        "1:tailwhip",
        "10:bite",
        "13:pursuit",
        "16:hyperfang",
        "19:assurance",
        "24:crunch",
        "29:suckerpunch",
        "34:superfang",
        "39:doubleedge",
        "44:endeavor",
        "tm:attract",
        "tm:blizzard",
        "tm:bulkup",
        "tm:confide",
        "tm:darkpulse",
        "tm:doubleteam",
        "tm:embargo",
        "tm:facade",
        "tm:frustration",
        "tm:gigaimpact",
        "tm:grassknot",
        "tm:hiddenpower",
        "tm:hyperbeam",
        "tm:icebeam",
        "tm:protect",
        "tm:quash",
        "tm:raindance",
        "tm:rest",
        "tm:return",
        "tm:roar",
        "tm:round",
        "tm:shadowball",
        "tm:shadowclaw",
        "tm:sleeptalk",
        "tm:sludgebomb",
        "tm:sludgewave",
        "tm:snarl",
        "tm:substitute",
        "tm:sunnyday",
        "tm:swagger",
        "tm:swordsdance",
        "tm:taunt",
        "tm:thief",
        "tm:torment",
        "tm:toxic",
        "tm:uturn",
        "tm:venoshock",
        "tutor:assurance",
        "tutor:bite",
        "tutor:covet",
        "tutor:endeavor",
        "tutor:hyperfang",
        "tutor:icywind",
        "tutor:irontail",
        "tutor:knockoff",
        "tutor:lastresort",
        "tutor:pursuit",
        "tutor:shockwave",
        "tutor:snatch",
        "tutor:snore",
        "tutor:stompingtantrum",
        "tutor:superfang",
        "tutor:throatchop",
        "tutor:uproar",
        "tutor:zenheadbutt"
      ],
      "labels": [
        "gen7",
        "totem"
      ],
      "aspects": [
        "alola-totem"
      ],
      "height": 14,
      "weight": 1050,
      "evolutions": [],
      "cannotDynamax": false,
      "battleOnly": false
    }
  ],
  "baseExperienceYield": 145,
  "experienceGroup": "medium_fast",
  "eggCycles": 15,
  "eggGroups": [
    "field"
  ],
  "moves": [
    "1:focusenergy",
    "1:quickattack",
    "1:scaryface",
    "1:swordsdance",
    "1:tackle",
    "1:tailwhip",
    "10:bite",
    "13:pursuit",
    "16:hyperfang",
    "19:assurance",
    "24:crunch",
    "29:suckerpunch",
    "34:superfang",
    "39:doubleedge",
    "44:endeavor",
    "tm:attract",
    "tm:blizzard",
    "tm:captivate",
    "tm:chargebeam",
    "tm:confide",
    "tm:cut",
    "tm:dig",
    "tm:doubleteam",
    "tm:endure",
    "tm:facade",
    "tm:frustration",
    "tm:gigaimpact",
    "tm:grassknot",
    "tm:hiddenpower",
    "tm:hyperbeam",
    "tm:icebeam",
    "tm:irontail",
    "tm:naturalgift",
    "tm:pluck",
    "tm:protect",
    "tm:raindance",
    "tm:rest",
    "tm:retaliate",
    "tm:return",
    "tm:roar",
    "tm:rocksmash",
    "tm:round",
    "tm:secretpower",
    "tm:shadowball",
    "tm:shockwave",
    "tm:sleeptalk",
    "tm:strength",
    "tm:substitute",
    "tm:sunnyday",
    "tm:swagger",
    "tm:swordsdance",
    "tm:taunt",
    "tm:thief",
    "tm:thunder",
    "tm:thunderbolt",
    "tm:thunderwave",
    "tm:toxic",
    "tm:uturn",
    "tm:wildcharge",
    "tm:workup",
    "tutor:attract",
    "tutor:bide",
    "tutor:bite",
    "tutor:blizzard",
    "tutor:bodyslam",
    "tutor:bubblebeam",
    "tutor:counter",
    "tutor:covet",
    "tutor:crunch",
    "tutor:curse",
    "tutor:cut",
    "tutor:defensecurl",
    "tutor:dig",
    "tutor:doubleedge",
    "tutor:doubleteam",
    "tutor:endeavor",
    "tutor:endure",
    "tutor:facade",
    "tutor:focusenergy",
    "tutor:frustration",
    "tutor:furyswipes",
    "tutor:headbutt",
    "tutor:hiddenpower",
    "tutor:hyperbeam",
    "tutor:hyperfang",
    "tutor:icebeam",
    "tutor:icywind",
    "tutor:irontail",
    "tutor:lastresort",
    "tutor:mimic",
    "tutor:mudslap",
    "tutor:protect",
    "tutor:pursuit",
    "tutor:quickattack",
    "tutor:rage",
    "tutor:refresh",
    "tutor:rest",
    "tutor:return",
    "tutor:roar",
    "tutor:rocksmash",
    "tutor:scaryface",
    "tutor:shadowball",
    "tutor:shockwave",
    "tutor:skullbash",
    "tutor:sleeptalk",
    "tutor:snore",
    "tutor:stompingtantrum",
    "tutor:strength",
    "tutor:substitute",
    "tutor:suckerpunch",
    "tutor:sunnyday",
    "tutor:superfang",
    "tutor:swagger",
    "tutor:swift",
    "tutor:swordsdance",
    "tutor:tackle",
    "tutor:tailwhip",
    "tutor:takedown",
    "tutor:taunt",
    "tutor:thief",
    "tutor:throatchop",
    "tutor:thunder",
    "tutor:thunderbolt",
    "tutor:thunderwave",
    "tutor:toxic",
    "tutor:uproar",
    "tutor:uturn",
    "tutor:watergun",
    "tutor:zenheadbutt"
  ],
  "labels": [
    "gen1",
    "kanto_regional"
  ],
  "pokedex": [
    "cobblemon.species.raticate.desc"
  ],
  "preEvolution": "rattata",
  "evolutions": [],
  "baseScale": 0.8,
  "hitbox": {
    "width": 0.7,
    "height": 1.1,
    "fixed": false
  },
  "baseFriendship": 70,
  "evYield": {
    "hp": 0,
    "attack": 0,
    "defence": 0,
    "special_attack": 0,
    "special_defence": 0,
    "speed": 2
  },
  "height": 7,
  "weight": 185,
  "aspects": [],
  "cannotDynamax": false
}