{
	"format_version": "1.8.0",
	"animations": {
		"animation.breloom.ground_idle": {
			"loop": true,
			"bones": {
				"tail": {
					"rotation": ["-20+math.sin(q.anim_time*90*4-30)*2", "(math.sin(q.anim_time*90*3)*1)+4*(math.sin(q.anim_time*90*3/2)*1)", 0]
				},
				"tail2": {
					"rotation": ["28+math.sin(q.anim_time*90*4-60)*2", "6*(math.sin(q.anim_time*90*3-90)*1)+6*(math.sin(q.anim_time*90*3/2-90)*1)", 0]
				},
				"tail3": {
					"rotation": ["35+math.sin(q.anim_time*90*4-90)*2", "6*(math.sin(q.anim_time*90*3-120)*1)+6*(math.sin(q.anim_time*90*3/2-120)*1)", 0]
				},
				"tail4": {
					"rotation": ["25+math.sin(q.anim_time*90*4-120)*4", "6*(math.sin(q.anim_time*90*3-150)*1)+6*(math.sin(q.anim_time*90*3/2-150)*1)", 0]
				},
				"leg_left": {
					"rotation": [0, -12.5, 0],
					"position": [0, "math.sin(q.anim_time*90*4)*0.1", 0]
				},
				"leg_right": {
					"rotation": [0, 12.5, 0],
					"position": [0, "math.sin(q.anim_time*90*4)*0.1", 0]
				},
				"body": {
					"position": [0, -0.13, 0]
				},
				"torso": {
					"rotation": ["8+math.sin(q.anim_time*90*2)*-1", "math.sin(q.anim_time*90*2-30)*2", 0],
					"position": [0, "math.sin(q.anim_time*90*4+20)*0.2", 0]
				},
				"frill": {
					"rotation": ["math.sin(q.anim_time*90*4-50)*-2", 0, 0]
				},
				"frill2": {
					"rotation": ["math.sin(q.anim_time*90*4-50)*2", 0, 0]
				},
				"frill3": {
					"rotation": [0, 0, "math.sin(q.anim_time*90*4-50)*-2"]
				},
				"frill4": {
					"rotation": [0, 0, "math.sin(q.anim_time*90*4-50)*2"]
				},
				"frill5_2": {
					"rotation": [0, 0, "math.sin(q.anim_time*90*4-90)*-2"]
				},
				"frill6_2": {
					"rotation": [0, 0, "math.sin(q.anim_time*90*4-90)*2"]
				},
				"frill7_2": {
					"rotation": [0, 0, "math.sin(q.anim_time*90*4-90)*-2"]
				},
				"frill8_2": {
					"rotation": [0, 0, "math.sin(q.anim_time*90*4-90)*2"]
				},
				"arm_left": {
					"rotation": [0, 0, "math.sin(q.anim_time*90*4-90)*-3"]
				},
				"hand_left": {
					"rotation": [0, "math.sin(q.anim_time*90*4-90)*-2", "math.sin(q.anim_time*90*4-90)*-2"]
				},
				"arm_right": {
					"rotation": [0, 0, "math.sin(q.anim_time*90*4-90)*3"]
				},
				"hand_right": {
					"rotation": [0, "math.sin(q.anim_time*90*4-90)*2", "math.sin(q.anim_time*90*4-90)*2"]
				},
				"neck": {
					"rotation": ["-5+math.sin(q.anim_time*90*4-30)*-2", 0, 0]
				},
				"head": {
					"rotation": ["-5+math.sin(q.anim_time*90*4-50)*4", 0, 0]
				},
				"leg_left2": {
					"position": [0, "math.sin(q.anim_time*90*4)*-0.1", 0]
				},
				"leg_right2": {
					"position": [0, "math.sin(q.anim_time*90*4)*-0.1", 0]
				}
			}
		},
		"animation.breloom.ground_walk": {
			"loop": true,
			"animation_length": 1,
			"bones": {
				"torso": {
					"rotation": [5, 0, 0],
					"position": [0, "math.sin(q.anim_time*90*4*2)*-0.2+math.sin(q.anim_time*90*4)*-0.2", 0]
				},
				"tail": {
					"rotation": ["math.sin(q.anim_time*90*4*2-40)*-2+math.sin(q.anim_time*90*4-40)*-2", 0, 0]
				},
				"tail2": {
					"rotation": ["-5+math.sin(q.anim_time*90*4*2-60)*-2+math.sin(q.anim_time*90*4-60)*-2", 0, 0]
				},
				"tail3": {
					"rotation": ["-15+math.sin(q.anim_time*90*4*2-90)*-4+math.sin(q.anim_time*90*4-90)*-4", 0, 0]
				},
				"tail4": {
					"rotation": ["-25+math.sin(q.anim_time*90*4*2-140)*-6+math.sin(q.anim_time*90*4-140)*-6", 0, 0]
				},
				"hand_left": {
					"rotation": [0, 0, "math.sin(q.anim_time*90*4*2-40)*-6+math.sin(q.anim_time*90*4-40-90)*3"]
				},
				"hand_right": {
					"rotation": [0, 0, "math.sin(q.anim_time*90*4*2-20)*4+math.sin(q.anim_time*90*4-40-90)*-2"]
				},
				"head": {
					"rotation": ["math.sin(q.anim_time*90*4*2-90)*2+math.sin(q.anim_time*90*4-90)*-2", 0, 0]
				},
				"leg_left": {
					"rotation": ["math.clamp(math.cos(q.anim_time*90*4)*15*1,-10,10)+math.clamp(math.cos(q.anim_time*90*4)*10*1,-10,10)", -5, 0],
					"position": [0, "math.clamp(math.sin(q.anim_time*90*4-20)*0.3,0,1)+math.clamp(math.sin(q.anim_time*90*4-20)*0.5,-0.2,0)", 0]
				},
				"leg_left2": {
					"rotation": ["math.clamp(math.cos(q.anim_time*90*4+60)*15*1,-10,10)+math.clamp(math.cos(q.anim_time*90*4)*10*1,-10,10)", 5, 0],
					"position": [0, "math.clamp(math.sin(q.anim_time*90*4-130-180)*1,0.7,1)-math.clamp(math.sin(q.anim_time*90*4-40-180)*1,0.75,1)+0.25", 0]
				},
				"foot_left": {
					"rotation": {
						"0.0": [-12.5, 0, 0],
						"0.125": [4.46, 0, 0],
						"0.3333": [17.53, 0, 0],
						"0.4583": [20.03, 0, 0],
						"0.5833": [3.68, 0, 0],
						"0.6667": [10.7, 0, 0],
						"0.7083": [-0.46, 0, 0],
						"0.8333": [-14.44, 0, 0],
						"1.0": [-12.5, 0, 0]
					}
				},
				"leg_right": {
					"rotation": ["math.clamp(math.cos(q.anim_time*90*4+180)*15*1,-10,10)+math.clamp(math.cos(q.anim_time*90*4+180)*10*1,-10,10)", 5, 0],
					"position": [0, "math.clamp(math.sin(q.anim_time*90*4-20+180)*0.3,0,1)+math.clamp(math.sin(q.anim_time*90*4-20+180)*0.5,-0.2,0)", 0]
				},
				"leg_right2": {
					"rotation": ["math.clamp(math.cos(q.anim_time*90*4+60+180)*15*1,-10,10)+math.clamp(math.cos(q.anim_time*90*4+180)*10*1,-10,10)", -5, 0],
					"position": [0, "math.clamp(math.sin(q.anim_time*90*4-130)*1,0.7,1)-math.clamp(math.sin(q.anim_time*90*4-40)*1,0.75,1)+0.25", 0]
				},
				"foot_right": {
					"rotation": {
						"0.0": [14.58, 0, 0],
						"0.0833": [3.68, 0, 0],
						"0.1667": [10.7, 0, 0],
						"0.2083": [-0.46, 0, 0],
						"0.3333": [-14.44, 0, 0],
						"0.5": [-12.5, 0, 0],
						"0.625": [4.46, 0, 0],
						"0.8333": [17.53, 0, 0],
						"0.9583": [20.03, 0, 0],
						"1.0": [14.58, 0, 0]
					}
				},
				"foot_right2": {
					"rotation": {
						"0.0": [19, 0, 0],
						"0.125": [-6.75, 0, 0],
						"0.2083": [0, 0, 0],
						"0.3333": [-8, 0, 0],
						"0.5": [-12.5, 0, 0],
						"0.5833": [-9.85, 0, 0],
						"0.7083": [13.21, 0, 0],
						"0.875": [17.35, 0, 0],
						"1.0": [19, 0, 0]
					}
				},
				"foot_left2": {
					"rotation": {
						"0.0": [-12.5, 0, 0],
						"0.0833": [-9.85, 0, 0],
						"0.2083": [13.21, 0, 0],
						"0.375": [17.35, 0, 0],
						"0.5": [19, 0, 0],
						"0.625": [-6.75, 0, 0],
						"0.7083": [0, 0, 0],
						"0.8333": [-10, 0, 0],
						"1.0": [-12.5, 0, 0]
					}
				},
				"neck": {
					"rotation": [5, 0, 0]
				}
			}
		},
		"animation.breloom.ground_run": {
			"loop": true,
			"animation_length": 0.66667,
			"bones": {
				"torso": {
					"rotation": ["27.5+math.sin(q.anim_time*90*6*2)*3", 0, "math.sin(q.anim_time*90*6+90)*3"],
					"position": [0, "math.sin(q.anim_time*90*6*2)*-0.2", 0]
				},
				"tail": {
					"rotation": ["-20+math.sin(q.anim_time*90*6*2-40)*-3", "math.sin(q.anim_time*90*6-40)*-5", 0]
				},
				"tail2": {
					"rotation": ["10+math.sin(q.anim_time*90*6*2-100)*-3", "math.sin(q.anim_time*90*6-100)*-8", 0]
				},
				"tail3": {
					"rotation": ["5+math.sin(q.anim_time*90*6*2-140)*-5", "math.sin(q.anim_time*90*6-140)*-14", 0]
				},
				"tail4": {
					"rotation": ["-10+math.sin(q.anim_time*90*6*2-180)*-12", "math.sin(q.anim_time*90*6-180)*-17", 0]
				},
				"hand_left": {
					"rotation": [-10, -20, "15+math.sin(q.anim_time*90*6*2-80)*-10+math.sin(q.anim_time*90*6-80)*5"]
				},
				"hand_right": {
					"rotation": [-10, 20, "-15+math.sin(q.anim_time*90*6*2-80)*-10+math.sin(q.anim_time*90*6-80)*-5"]
				},
				"head": {
					"rotation": ["-20+math.sin(q.anim_time*90*6*2-100)*6", 0, "math.sin(q.anim_time*90*6+90)*2"]
				},
				"leg_left": {
					"rotation": ["math.clamp(math.cos(q.anim_time*90*6)*30*1,-15,25)+math.clamp(math.cos(q.anim_time*90*6)*15*1,-20,20)", -5, 0],
					"position": [0, "math.clamp(math.sin(q.anim_time*90*6-20)*0.5,0,1)+math.clamp(math.sin(q.anim_time*90*6-20)*0.5,-0.2,0)", 0]
				},
				"leg_left2": {
					"rotation": ["math.clamp(math.cos(q.anim_time*90*6+60)*15*1,-10,10)+math.clamp(math.cos(q.anim_time*90*6)*10*1,-10,10)", 5, 0],
					"position": [0, "math.clamp(math.sin(q.anim_time*90*6-20)*0.5,0,1)+math.clamp(math.sin(q.anim_time*90*6-20)*0.5,-0.2,0)", 0]
				},
				"foot_left": {
					"rotation": {
						"0.0": [71.25, 0, 0],
						"0.1667": [8.51, 0, 0],
						"0.2917": [12.08, 0, 0],
						"0.3333": [8.58, 0, 0],
						"0.375": [18.98, 0, 0],
						"0.4167": [17.44, 0, 0],
						"0.5": [1.86, 0, 0],
						"0.5417": [14.03, 0, 0],
						"0.625": [93.38, 0, 0],
						"0.6667": [71.25, 0, 0]
					}
				},
				"leg_right": {
					"rotation": ["math.clamp(math.cos(q.anim_time*90*6+180)*30*1,-15,25)+math.clamp(math.cos(q.anim_time*90*6+180)*15*1,-20,20)", 5, 0],
					"position": [0, "math.clamp(math.sin(q.anim_time*90*6-20+180)*0.5,0,1)+math.clamp(math.sin(q.anim_time*90*6-20+180)*0.5,-0.2,0)", 0]
				},
				"leg_right2": {
					"rotation": ["math.clamp(math.cos(q.anim_time*90*6+60+180)*15*1,-10,10)+math.clamp(math.cos(q.anim_time*90*6+180)*10*1,-10,10)", -5, 0],
					"position": [0, "math.clamp(math.sin(q.anim_time*90*6-20+180)*0.5,0,1)+math.clamp(math.sin(q.anim_time*90*6-20+180)*0.5,-0.2,0)", 0]
				},
				"foot_right": {
					"rotation": {
						"0.0": [8.58, 0, 0],
						"0.0417": [18.98, 0, 0],
						"0.0833": [17.44, 0, 0],
						"0.1667": [1.86, 0, 0],
						"0.2083": [14.03, 0, 0],
						"0.2917": [93.38, 0, 0],
						"0.3333": [71.25, 0, 0],
						"0.5": [8.51, 0, 0],
						"0.625": [12.08, 0, 0],
						"0.6667": [8.58, 0, 0]
					}
				},
				"foot_right2": {
					"rotation": {
						"0.0": [2.75, 0, 0],
						"0.0417": [-13.5, 0, 0],
						"0.0833": [0.25, 0, 0],
						"0.125": [-1, 0, 0],
						"0.2083": [-23.92, 0, 0],
						"0.25": [-30.88, 0, 0],
						"0.2917": [16.05, 0, 0],
						"0.3333": [22.98, 0, 0],
						"0.4583": [29, 0, 0],
						"0.625": [19, 0, 0],
						"0.6667": [2.75, 0, 0]
					}
				},
				"foot_left2": {
					"rotation": {
						"0.0": [22.98, 0, 0],
						"0.125": [29, 0, 0],
						"0.2917": [19, 0, 0],
						"0.3333": [2.75, 0, 0],
						"0.375": [-13.5, 0, 0],
						"0.4167": [0.25, 0, 0],
						"0.4583": [-1, 0, 0],
						"0.5417": [-23.92, 0, 0],
						"0.5833": [-30.88, 0, 0],
						"0.625": [16.05, 0, 0],
						"0.6667": [22.98, 0, 0]
					}
				},
				"body": {
					"position": [0, "math.sin(q.anim_time*90*6*2)*-0.4+0.4", 0]
				},
				"frill": {
					"rotation": ["math.sin(q.anim_time*90*6*2+20)*-8", 0, 0]
				},
				"frill2": {
					"rotation": ["math.sin(q.anim_time*90*6*2+20)*8-10", 0, 0]
				},
				"frill3": {
					"rotation": [0, 0, "math.sin(q.anim_time*90*6*2+20)*-8+8"]
				},
				"frill4": {
					"rotation": [0, 0, "math.sin(q.anim_time*90*6*2+20)*8-8"]
				},
				"frill5_2": {
					"rotation": [0, 0, "math.sin(q.anim_time*90*6*2+20)*-8-6"]
				},
				"frill6_2": {
					"rotation": [0, 0, "math.sin(q.anim_time*90*6*2+20)*8+6"]
				},
				"frill7_2": {
					"rotation": [0, 0, "math.sin(q.anim_time*90*6*2+20)*-8+6"]
				},
				"frill8_2": {
					"rotation": [0, 0, "math.sin(q.anim_time*90*6*2+20)*8-6"]
				},
				"arm_left": {
					"rotation": [-34.15731, -4.59631, "-(math.sin(q.anim_time*90*6*2)*2+21.7017)"]
				},
				"arm_right": {
					"rotation": [-34.15731, 4.59631, "math.sin(q.anim_time*90*6*2)*2+21.7017"]
				},
				"arm_right6": {
					"rotation": [-5, 0, 0]
				},
				"neck": {
					"rotation": ["10+math.sin(q.anim_time*90*6*2-60)*-3", 0, "math.sin(q.anim_time*90*6+90)*-2"]
				}
			}
		},
		"animation.breloom.sleep": {
			"loop": true,
			"bones": {
				"body": {
					"rotation": [-10, 0, 0],
					"position": [0, -4.5, 0]
				},
				"torso": {
					"rotation": ["math.sin(q.anim_time*90*1-20)*-1", 0, 0],
					"position": [0, "math.sin(q.anim_time*90*1)*0.1", 0]
				},
				"frill": {
					"rotation": ["math.sin(q.anim_time*90*1-50)*-2", 0, 0]
				},
				"frill2": {
					"rotation": ["-10+math.sin(q.anim_time*90*1-50)*2", 0, 0]
				},
				"frill3": {
					"rotation": [0, 0, "7.5+math.sin(q.anim_time*90*1-50)*-2"]
				},
				"frill4": {
					"rotation": [0, 0, "-7.5+math.sin(q.anim_time*90*1-50)*2"]
				},
				"frill5_2": {
					"rotation": [0, 0, "math.sin(q.anim_time*90*1-90)*-2"]
				},
				"frill6_2": {
					"rotation": [0, 0, "math.sin(q.anim_time*90*1-90)*2"]
				},
				"frill7_2": {
					"rotation": [0, 0, "5+math.sin(q.anim_time*90*1-90)*-2"]
				},
				"frill8_2": {
					"rotation": [0, 0, "-5+math.sin(q.anim_time*90*1-90)*2"]
				},
				"tail": {
					"rotation": ["2.5+math.sin(q.anim_time*90*1)*2", "5+(math.sin(q.anim_time*90*1-40)*-1)+1*(math.sin(q.anim_time*90*3/2-40)*-1)", 0.2]
				},
				"tail2": {
					"rotation": [8, "40+(math.sin(q.anim_time*90*1)*4)+1*(math.sin(q.anim_time*90*1/2)*1)", 7],
					"position": [0, 0, -0.5]
				},
				"tail3": {
					"rotation": [-3, "30+(math.sin(q.anim_time*90*1-60)*2)+1*(math.sin(q.anim_time*90*3/2-60)*1)", -2],
					"position": [0, 0, -0.5]
				},
				"tail4": {
					"rotation": ["25+math.sin(q.anim_time*90*1)*-2", "30+(math.sin(q.anim_time*90*1-110)*5)", "(math.sin(q.anim_time*90*1-140)*-3)"]
				},
				"arm_left": {
					"rotation": [-30, 10, "-12+math.sin(q.anim_time*90*1-40)*-3"]
				},
				"hand_left": {
					"rotation": [13, "26+math.sin(q.anim_time*90*1-40)*2", "20+math.sin(q.anim_time*90*1-60)*-4"]
				},
				"arm_right": {
					"rotation": [-36, -10, "26+math.sin(q.anim_time*90*1-40)*-3"]
				},
				"hand_right": {
					"rotation": [19, "-10+math.sin(q.anim_time*90*1-40)*-2", "-27+math.sin(q.anim_time*90*1-60)*4"]
				},
				"neck": {
					"rotation": ["27.5+math.sin(q.anim_time*90*1-60)*-1", 0, 0]
				},
				"head": {
					"rotation": ["10+math.sin(q.anim_time*90*1-80)*-1", 0, 0]
				},
				"eyelid_right": {
					"position": [-0.1, 0, 0]
				},
				"eyelid_left": {
					"position": [0.1, 0, 0]
				},
				"hat": {
					"rotation": [25, 0, 0],
					"position": [0, 0, -1.25]
				},
				"leg_left": {
					"rotation": ["-94+math.sin(q.anim_time*90*1-40)*-1", 25, -3.5],
					"position": [0, "math.sin(q.anim_time*90*1)*0.1", 0]
				},
				"leg_left2": {
					"rotation": ["-20+math.sin(q.anim_time*90*1-40)*-2", -8, 16]
				},
				"foot_left": {
					"rotation": ["47.5+math.sin(q.anim_time*90*1-60)*-6", 0, 0],
					"position": [0, -0.9, "0.2+math.sin(q.anim_time*90*1-60)*0.05"]
				},
				"foot_left2": {
					"rotation": ["25+math.sin(q.anim_time*90*1-80)*-2", 0, 0]
				},
				"leg_right": {
					"rotation": ["-85+math.sin(q.anim_time*90*1-40)*-1", -17.5, 0],
					"position": [0.25, "math.sin(q.anim_time*90*1)*0.1", 0]
				},
				"leg_right2": {
					"rotation": ["12+math.sin(q.anim_time*90*1-40)*4", 3, -17.5],
					"position": [0, 0.25, 0]
				},
				"foot_right": {
					"rotation": ["47.5+math.sin(q.anim_time*90*1-60)*-6", 0, 0],
					"position": [0, -0.2, "math.sin(q.anim_time*90*1-60)*0.05"]
				},
				"foot_right2": {
					"rotation": ["25+math.sin(q.anim_time*90*1-80)*-2", 0, 0]
				}
			}
		},
		"animation.breloom.battle_idle": {
			"loop": true,
			"bones": {
				"tail": {
					"rotation": ["-15+math.sin(q.anim_time*90*4-30)*2", "(math.sin(q.anim_time*90*3)*2)+4*(math.sin(q.anim_time*90*3/2)*2)", 0]
				},
				"tail2": {
					"rotation": ["35+math.sin(q.anim_time*90*4-60)*2", "6*(math.sin(q.anim_time*90*3-90)*2)+6*(math.sin(q.anim_time*90*3/2-90)*2)", 0]
				},
				"tail3": {
					"rotation": ["40+math.sin(q.anim_time*90*4-90)*4", "6*(math.sin(q.anim_time*90*3-100)*2)+6*(math.sin(q.anim_time*90*3/2-100)*2)", 0]
				},
				"tail4": {
					"rotation": ["30+math.sin(q.anim_time*90*4-120)*6", "6*(math.sin(q.anim_time*90*3-150)*2)+6*(math.sin(q.anim_time*90*3/2-150)*2)", 0]
				},
				"leg_left": {
					"rotation": ["math.sin(q.anim_time*90*4)*5", -27.5, 0],
					"position": [0.8, "math.sin(q.anim_time*90*4)*-0.3", 0]
				},
				"leg_right": {
					"rotation": ["math.sin(q.anim_time*90*4)*5", 27.5, 0],
					"position": [-0.8, "math.sin(q.anim_time*90*4)*-0.3", 0]
				},
				"torso": {
					"rotation": ["15.5+math.sin(q.anim_time*90*2)*-1", "0+math.sin(q.anim_time*90*2-30)*2", 0],
					"position": [0, "math.sin(q.anim_time*90*4+20)*0.3", 0]
				},
				"frill": {
					"rotation": ["math.sin(q.anim_time*90*4-50)*-2", 0, 0]
				},
				"frill2": {
					"rotation": ["math.sin(q.anim_time*90*4-50)*2", 0, 0]
				},
				"frill3": {
					"rotation": [0, 0, "math.sin(q.anim_time*90*4-50)*-2"]
				},
				"frill4": {
					"rotation": [0, 0, "math.sin(q.anim_time*90*4-50)*2"]
				},
				"frill5_2": {
					"rotation": [0, 0, "math.sin(q.anim_time*90*4-90)*-2"]
				},
				"frill6_2": {
					"rotation": [0, 0, "math.sin(q.anim_time*90*4-90)*2"]
				},
				"frill7_2": {
					"rotation": [0, 0, "math.sin(q.anim_time*90*4-90)*-2"]
				},
				"frill8_2": {
					"rotation": [0, 0, "math.sin(q.anim_time*90*4-90)*2"]
				},
				"arm_left": {
					"rotation": [0, -7.5, "math.sin(q.anim_time*90*4-90)*-3"]
				},
				"hand_left": {
					"rotation": [0, "math.sin(q.anim_time*90*4-90)*-2", "-20+math.sin(q.anim_time*90*4-90)*-2"]
				},
				"arm_right": {
					"rotation": [0, 12.5, "0+math.sin(q.anim_time*90*4-90)*3"],
					"position": [-0.3, 0, 0]
				},
				"hand_right": {
					"rotation": [0, "math.sin(q.anim_time*90*4-90)*2", "math.sin(q.anim_time*90*4-90)*2"]
				},
				"neck": {
					"rotation": ["-5.0152+math.sin(q.anim_time*90*4-30)*-2", 4.98779, -0.34967]
				},
				"head": {
					"rotation": ["9.855+math.sin(q.anim_time*90*4-50)*4", 17.39956, -1.51092]
				},
				"leg_left2": {
					"rotation": ["math.sin(q.anim_time*90*4-10)*-8", -5, "math.sin(q.anim_time*90*4)*0.6"],
					"position": [0, "math.sin(q.anim_time*90*4)*-0.2", "math.sin(q.anim_time*90*4)*-0.2"]
				},
				"leg_right2": {
					"rotation": ["math.sin(q.anim_time*90*4-10)*-8", 5, "-(math.sin(q.anim_time*90*4)*0.6)"],
					"position": [0, "math.sin(q.anim_time*90*4)*-0.2", "math.sin(q.anim_time*90*4)*-0.2"]
				},
				"body": {
					"rotation": [0, -30, 0],
					"position": [0, "1.3+math.sin(q.anim_time*90*4-10)*0.3", 0]
				},
				"hat": {
					"rotation": [2, 0, 0]
				},
				"foot_left": {
					"rotation": ["37.5+math.sin(q.anim_time*90*4-40)*7", 0, 0],
					"position": [0, "0.1+math.sin(q.anim_time*90*4)*-0.1", -0.1]
				},
				"foot_right": {
					"rotation": ["34.9952+math.sin(q.anim_time*90*4-50)*6", 0.02431, 0.21833],
					"position": [0, "0.1+math.sin(q.anim_time*90*4)*-0.1", -0.1]
				},
				"foot_left2": {
					"rotation": ["-35+math.sin(q.anim_time*90*4-50)*-4", 0, 0],
					"position": [0, "-0.6+math.sin(q.anim_time*90*4)*0.06", 0.6]
				},
				"foot_right2": {
					"rotation": ["-32.4975+math.sin(q.anim_time*90*4-80)*-3", -0.06765, -0.08657],
					"position": [0, "-0.6+math.sin(q.anim_time*90*4-20)*0.06", 0.6]
				}
			}
		},
		"animation.breloom.faint": {
			"loop": true,
			"animation_length": 3,
			"bones": {
				"body": {
					"rotation": {
						"0.0": [0, 0, 0],
						"1.25": [0, 0, 0],
						"1.3333": [14.72, 0, 0],
						"1.5": [103.06, 0, 0],
						"1.5833": [118.06, 0, 0],
						"1.7917": [77.5, 0, 0],
						"1.9167": [67.5, 0, 0],
						"2.0417": [77.5, 0, 0],
						"2.1667": [77.5, 0, 0]
					},
					"position": {
						"0.0": [0, -0.13, 0],
						"0.125": [0.2, -0.38, 1.63],
						"0.25": [0.5, -0.13, 3.25],
						"0.375": [0, -0.13, 4.06],
						"0.625": [-0.8, -0.13, "4.25+3.25"],
						"0.8333": [-0.8, -0.13, "4.25+3.25"],
						"1.0": [-0.8, -0.33, 7.29],
						"1.0833": [-0.8, -0.73, 7.85],
						"1.2917": [-0.33, 0.87, 6.17],
						"1.4167": [-0.08, -3.25, -3.06],
						"1.5": [-0.03, -3.71, -6.35],
						"1.5833": [-0.03, -2.96, -7.6],
						"1.7917": [0, -4.25, -4.75],
						"1.9167": [0, -4, -4.05],
						"2.0417": [0, -4.25, -4.75]
					}
				},
				"torso": {
					"rotation": {
						"0.0": [8, 0, 0],
						"0.0833": [14.71, 0.84, -3.65],
						"0.125": [16.9522, 1.1234, -4.87248],
						"0.2083": [16.23, 0.95, -4.03],
						"0.375": [11.99, -0.06, 0.86],
						"0.4583": [11.13729, -0.25824, 1.83812],
						"0.5417": [9, 0.68, 3.6],
						"0.625": [2.59443, 3.48603, 8.88336],
						"0.7083": [0.93, 3.27, 8.33],
						"1.0417": [11.26686, 14.0963, -2.13522],
						"1.125": [14.88976, 8.93574, 6.15014],
						"1.375": [-14.24678, 5.57127, 0.42975],
						"1.5": [8.01482, -1.98048, -2.8588],
						"1.7083": [8.07483, -4.51072, -2.64488],
						"1.8333": [8.08161, -2.55408, -1.93727],
						"2.2917": ["8+math.sin(q.anim_time*90*2)*-0.2", 0, 0]
					},
					"position": {
						"0.125": [0, 0.5, 0],
						"0.625": [0, 0.75, 0],
						"0.875": [0, 0.75, 0],
						"1.125": [0, 0.85, 0],
						"1.375": [0, 0.75, 0],
						"2.125": [0, 0.75, "math.sin(q.anim_time*90*2)*0.1"]
					}
				},
				"frill": {
					"rotation": {
						"0.0417": [0, 0, 0],
						"0.1667": [-2.5, 0, 0],
						"0.3333": [12.5, 0, 0],
						"0.5417": [0, 0, 0],
						"0.625": [-2.5, 0, 0],
						"0.7917": [-10, 0, 0],
						"1.0417": [7.31, 0, 0],
						"1.2917": [17.22734, 3.84946, 3.19327],
						"1.4167": [22.80723, -8.86214, -8.85094],
						"1.7083": [22.80723, -8.86214, -8.85094],
						"1.9583": [-1.51546, -1.47702, -1.47516],
						"2.2917": [12.5, 0, 0]
					}
				},
				"frill2": {
					"rotation": {
						"0.0417": [-20, 0, 0],
						"0.1667": [-12.5, 0, 0],
						"0.3333": [-30, 0, 0],
						"0.5833": [-27.5, 0, 0],
						"0.6667": [-12.5, 0, 0],
						"0.8333": [5, 0, 0],
						"1.0833": [-20, 0, 0],
						"1.375": [-30, 0, 0],
						"1.5": [-30.21589, -0.92591, -2.73957],
						"1.6667": [-52.56643, -3.1934, -4.48567],
						"1.7917": [-12.19277, -8.86214, -8.85094],
						"2.0": [-31.51546, -1.47702, -1.47516],
						"2.1667": [-15.5116, -1.10777, -1.10637],
						"2.4167": [-20.69, -0.14, -0.14],
						"2.5": [-22.5, 0, 0]
					}
				},
				"frill3": {
					"rotation": {
						"0.0417": [0, 0, 12.5],
						"0.1667": [0, 0, 5],
						"0.3333": [0, 0, 22.5],
						"0.5833": [0, 0, 10],
						"0.6667": [0, 0, 2.5],
						"0.8333": [-5, 0, -2.5],
						"1.0833": [-17.34557, 0.13682, 5.4023],
						"1.375": [0, 0, 17.5],
						"1.5": [0, -10, 7.5],
						"1.6667": [-17.5, -8.5714, 7.5],
						"1.7917": [0, -12.5, 7.5],
						"2.0": [0, 7.5, 7.5],
						"2.1667": [0, 2.5, 7.5],
						"2.4167": [0, 10.31, 7.5],
						"2.5": [0, 12.5, 7.5]
					}
				},
				"frill4": {
					"rotation": {
						"0.0417": [0, 0, -12.5],
						"0.1667": [0, 0, -5],
						"0.3333": [0, 0, -22.5],
						"0.5833": [0, 0, -10],
						"0.6667": [0, 0, -2.5],
						"0.8333": [-5, 0, 2.5],
						"1.0833": [-17.34557, 0.13682, -5.40226],
						"1.375": [0, 0, -17.5],
						"1.5": [0, 10, -7.5],
						"1.6667": [-19.05794, 3.84196, -21.82348],
						"1.7917": [0, 12.5, -7.5],
						"2.0": [0, -7.5, -7.5],
						"2.1667": [0, 2.5, -7.5],
						"2.4167": [0, -10.31, -7.5],
						"2.5": [0, -12.5, -7.5]
					}
				},
				"frill5_2": {
					"rotation": {
						"0.0417": [0, 0, 5],
						"0.1667": [0, 0, -5],
						"0.3333": [0, 0, 5],
						"0.5833": [0, 0, 5],
						"0.6667": [0, 0, 0],
						"0.8333": [17.43745, -1.50179, -22.73032],
						"1.0833": [0, -5, -2.5],
						"1.375": [0, -20, 5],
						"1.5": [0, -20, 5],
						"1.6667": [2.44817, -21.42025, 1.64373],
						"1.7917": [0.86337, -0.02467, 2.54244],
						"2.0": [0.96884, 6.12371, -2.78322],
						"2.1667": [-0.44157, 4.96465, 2.35412],
						"2.4167": [2.90524, 2.46187, 4.63173],
						"2.5": [3.11646, 3.25806, 4.29856]
					}
				},
				"frill6_2": {
					"rotation": {
						"0.0417": [0, 0, -5],
						"0.1667": [0, 0, 2.5],
						"0.3333": [0, 0, -5],
						"0.5833": [0, 0, 0],
						"0.6667": [0, 0, 5],
						"0.8333": [10, 0, 7.5],
						"1.0833": [0, 0, 5],
						"1.375": [0, 0, 0],
						"1.5": [-0.22118, 9.99519, -2.52889],
						"1.6667": [-0.23576, 22.49509, -2.5807],
						"1.7917": [-0.22311, 12.49517, -2.53877],
						"2.0": [-0.21865, -5.0047, -2.47142],
						"2.1667": [-0.22311, 12.49517, -2.53877],
						"2.4167": [-0.22, -0.63, -2.49],
						"2.5": [-0.21803, -2.50472, -2.48097]
					}
				},
				"frill7_2": {
					"rotation": {
						"0.0417": [0, 0, 5],
						"0.1667": [0, 0, -5],
						"0.3333": [0, 0, 12.5],
						"0.5833": [0, 0, 5],
						"0.6667": [0, 0, 0],
						"0.8333": [0, 0, -5],
						"1.0833": [0, 0, 12.5],
						"1.375": [0, 0, 12.5],
						"1.5": [0.43562, 2.4666, 12.51414],
						"1.6667": [-0.1085, -2.51184, -4.98336],
						"1.7917": [-0.86674, 5.02409, -2.46692],
						"2.0": [-1.50593, 2.72023, 12.38476],
						"2.1667": [0.70454, 11.20106, 5.20559],
						"2.4167": [2.03, 13.62, 10.64],
						"2.5": [2.44421, 14.70403, 12.91023]
					}
				},
				"frill8_2": {
					"rotation": {
						"0.0417": [0, 0, -5],
						"0.1667": [0, 0, 5],
						"0.3333": [0, 0, -12.5],
						"0.5833": [0, 0, -5],
						"0.6667": [0, 0, 0],
						"0.8333": [0, 0, 5],
						"1.0833": [0, 0, -12.5],
						"1.375": [0, 0, -12.5],
						"1.5": [0, 0, -12.5],
						"1.6667": [-2.2298, 1.16171, -55.03683],
						"1.7917": [-0.86674, 5.02409, -2.46692],
						"2.0": [-2.52547, -5.66366, -12.28992],
						"2.1667": [0.00614, -4.98421, -7.37296],
						"2.4167": [-3.05, -2.28, -8.13],
						"2.5": [-3.38842, -2.97424, -9.29794]
					}
				},
				"tail": {
					"rotation": {
						"0.0": [-20, 0, 0],
						"0.1667": [-34.47023, -7.34411, -0.40212],
						"0.2083": [-34.88, -9.63, 1.76],
						"0.375": [-36.50807, -18.79081, 19.10334],
						"0.4167": [-37.75581, -20.02123, 21.26938],
						"0.5": [-37.51, -15.62, 17.91],
						"0.75": [-35.26108, 24.03072, -20.43039],
						"0.875": [-40.68299, 31.01468, -24.36687],
						"0.9583": [-40.85, 23.9, -17.39],
						"1.0833": [-41.48, -2.76, 14.4],
						"1.125": [-41.69624, -11.64578, 19.2664],
						"1.2083": [-43.04, -9.05, 17.28],
						"1.3333": [-49.31, 3.04, 5.21],
						"1.4583": [-52.4488, 9.08991, 3.37215],
						"1.5417": [-50.12, 7.85, 3.88],
						"1.625": [-28.04815, 4.11972, 5.40784],
						"1.75": [-33.56, 3.73, 6.09],
						"1.9167": [-101.34, 0.08, 12.53],
						"2.0": [-113.11, -0.19, 13.01],
						"2.0833": [-107.29, -1.01, 14.46],
						"2.1667": ["-109.37+math.sin(q.anim_time*90*2)*0.5", -1.29, 14.95]
					},
					"position": [0, 1.75, 0]
				},
				"tail2": {
					"rotation": {
						"0.0": [20, 0, 0],
						"0.0833": [10.91, 6.31, 1.62],
						"0.1667": [7.8849, 9.75014, 2.15544],
						"0.2917": [-1.66944, -22.57286, -1.66944],
						"0.3333": [-1.72, -28.8, -1.84],
						"0.4583": [3.57, -34.07, -2.51],
						"0.5417": [4.6113, -34.1361, -2.68011],
						"0.7083": [11.75144, 11.35377, 0.1044],
						"0.7917": [4.77, 31.95, -2.71],
						"0.8333": [2.48373, 35.79978, -4.11035],
						"0.9167": [5.14, 26.83, -6.36],
						"1.125": [23.33, -34.68, -21.76],
						"1.2083": [26.36346, -44.93079, -24.32195],
						"1.375": [17.66, -36.11, -16.35],
						"1.4583": [0.24474, -18.47251, -0.40584],
						"1.5417": [1.51674, 6.34338, 7.83333],
						"1.6667": [30.53397, 14.55493, -8.29713],
						"1.7917": [28.6, 12.53, -7.99],
						"2.0": [9.02, 0.4, -6.16],
						"2.0833": [15.09033, -4.45403, -5.43044],
						"2.1667": [13.44582, -11.73507, -4.3361],
						"2.25": [9.45, -11.74, -4.34]
					},
					"position": [0, 0, -0.3]
				},
				"tail3": {
					"rotation": {
						"0.0": [35, 0, 0],
						"0.0833": [20.53369, 2.03563, 2.32534],
						"0.125": [13.97, 0.63, 1.1],
						"0.3333": [2.16, -25.33, -6.07],
						"0.4167": [0, -35.2, -7.5],
						"0.5833": [10.53418, -39.75859, -9.03641],
						"0.6667": [22.19125, -23.41258, -6.70716],
						"0.7917": [6.22, 44.12, -0.94],
						"0.875": [0.97436, 56.47543, 0.49611],
						"0.9583": [4.43, 52.32, -2.27],
						"1.2083": [23.12, -26.93, -21.25],
						"1.25": [32.0715, -33.10831, -24.41486],
						"1.2917": [27.55, -36.59, -19.23],
						"1.4583": [-30.52224, -35.52632, 1.50334],
						"1.5833": [-32.07848, -29.77713, 17.05426],
						"1.7083": [58.613, 10.55768, 0.0861],
						"1.8333": [53.42, 42.38, -7.18],
						"2.0": [16.696, 27.324, -1.444],
						"2.0417": [-1.86, 23.56, -0.01],
						"2.125": [15.82, -3.97, 2.86],
						"2.2083": [14.99, -8.85, 3.58],
						"2.375": [15.50839, -14.5013, 5.72511]
					}
				},
				"tail4": {
					"rotation": {
						"0.0": [25, 0, 0],
						"0.125": [22.44645, 6.13378, 12.37008],
						"0.2083": [22.53, 0.67, 11.11],
						"0.5": [23.17117, -43.05377, 1.05478],
						"0.6667": [22.99938, -51.76611, -20.98628],
						"0.7083": [20.93, -40.36, -12.46],
						"0.9167": [10.59201, 55.67065, 30.17306],
						"1.0": [11.79, 44.45, 23.48],
						"1.2083": [18.97, -22.9, -16.66],
						"1.2917": [20.01493, -32.71641, -22.51439],
						"1.375": [12.68, -32.71, -21.24],
						"1.5833": [-38.6546, -32.69569, -12.30467],
						"1.6667": [-26.49, -30.19, -8.82],
						"1.75": [10.53601, 41.80732, 31.57561],
						"1.8333": [18.96933, 27.52168, 33.95419],
						"1.9583": [22.36932, 8.12155, 23.87274],
						"2.0": [49.39944, -6.52457, -4.66659],
						"2.0833": [22.19572, 9.00521, -8.54291],
						"2.1667": [25.63808, 15.97785, -11.7252],
						"2.2917": [8.12543, 15.87193, -36.12185],
						"2.375": [5.44024, 10.19749, -52.28892]
					}
				},
				"arm_left": {
					"rotation": {
						"0.0": [0, 0, 0],
						"0.2083": [11.24159, -5.78861, 6.76768],
						"0.5": [17.77127, -4.44516, 6.76262],
						"0.5833": [13.09373, -12.32239, 9.30392],
						"0.75": [-29.82405, -24.13252, -30.42556],
						"1.0": [-31.39805, -16.81518, -17.24761],
						"1.2083": [0, 0, 0],
						"1.2917": [-27.18583, -4.09782, -19.91074],
						"1.375": [-63.33692, -34.50683, -8.63756],
						"1.625": [-83.65723, -46.63397, -22.60608],
						"1.8333": [-73.09277, -24.21816, -7.57106],
						"2.1667": [-71.58273, -18.92209, -12.35136]
					}
				},
				"hand_left": {
					"rotation": {
						"0.0": [0, 0, 0],
						"0.25": [10, -5, 15],
						"0.4167": [-12.11706, 9.01245, 2.42205],
						"0.75": [-16.53187, -2.14202, -44.82135],
						"0.875": [-18.68606, -5.26911, -60.84873],
						"1.25": [-10.4563, 6.67833, -2.91578],
						"1.375": [0, 0, 7.5],
						"1.5417": [-3.43429, -35.76365, -88.21315],
						"1.7083": [-25.81206, 8.65574, -55.49547],
						"1.875": [-17.26507, 3.86367, -67.26872],
						"2.1667": [-15.17709, -9.01037, -72.47926]
					}
				},
				"arm_right": {
					"rotation": {
						"0.0": [0, 0, 0],
						"0.2917": [11.24159, 5.78861, -6.76768],
						"0.5": [17.77127, 4.44516, -6.76262],
						"0.6667": [13.09373, 12.32239, -9.30392],
						"0.9167": [-29.82405, 24.13252, 30.42556],
						"1.125": [-28.27019, 23.32591, 12.38394],
						"1.2917": [0, 10, 0],
						"1.375": [-21.03319, 15.53131, 11.94577],
						"1.4583": [-61.33311, 36.82984, 3.77757],
						"1.75": [-82.50465, 47.23671, 17.51054],
						"1.875": [-68.21409, 26.70819, -1.02132],
						"2.1667": [-71.58273, 18.92209, 12.35136]
					}
				},
				"hand_right": {
					"rotation": {
						"0.0": [0, 0, 0],
						"0.1667": [10, 5, -15],
						"0.625": [-7.75995, -12.94773, -24.99868],
						"0.75": [-16.53187, 2.14202, 44.82135],
						"0.9583": [-17.17751, 9.13187, 72.83414],
						"1.25": [-10.4563, -6.67833, 2.91578],
						"1.375": [0, 0, -7.5],
						"1.5417": [-3.43429, 35.76365, 88.21315],
						"1.7083": [-25.81206, -8.65574, 55.49547],
						"1.875": [-17.26507, -3.86367, 67.26872],
						"2.1667": [-15.17709, 9.01037, 72.47926]
					}
				},
				"neck": {
					"rotation": {
						"0.0": [-5, 0, 0],
						"0.2083": [15, 0, 0],
						"0.5833": [-4.35, 0, 0],
						"0.75": [-12.94808, -0.56051, -2.43639],
						"0.9167": [-9.34354, -0.29808, -2.48218],
						"1.0417": [17.05363, 3.65429, -0.24619],
						"1.2917": [9.07006, 9.48172, -5.92994],
						"1.4167": [-18.35194, 3.46094, -2.51511],
						"1.5833": [-31.58127, -4.56677, 2.038],
						"1.7917": [0.65623, -3.26198, 1.45572],
						"1.9167": [11.70936, -2.28338, 1.019],
						"2.0": [8.00669, -1.63099, 0.72786],
						"2.125": [22.58377, 4.53051, 2.11751]
					}
				},
				"head": {
					"rotation": {
						"0.0": [-5, 0, 0],
						"0.25": [14.01496, -10.99877, -2.30749],
						"0.625": [3.54525, 13.44066, 1.16496],
						"0.8333": [-12.54846, 16.55525, -4.05332],
						"0.9583": [-14.33417, 16.55525, -4.05332],
						"1.0833": [-8.58182, 13.05961, -2.27452],
						"1.3333": [13.25464, 8.39876, 0.09721],
						"1.4167": [-50.77703, -7.23534, 2.69665],
						"1.5": [-66.54287, -15.05239, 3.99638],
						"1.5833": [-67.3087, -22.86944, 5.2961],
						"1.7917": [-26.06554, -20.72444, 8.14049],
						"1.9167": [-17.00817, -19.1157, 10.27378],
						"2.0": [-42.69272, -23.48916, 13.59198],
						"2.125": [-54.40409, -34.42283, 21.88748]
					}
				},
				"jaw": {
					"rotation": {
						"0.0": [0, 0, 0],
						"0.3333": [0, 0, 0],
						"0.375": [-2.5, 0, 0],
						"0.5": [55, 0, 0],
						"0.625": [55, 0, 0],
						"0.8333": [55, 0, 0],
						"1.4583": [0, 0, 0]
					}
				},
				"eyelid_right": {
					"position": {
						"0.0": [0, 0, 0],
						"0.0833": {"pre": [0, 0, 0], "post": [-0.1, 0, 0]},
						"0.375": {"pre": [-0.1, 0, 0], "post": [0, 0, 0]},
						"0.5417": {"pre": [0, 0, 0], "post": [-0.1, 0, 0]},
						"0.75": {"pre": [-0.1, 0, 0], "post": [0, 0, 0]},
						"1.25": {"pre": [0, 0, 0], "post": [-0.1, 0, 0]},
						"2.1667": {"pre": [-0.1, 0, 0], "post": [-0.1, 0, 0]}
					}
				},
				"eyelid_left": {
					"position": {
						"0.0": [0, 0, 0],
						"0.0833": {"pre": [0, 0, 0], "post": [0.1, 0, 0]},
						"0.375": {"pre": [0.1, 0, 0], "post": [0, 0, 0]},
						"0.5417": {"pre": [0, 0, 0], "post": [0.1, 0, 0]},
						"0.75": {"pre": [0.1, 0, 0], "post": [0, 0, 0]},
						"1.25": {"pre": [0, 0, 0], "post": [0.1, 0, 0]},
						"2.1667": {"pre": [0.1, 0, 0], "post": [0.1, 0, 0]}
					}
				},
				"leg_left": {
					"rotation": {
						"0.0": [0, -12.5, 0],
						"0.125": [18.9, -17.5, -0.8],
						"0.25": [23.27393, -30.08083, -11.87898],
						"0.375": [19.07393, -30.08083, -13.07898],
						"0.4583": [7.65, -29.58, -11.57],
						"0.625": [-20.07559, -27.07289, -6.15241],
						"0.8333": [-20.47559, -27.07289, -5.25241],
						"1.0417": [-31.06, -27.07, -5.95],
						"1.25": [-61.95716, -12.59687, -10.54131],
						"1.3333": [-37.65, -10.05, -12.17],
						"1.4167": [30.24517, -12.9218, -23.22618],
						"1.5": [34.22496, -5.79477, -12.8228],
						"1.625": [34.96856, -0.12335, -11.52129],
						"1.875": [-14.29, -10.73, -1.65],
						"1.9583": [-22.5, -12.5, 0],
						"2.0417": [-19.4, -12.5, 0]
					},
					"position": {
						"0.0": [0, 0, 0],
						"0.125": [0, 1.5, 0],
						"0.25": [0, 0.25, 0],
						"0.375": [0, 0, 0],
						"0.5": [0, 0.37, 0],
						"0.625": [0, 0.25, 0],
						"0.8333": [0, 0.25, 0],
						"0.9583": [0, 0.29, 0.25],
						"1.0417": [0, 0.4, -1.4],
						"1.25": [0, 0.84, -0.04],
						"1.375": [0, 0, 0]
					}
				},
				"leg_left2": {
					"rotation": {
						"0.0": [0, 0, 0],
						"0.125": [-30, 0, 0],
						"0.25": [-7.02395, -0.96401, 9.9539],
						"0.625": [-4.38088, -1.2199, 2.45689],
						"0.8333": [-4.38088, -1.2199, 2.45689],
						"1.0417": [11.96, -0.9, 2.38],
						"1.25": [-29.73419, 0.67786, 9.5241],
						"1.3333": [-18.72067, 1.04337, 8.79025],
						"1.4167": [24.65088, -8.54556, -5.43572],
						"1.625": [35.13602, 2.5054, 5.85485],
						"1.9583": [10.04624, 4.88119, 1.08482]
					},
					"position": {
						"0.25": [0, 0, 0],
						"0.375": [0, -0.5, 0],
						"0.625": [0, 0, 0],
						"0.8333": [0, 0, 0],
						"1.0417": [0, 0.23, 0],
						"1.25": [0, 0.6, 0.3],
						"1.3333": [0, -0.3, 0.3]
					}
				},
				"foot_left": {
					"rotation": {
						"0.0": [0, 0, 0],
						"0.125": [40, 0, 0],
						"0.25": [17.59, 0, 0],
						"0.375": [0, 0, 0],
						"0.625": [27.59, 0, 0],
						"0.8333": [27.59, 0, 0],
						"1.0417": [33.61402, -1.4741, 2.01939],
						"1.25": [71.4, 0, 0],
						"1.2917": [44.82, 0, 0],
						"1.3333": [33.25, 0, 0],
						"1.375": [-11.82, 0, 0],
						"1.4167": [68.11, 0, 0],
						"1.5": [75.71, 0, 0],
						"1.625": [89.37, 0, 0],
						"1.9583": [70, 0, 0]
					},
					"position": {
						"0.625": [0, -0.25, 0],
						"0.8333": [0, -0.25, 0],
						"0.9583": [0, -0.5, 0],
						"1.0417": [0, -0.05, 0]
					}
				},
				"foot_left2": {
					"rotation": {
						"0.0": [0, 0, 0],
						"0.125": [30, 0, 0],
						"0.25": [-18.06, 0, 0],
						"0.375": [0, 0, 0],
						"0.625": [0, 0, 0],
						"0.8333": [0, 0, 0],
						"1.0417": [-1.42, 0, 0],
						"1.25": [58.96386, 0.42202, -0.02863],
						"1.3333": [-12.73, 0, 0],
						"1.4167": [-19.96, 0, 0],
						"1.5": [25.96, 0, 0],
						"1.625": [42.94, 0, 0],
						"1.9583": [45, 0, 0]
					}
				},
				"leg_right": {
					"rotation": {
						"0.0": [0, 12.5, 0],
						"0.25": [-23.70762, 11.54497, -1.79668],
						"0.375": [-35.32088, 11.21006, -1.56176],
						"0.4583": [-45, 12.5, 0],
						"0.5417": [-49.82976, 16.52851, 3.13192],
						"0.75": [-21.98928, 24.58553, 9.39575],
						"0.875": [16.49, 27.92, 11.38],
						"1.25": [17.51711, 29.32366, 16.43701],
						"1.3333": [33.86495, 19.7052, 19.06354],
						"1.4583": [45.22862, 14.69709, 11.30602],
						"1.625": [52.41496, 4.34804, 4.37717],
						"1.75": [31.22737, 0.12987, 20.53954],
						"1.875": [53.99886, 1.15885, 14.89304],
						"2.0417": [-28.49606, 13.37475, 11.42574],
						"2.125": [-25.49606, 13.37475, 11.42574]
					},
					"position": {
						"0.0": [0, 0, 0],
						"0.375": [0, 0.05, 0],
						"0.4583": [0, 0.55, 0],
						"0.5417": [0, 0.8, 0.25],
						"0.75": [0, 0.8, 0.55],
						"0.875": [0, 0.3, 0.55],
						"1.0833": [0, 0.88, 1.28],
						"1.25": [0, -0.04, 2],
						"1.3333": [0, 0.75, 0.95],
						"2.0417": [0, 0.25, 0.2]
					}
				},
				"leg_right2": {
					"rotation": {
						"0.0": [0, 0, 0],
						"0.25": [6.65432, 0.47771, -2.96176],
						"0.375": [9.93366, 1.29638, -5.85878],
						"0.4583": [0, 0, 0],
						"0.5417": [-15.83, 0, 0],
						"0.75": [-44, 0, 0],
						"0.875": [-24.23, 2.21, -4.93],
						"1.25": [-9.48595, 19.87855, -13.62644],
						"1.2917": [-32.92005, 13.75147, -13.90738],
						"1.3333": [-43.85416, 7.62438, -14.18831],
						"1.4583": [-32.17274, 5.42082, -10.48482],
						"1.625": [6.73581, 2.48274, -5.54683],
						"1.875": [26.02296, 4.61404, -2.57615],
						"2.0417": [7.31179, 9.23186, 3.86032],
						"2.125": [-0.18821, 9.23186, 3.86032],
						"2.25": [2.31179, 9.23186, 3.86032]
					},
					"position": {
						"0.0": [0, 0, 0],
						"0.125": [0, 0.75, 0],
						"0.375": [0, 0.5, 0],
						"0.5417": [0, -0.25, 0],
						"0.75": [0, -0.75, 0],
						"0.875": [0, -0.35, 0],
						"1.25": [0, 0.3, 0.25],
						"1.3333": [0, -0.4, 0],
						"1.625": [0, 0.55, 0.2]
					}
				},
				"foot_right": {
					"rotation": {
						"0.0": [0, 0, 0],
						"0.25": [16.59902, -1.63973, 4.72413],
						"0.375": [24.77115, -3.68454, 7.1059],
						"0.4583": [54.88842, -0.60365, 0.41323],
						"0.5417": [62.44421, -0.30182, 0.20662],
						"0.75": [35, 0, 0],
						"0.875": [35.33541, 2.14403, -4.51804],
						"1.25": [40.11791, 12.92318, 3.82592],
						"1.3333": [51.76915, 15.03753, -8.60426],
						"1.4583": [31.29264, 12.47858, -6.73228],
						"1.625": [62.32396, 9.06663, -4.2363],
						"1.75": [79.92395, 4.06305, -0.0979],
						"1.875": [87.402, -4.67756, 2.93473],
						"2.0417": [118.5214, -16.97585, 10.65076],
						"2.125": [95.5214, -16.97585, 10.65076],
						"2.25": [98.0214, -16.97585, 10.65076]
					},
					"position": [0, -0.5, 0]
				},
				"foot_right2": {
					"rotation": {
						"0.0": [0, 0, 0],
						"0.375": [0, 0, 0],
						"0.4583": [10, 0, 0],
						"0.75": [38.75, 0, 0],
						"0.875": [-17.22, 0, 0],
						"1.25": [-20.88, 0, 0],
						"1.3333": [22.85, 0, 0],
						"1.4583": [-26.77, 0, 0],
						"1.625": [-17.93, 0, 0],
						"1.75": [20.91, 0, 0],
						"1.875": [42.9, 0, 0],
						"2.0417": [40, 0, 0],
						"2.125": [10, 0, 0],
						"2.25": [25, 0, 0]
					}
				}
			}
		},
		"animation.breloom.battle_faint": {
			"loop": true,
			"animation_length": 3,
			"bones": {
				"body": {
					"rotation": {
						"0.0": [0, -30, 0],
						"1.25": [0, 0, 0],
						"1.3333": [14.72, 0, 0],
						"1.5": [103.06, 0, 0],
						"1.5833": [118.06, 0, 0],
						"1.7917": [77.5, 0, 0],
						"1.9167": [67.5, 0, 0],
						"2.0417": [77.5, 0, 0],
						"2.1667": [77.5, 0, 0]
					},
					"position": {
						"0.0": [0, 1.3, 0],
						"0.125": [0.2, -0.38, 1.63],
						"0.25": [0.5, -0.13, 3.25],
						"0.375": [0, -0.13, 4.06],
						"0.625": [-0.8, -0.13, "4.25+3.25"],
						"0.8333": [-0.8, -0.13, "4.25+3.25"],
						"1.0": [-0.8, -0.33, 7.29],
						"1.0833": [-0.8, -0.73, 7.85],
						"1.2917": [-0.33, 0.87, 6.17],
						"1.4167": [-0.08, -3.25, -3.06],
						"1.5": [-0.03, -3.71, -6.35],
						"1.5833": [-0.03, -2.96, -7.6],
						"1.7917": [0, -4.25, -4.75],
						"1.9167": [0, -4, -4.05],
						"2.0417": [0, -4.25, -4.75]
					}
				},
				"torso": {
					"rotation": {
						"0.0": ["15.5+math.sin(q.anim_time*90*2)*-1", "0+math.sin(q.anim_time*90*2-30)*2", 0],
						"0.0833": [14.71, 0.84, -3.65],
						"0.125": [16.9522, 1.1234, -4.87248],
						"0.2083": [16.23, 0.95, -4.03],
						"0.375": [11.99, -0.06, 0.86],
						"0.4583": [11.13729, -0.25824, 1.83812],
						"0.5417": [9, 0.68, 3.6],
						"0.625": [2.59443, 3.48603, 8.88336],
						"0.7083": [0.93, 3.27, 8.33],
						"1.0417": [11.26686, 14.0963, -2.13522],
						"1.125": [14.88976, 8.93574, 6.15014],
						"1.375": [-14.24678, 5.57127, 0.42975],
						"1.5": [8.01482, -1.98048, -2.8588],
						"1.7083": [8.07483, -4.51072, -2.64488],
						"1.8333": [8.08161, -2.55408, -1.93727],
						"2.2917": ["8+math.sin(q.anim_time*90*2)*-0.2", 0, 0]
					},
					"position": {
						"0.0": [0, "math.sin(q.anim_time*90*4+20)*0.3", 0],
						"0.125": [0, 0.5, 0],
						"0.625": [0, 0.75, 0],
						"0.875": [0, 0.75, 0],
						"1.125": [0, 0.85, 0],
						"1.375": [0, 0.75, 0],
						"2.125": [0, 0.75, "math.sin(q.anim_time*90*2)*0.1"]
					}
				},
				"tail": {
					"rotation": {
						"0.0": ["-15+math.sin(q.anim_time*90*4-30)*2", "(math.sin(q.anim_time*90*3)*2)+4*(math.sin(q.anim_time*90*3/2)*2)", 0],
						"0.0833": [-24.78437, 4.30324, -3.3407],
						"0.1667": [-34.47023, -7.34411, -0.40212],
						"0.2083": [-34.88, -9.63, 1.76],
						"0.375": [-36.50807, -18.79081, 19.10334],
						"0.4167": [-37.75581, -20.02123, 21.26938],
						"0.5": [-37.51, -15.62, 17.91],
						"0.75": [-35.26108, 24.03072, -20.43039],
						"0.875": [-40.68299, 31.01468, -24.36687],
						"0.9583": [-40.85, 23.9, -17.39],
						"1.0833": [-41.48, -2.76, 14.4],
						"1.125": [-41.69624, -11.64578, 19.2664],
						"1.2083": [-43.04, -9.05, 17.28],
						"1.3333": [-49.31, 3.04, 5.21],
						"1.4583": [-52.4488, 9.08991, 3.37215],
						"1.5417": [-50.12, 7.85, 3.88],
						"1.625": [-28.04815, 4.11972, 5.40784],
						"1.75": [-33.56, 3.73, 6.09],
						"1.9167": [-101.34, 0.08, 12.53],
						"2.0": [-113.11, -0.19, 13.01],
						"2.0833": [-107.29, -1.01, 14.46],
						"2.1667": ["-109.37+math.sin(q.anim_time*90*2)*0.5", -1.29, 14.95]
					},
					"position": [0, 1.75, 0]
				},
				"tail2": {
					"rotation": {
						"0.0": ["35+math.sin(q.anim_time*90*4-60)*2", "6*(math.sin(q.anim_time*90*3-90)*2)+6*(math.sin(q.anim_time*90*3/2-90)*2)", 0],
						"0.125": [17.39957, 9.74153, 7.06439],
						"0.2917": [-1.66944, -22.57286, -1.66944],
						"0.3333": [-1.72, -28.8, -1.84],
						"0.4583": [3.57, -34.07, -2.51],
						"0.5417": [4.6113, -34.1361, -2.68011],
						"0.7083": [11.75144, 11.35377, 0.1044],
						"0.7917": [4.77, 31.95, -2.71],
						"0.8333": [2.48373, 35.79978, -4.11035],
						"0.9167": [5.14, 26.83, -6.36],
						"1.125": [23.33, -34.68, -21.76],
						"1.2083": [26.36346, -44.93079, -24.32195],
						"1.375": [17.66, -36.11, -16.35],
						"1.4583": [0.24474, -18.47251, -0.40584],
						"1.5417": [1.51674, 6.34338, 7.83333],
						"1.6667": [30.53397, 14.55493, -8.29713],
						"1.7917": [28.6, 12.53, -7.99],
						"2.0": [9.02, 0.4, -6.16],
						"2.0833": [15.09033, -4.45403, -5.43044],
						"2.1667": [13.44582, -11.73507, -4.3361],
						"2.25": [9.45, -11.74, -4.34]
					},
					"position": [0, 0, -0.3]
				},
				"tail3": {
					"rotation": {
						"0.0": ["40+math.sin(q.anim_time*90*4-90)*4", "6*(math.sin(q.anim_time*90*3-100)*2)+6*(math.sin(q.anim_time*90*3/2-100)*2)", 0],
						"0.1667": [15.61621, 26.93655, 3.14151],
						"0.3333": [2.16, -25.33, -6.07],
						"0.4167": [0, -35.2, -7.5],
						"0.5833": [10.53418, -39.75859, -9.03641],
						"0.6667": [22.19125, -23.41258, -6.70716],
						"0.7917": [6.22, 44.12, -0.94],
						"0.875": [0.97436, 56.47543, 0.49611],
						"0.9583": [4.43, 52.32, -2.27],
						"1.2083": [23.12, -26.93, -21.25],
						"1.25": [32.0715, -33.10831, -24.41486],
						"1.2917": [27.55, -36.59, -19.23],
						"1.4583": [-30.52224, -35.52632, 1.50334],
						"1.5833": [-32.07848, -29.77713, 17.05426],
						"1.7083": [58.34411, 12.68888, -1.24823],
						"1.8333": [53.42, 42.38, -7.18],
						"2.0": [16.696, 27.324, -1.444],
						"2.0417": [-1.86, 23.56, -0.01],
						"2.125": [15.82, -3.97, 2.86],
						"2.2083": [14.99, -8.85, 3.58],
						"2.375": [15.50839, -14.5013, 5.72511]
					}
				},
				"tail4": {
					"rotation": {
						"0.0": ["30+math.sin(q.anim_time*90*4-120)*6", "6*(math.sin(q.anim_time*90*3-150)*2)+6*(math.sin(q.anim_time*90*3/2-150)*2)", 0],
						"0.1667": [24.76384, 18.62286, 3.2632],
						"0.5": [23.17117, -43.05377, 1.05478],
						"0.6667": [22.99938, -51.76611, -20.98628],
						"0.7083": [20.93, -40.36, -12.46],
						"0.9167": [10.59201, 55.67065, 30.17306],
						"1.0": [11.79, 44.45, 23.48],
						"1.2083": [18.97, -22.9, -16.66],
						"1.2917": [20.01493, -32.71641, -22.51439],
						"1.375": [12.68, -32.71, -21.24],
						"1.5833": [-38.6546, -32.69569, -12.30467],
						"1.6667": [-26.49, -30.19, -8.82],
						"1.75": [10.53601, 41.80732, 31.57561],
						"1.8333": [18.96933, 27.52168, 33.95419],
						"1.9583": [22.36932, 8.12155, 23.87274],
						"2.0": [49.39944, -6.52457, -4.66659],
						"2.0833": [22.19572, 9.00521, -8.54291],
						"2.1667": [25.63808, 15.97785, -11.7252],
						"2.2917": [8.12543, 15.87193, -36.12185],
						"2.375": [5.44024, 10.19749, -52.28892]
					}
				},
				"arm_left": {
					"rotation": {
						"0.0": [0, -7.5, "math.sin(q.anim_time*90*4-90)*-3"],
						"0.2083": [11.24159, -5.78861, 6.76768],
						"0.5": [17.77127, -4.44516, 6.76262],
						"0.5833": [13.09373, -12.32239, 9.30392],
						"0.75": [-29.82405, -24.13252, -30.42556],
						"1.0": [-31.39805, -16.81518, -17.24761],
						"1.2083": [0, 0, 0],
						"1.2917": [-27.18583, -4.09782, -19.91074],
						"1.375": [-63.33692, -34.50683, -8.63756],
						"1.625": [-83.65723, -46.63397, -22.60608],
						"1.8333": [-73.09277, -24.21816, -7.57106],
						"2.1667": [-71.58273, -18.92209, -12.35136]
					}
				},
				"hand_left": {
					"rotation": {
						"0.0": [0, "math.sin(q.anim_time*90*4-90)*-2", "-20+math.sin(q.anim_time*90*4-90)*-2"],
						"0.25": [10, -5, 15],
						"0.4167": [-12.11706, 9.01245, 2.42205],
						"0.75": [-16.53187, -2.14202, -44.82135],
						"0.875": [-18.68606, -5.26911, -60.84873],
						"1.25": [-10.4563, 6.67833, -2.91578],
						"1.375": [0, 0, 7.5],
						"1.5417": [-3.43429, -35.76365, -88.21315],
						"1.7083": [-25.81206, 8.65574, -55.49547],
						"1.875": [-17.26507, 3.86367, -67.26872],
						"2.1667": [-15.17709, -9.01037, -72.47926]
					}
				},
				"arm_right": {
					"rotation": {
						"0.0": [0, 12.5, "0+math.sin(q.anim_time*90*4-90)*3"],
						"0.2917": [11.24159, 5.78861, -6.76768],
						"0.5": [17.77127, 4.44516, -6.76262],
						"0.6667": [13.09373, 12.32239, -9.30392],
						"0.9167": [-29.82405, 24.13252, 30.42556],
						"1.125": [-28.27019, 23.32591, 12.38394],
						"1.2917": [0, 10, 0],
						"1.375": [-21.03319, 15.53131, 11.94577],
						"1.4583": [-61.33311, 36.82984, 3.77757],
						"1.75": [-82.50465, 47.23671, 17.51054],
						"1.875": [-68.21409, 26.70819, -1.02132],
						"2.1667": [-71.58273, 18.92209, 12.35136]
					},
					"position": [-0.3, 0, 0]
				},
				"hand_right": {
					"rotation": {
						"0.0": [0, "math.sin(q.anim_time*90*4-90)*2", "math.sin(q.anim_time*90*4-90)*2"],
						"0.1667": [10, 5, -15],
						"0.625": [-7.75995, -12.94773, -24.99868],
						"0.75": [-16.53187, 2.14202, 44.82135],
						"0.9583": [-17.17751, 9.13187, 72.83414],
						"1.25": [-10.4563, -6.67833, 2.91578],
						"1.375": [0, 0, -7.5],
						"1.5417": [-3.43429, 35.76365, 88.21315],
						"1.7083": [-25.81206, -8.65574, 55.49547],
						"1.875": [-17.26507, -3.86367, 67.26872],
						"2.1667": [-15.17709, 9.01037, 72.47926]
					}
				},
				"neck": {
					"rotation": {
						"0.0": ["-5.0152+math.sin(q.anim_time*90*4-30)*-2", 4.98779, -0.34967],
						"0.2083": [15, 0, 0],
						"0.5833": [-4.35, 0, 0],
						"0.75": [-12.94808, -0.56051, -2.43639],
						"0.9167": [-9.34354, -0.29808, -2.48218],
						"1.0417": [17.05363, 3.65429, -0.24619],
						"1.2917": [9.07006, 9.48172, -5.92994],
						"1.4167": [-18.35194, 3.46094, -2.51511],
						"1.5833": [-31.58127, -4.56677, 2.038],
						"1.7917": [0.65623, -3.26198, 1.45572],
						"1.9167": [11.70936, -2.28338, 1.019],
						"2.0": [8.00669, -1.63099, 0.72786],
						"2.125": [22.58377, 4.53051, 2.11751]
					}
				},
				"head": {
					"rotation": {
						"0.0": ["9.855+math.sin(q.anim_time*90*4-50)*4", 17.39956, -1.51092],
						"0.25": [14.01496, -10.99877, -2.30749],
						"0.625": [3.54525, 13.44066, 1.16496],
						"0.8333": [-12.54846, 16.55525, -4.05332],
						"0.9583": [-14.33417, 16.55525, -4.05332],
						"1.0833": [-8.58182, 13.05961, -2.27452],
						"1.3333": [13.25464, 8.39876, 0.09721],
						"1.4167": [-50.77703, -7.23534, 2.69665],
						"1.5": [-66.54287, -15.05239, 3.99638],
						"1.5833": [-67.3087, -22.86944, 5.2961],
						"1.7917": [-26.06554, -20.72444, 8.14049],
						"1.9167": [-17.00817, -19.1157, 10.27378],
						"2.0": [-42.69272, -23.48916, 13.59198],
						"2.125": [-54.40409, -34.42283, 21.88748]
					}
				},
				"jaw": {
					"rotation": {
						"0.0": [0, 0, 0],
						"0.3333": [0, 0, 0],
						"0.375": [-2.5, 0, 0],
						"0.5": [55, 0, 0],
						"0.625": [55, 0, 0],
						"0.8333": [55, 0, 0],
						"1.4583": [0, 0, 0]
					}
				},
				"eyelid_right": {
					"position": {
						"0.0": [0, 0, 0],
						"0.0833": {"pre": [0, 0, 0], "post": [-0.1, 0, 0]},
						"0.375": {"pre": [-0.1, 0, 0], "post": [0, 0, 0]},
						"0.5417": {"pre": [0, 0, 0], "post": [-0.1, 0, 0]},
						"0.75": {"pre": [-0.1, 0, 0], "post": [0, 0, 0]},
						"1.25": {"pre": [0, 0, 0], "post": [-0.1, 0, 0]},
						"2.1667": {"pre": [-0.1, 0, 0], "post": [-0.1, 0, 0]}
					}
				},
				"eyelid_left": {
					"position": {
						"0.0": [0, 0, 0],
						"0.0833": {"pre": [0, 0, 0], "post": [0.1, 0, 0]},
						"0.375": {"pre": [0.1, 0, 0], "post": [0, 0, 0]},
						"0.5417": {"pre": [0, 0, 0], "post": [0.1, 0, 0]},
						"0.75": {"pre": [0.1, 0, 0], "post": [0, 0, 0]},
						"1.25": {"pre": [0, 0, 0], "post": [0.1, 0, 0]},
						"2.1667": {"pre": [0.1, 0, 0], "post": [0.1, 0, 0]}
					}
				},
				"leg_left": {
					"rotation": {
						"0.0": ["math.sin(q.anim_time*90*4)*5", -27.5, 0],
						"0.125": [18.9, -17.5, -0.8],
						"0.25": [23.27393, -30.08083, -11.87898],
						"0.375": [19.07393, -30.08083, -13.07898],
						"0.4583": [7.65, -29.58, -11.57],
						"0.625": [-20.07559, -27.07289, -6.15241],
						"0.8333": [-20.47559, -27.07289, -5.25241],
						"1.0417": [-31.06, -27.07, -5.95],
						"1.25": [-61.95716, -12.59687, -10.54131],
						"1.3333": [-37.65, -10.05, -12.17],
						"1.4167": [30.24517, -12.9218, -23.22618],
						"1.5": [34.22496, -5.79477, -12.8228],
						"1.625": [34.96856, -0.12335, -11.52129],
						"1.875": [-14.29, -10.73, -1.65],
						"1.9583": [-22.5, -12.5, 0],
						"2.0417": [-19.4, -12.5, 0]
					},
					"position": {
						"0.0": [0.8, "math.sin(q.anim_time*90*4)*-0.1", 0],
						"0.125": [0, 1.5, 0],
						"0.25": [0, 0.25, 0],
						"0.375": [0, 0, 0],
						"0.5": [0, 0.37, 0],
						"0.625": [0, 0.25, 0],
						"0.8333": [0, 0.25, 0],
						"0.9583": [0, 0.29, 0.25],
						"1.0417": [0, 0.4, -1.4],
						"1.25": [0, 0.84, -0.04],
						"1.375": [0, 0, 0]
					}
				},
				"leg_left2": {
					"rotation": {
						"0.0": ["math.sin(q.anim_time*90*4)*-8", -5, 0],
						"0.125": [-30, 0, 0],
						"0.25": [-7.02395, -0.96401, 9.9539],
						"0.625": [-4.38088, -1.2199, 2.45689],
						"0.8333": [-4.38088, -1.2199, 2.45689],
						"1.0417": [-0.54, -0.9, 2.38],
						"1.25": [-29.73419, 0.67786, 9.5241],
						"1.3333": [-18.72067, 1.04337, 8.79025],
						"1.4167": [24.65088, -8.54556, -5.43572],
						"1.625": [35.13602, 2.5054, 5.85485],
						"1.9583": [10.04624, 4.88119, 1.08482]
					},
					"position": {
						"0.0": [0, "math.sin(q.anim_time*90*4)*-0.1", "math.sin(q.anim_time*90*4)*-0.2"],
						"0.25": [0, 0, 0],
						"0.375": [0, -0.5, 0],
						"0.625": [0, 0, 0],
						"0.8333": [0, 0, 0],
						"1.0417": [0, 0.23, 0],
						"1.25": [0, 0.6, 0.3],
						"1.3333": [0, -0.3, 0.3]
					}
				},
				"foot_left": {
					"rotation": {
						"0.0": ["30+math.sin(q.anim_time*90*4)*3", 0, 0],
						"0.125": [40, 0, 0],
						"0.25": [17.59, 0, 0],
						"0.375": [0, 0, 0],
						"0.625": [27.59, 0, 0],
						"0.8333": [27.59, 0, 0],
						"1.0417": [33.61402, -1.4741, 2.01939],
						"1.25": [71.4, 0, 0],
						"1.2917": [44.82, 0, 0],
						"1.3333": [33.25, 0, 0],
						"1.375": [-11.82, 0, 0],
						"1.4167": [68.11, 0, 0],
						"1.5": [75.71, 0, 0],
						"1.625": [89.37, 0, 0],
						"1.9583": [70, 0, 0]
					},
					"position": {
						"0.625": [0, -0.25, 0],
						"0.8333": [0, -0.25, 0],
						"0.9583": [0, -0.5, 0],
						"1.0417": [0, -0.05, 0]
					}
				},
				"foot_left2": {
					"rotation": {
						"0.0": ["-30+math.sin(q.anim_time*90*4)*-2", 0, 0],
						"0.125": [30, 0, 0],
						"0.25": [-18.06, 0, 0],
						"0.375": [0, 0, 0],
						"0.625": [0, 0, 0],
						"0.8333": [0, 0, 0],
						"1.0417": [-1.42, 0, 0],
						"1.25": [58.96386, 0.42202, -0.02863],
						"1.3333": [-12.73, 0, 0],
						"1.4167": [-19.96, 0, 0],
						"1.5": [25.96, 0, 0],
						"1.625": [42.94, 0, 0],
						"1.9583": [45, 0, 0]
					},
					"position": {
						"0.0": [0, -0.4, 0.6],
						"0.125": [0, -0.15, 0.1]
					}
				},
				"leg_right": {
					"rotation": {
						"0.0": ["math.sin(q.anim_time*90*4)*5", 17.5, 0.9],
						"0.25": [-19.24373, 35.03441, 6.63897],
						"0.375": [-20.52901, 28.39725, 3.78381],
						"0.4583": [-45, 12.5, 0],
						"0.5417": [-49.82976, 16.52851, 3.13192],
						"0.75": [-21.98928, 24.58553, 9.39575],
						"0.875": [16.49, 27.92, 11.38],
						"1.25": [17.51711, 29.32366, 16.43701],
						"1.3333": [33.86495, 19.7052, 19.06354],
						"1.4583": [45.22862, 14.69709, 11.30602],
						"1.625": [52.41496, 4.34804, 4.37717],
						"1.75": [31.22737, 0.12987, 20.53954],
						"1.875": [53.99886, 1.15885, 14.89304],
						"2.0417": [-28.49606, 13.37475, 11.42574],
						"2.125": [-25.49606, 13.37475, 11.42574]
					},
					"position": {
						"0.0": [-0.8, "math.sin(q.anim_time*90*4)*-0.1", 0],
						"0.25": [-0.27, 0, -0.75],
						"0.375": [-0.27, 0, -1],
						"0.4583": [0, 0.55, 0],
						"0.5417": [0, 0.8, 0.25],
						"0.75": [0, 0.8, 0.55],
						"0.875": [0, 0.3, 0.55],
						"1.0833": [0, 0.88, 1.28],
						"1.25": [0, -0.04, 2],
						"1.3333": [0, 0.75, 0.95],
						"2.0417": [0, 0.25, 0.2]
					}
				},
				"leg_right2": {
					"rotation": {
						"0.0": ["math.sin(q.anim_time*90*4)*-8", 5, 0],
						"0.25": [-8.34568, 0.47771, -2.96176],
						"0.375": [-13.34568, 0.47771, -2.96176],
						"0.4583": [0, 0, 0],
						"0.5417": [-15.83, 0, 0],
						"0.75": [-44, 0, 0],
						"0.875": [-24.23, 2.21, -4.93],
						"1.25": [-9.48595, 19.87855, -13.62644],
						"1.2917": [-32.92005, 13.75147, -13.90738],
						"1.3333": [-43.85416, 7.62438, -14.18831],
						"1.4583": [-32.17274, 5.42082, -10.48482],
						"1.625": [6.73581, 2.48274, -5.54683],
						"1.875": [26.02296, 4.61404, -2.57615],
						"2.0417": [7.31179, 9.23186, 3.86032],
						"2.125": [-0.18821, 9.23186, 3.86032],
						"2.25": [2.31179, 9.23186, 3.86032]
					},
					"position": {
						"0.0": [0, "math.sin(q.anim_time*90*4)*0.3", "math.sin(q.anim_time*90*4)*-0.2"],
						"0.125": [0, 0.75, 0],
						"0.25": [0, 0.38, 0],
						"0.375": [0, 0.18, 0],
						"0.5417": [0, -0.25, 0],
						"0.75": [0, -0.75, 0],
						"0.875": [0, -0.35, 0],
						"1.25": [0, 0.3, 0.25],
						"1.3333": [0, -0.4, 0],
						"1.625": [0, 0.55, 0.2]
					}
				},
				"foot_right": {
					"rotation": {
						"0.0": ["30+math.sin(q.anim_time*90*4)*3", 0, 0],
						"0.125": [14.36875, 0.58262, 0.29229],
						"0.25": [31.61618, 1.16524, 0.58458],
						"0.375": [36.61618, 1.16524, 0.58458],
						"0.4583": [54.88842, -0.60365, 0.41323],
						"0.5417": [62.44421, -0.30182, 0.20662],
						"0.75": [35, 0, 0],
						"0.875": [35.33541, 2.14403, -4.51804],
						"1.25": [40.11791, 12.92318, 3.82592],
						"1.3333": [51.76915, 15.03753, -8.60426],
						"1.4583": [31.29264, 12.47858, -6.73228],
						"1.625": [62.32396, 9.06663, -4.2363],
						"1.75": [79.92395, 4.06305, -0.0979],
						"1.875": [87.402, -4.67756, 2.93473],
						"2.0417": [118.5214, -16.97585, 10.65076],
						"2.125": [95.5214, -16.97585, 10.65076],
						"2.25": [98.0214, -16.97585, 10.65076]
					},
					"position": [0, -0.5, 0]
				},
				"foot_right2": {
					"rotation": {
						"0.0": ["-30+math.sin(q.anim_time*90*4)*-2", 0, 0],
						"0.125": [2.56, 0, 0],
						"0.375": [0, 0, 0],
						"0.4583": [10, 0, 0],
						"0.75": [38.75, 0, 0],
						"0.875": [-17.22, 0, 0],
						"1.25": [-20.88, 0, 0],
						"1.3333": [22.85, 0, 0],
						"1.4583": [-26.77, 0, 0],
						"1.625": [-17.93, 0, 0],
						"1.75": [20.91, 0, 0],
						"1.875": [42.9, 0, 0],
						"2.0417": [40, 0, 0],
						"2.125": [10, 0, 0],
						"2.25": [25, 0, 0]
					},
					"position": {
						"0.0": [0, -0.4, 0.6],
						"0.125": [0, -0.15, 0.1]
					}
				},
				"frill": {
					"rotation": {
						"0.0417": [0, 0, 0],
						"0.1667": [-2.5, 0, 0],
						"0.3333": [12.5, 0, 0],
						"0.5417": [0, 0, 0],
						"0.625": [-2.5, 0, 0],
						"0.7917": [-10, 0, 0],
						"1.0417": [7.31, 0, 0],
						"1.2917": [17.22734, 3.84946, 3.19327],
						"1.4167": [22.80723, -8.86214, -8.85094],
						"1.7083": [22.80723, -8.86214, -8.85094],
						"1.9583": [-1.51546, -1.47702, -1.47516],
						"2.2917": [12.5, 0, 0]
					}
				},
				"frill2": {
					"rotation": {
						"0.0417": [-20, 0, 0],
						"0.1667": [-12.5, 0, 0],
						"0.3333": [-30, 0, 0],
						"0.5833": [-27.5, 0, 0],
						"0.6667": [-12.5, 0, 0],
						"0.8333": [5, 0, 0],
						"1.0833": [-20, 0, 0],
						"1.375": [-30, 0, 0],
						"1.5": [-30.21589, -0.92591, -2.73957],
						"1.6667": [-52.56643, -3.1934, -4.48567],
						"1.7917": [-12.19277, -8.86214, -8.85094],
						"2.0": [-31.51546, -1.47702, -1.47516],
						"2.1667": [-15.5116, -1.10777, -1.10637],
						"2.4167": [-20.69, -0.14, -0.14],
						"2.5": [-22.5, 0, 0]
					}
				},
				"frill3": {
					"rotation": {
						"0.0417": [0, 0, 12.5],
						"0.1667": [0, 0, 5],
						"0.3333": [0, 0, 22.5],
						"0.5833": [0, 0, 10],
						"0.6667": [0, 0, 2.5],
						"0.8333": [-5, 0, -2.5],
						"1.0833": [-17.34557, 0.13682, 5.4023],
						"1.375": [0, 0, 17.5],
						"1.5": [0, -10, 7.5],
						"1.6667": [-17.5, -8.5714, 7.5],
						"1.7917": [0, -12.5, 7.5],
						"2.0": [0, 7.5, 7.5],
						"2.1667": [0, 2.5, 7.5],
						"2.4167": [0, 10.31, 7.5],
						"2.5": [0, 12.5, 7.5]
					}
				},
				"frill4": {
					"rotation": {
						"0.0417": [0, 0, -12.5],
						"0.1667": [0, 0, -5],
						"0.3333": [0, 0, -22.5],
						"0.5833": [0, 0, -10],
						"0.6667": [0, 0, -2.5],
						"0.8333": [-5, 0, 2.5],
						"1.0833": [-17.34557, 0.13682, -5.40226],
						"1.375": [0, 0, -17.5],
						"1.5": [0, 10, -7.5],
						"1.6667": [-19.05794, 3.84196, -21.82348],
						"1.7917": [0, 12.5, -7.5],
						"2.0": [0, -7.5, -7.5],
						"2.1667": [0, 2.5, -7.5],
						"2.4167": [0, -10.31, -7.5],
						"2.5": [0, -12.5, -7.5]
					}
				},
				"frill5_2": {
					"rotation": {
						"0.0417": [0, 0, 5],
						"0.1667": [0, 0, -5],
						"0.3333": [0, 0, 5],
						"0.5833": [0, 0, 5],
						"0.6667": [0, 0, 0],
						"0.8333": [17.43745, -1.50179, -22.73032],
						"1.0833": [0, -5, -2.5],
						"1.375": [0, -20, 5],
						"1.5": [0, -20, 5],
						"1.6667": [2.44817, -21.42025, 1.64373],
						"1.7917": [0.86337, -0.02467, 2.54244],
						"2.0": [0.96884, 6.12371, -2.78322],
						"2.1667": [-0.44157, 4.96465, 2.35412],
						"2.4167": [2.90524, 2.46187, 4.63173],
						"2.5": [3.11646, 3.25806, 4.29856]
					}
				},
				"frill6_2": {
					"rotation": {
						"0.0417": [0, 0, -5],
						"0.1667": [0, 0, 2.5],
						"0.3333": [0, 0, -5],
						"0.5833": [0, 0, 0],
						"0.6667": [0, 0, 5],
						"0.8333": [10, 0, 7.5],
						"1.0833": [0, 0, 5],
						"1.375": [0, 0, 0],
						"1.5": [-0.22118, 9.99519, -2.52889],
						"1.6667": [-0.23576, 22.49509, -2.5807],
						"1.7917": [-0.22311, 12.49517, -2.53877],
						"2.0": [-0.21865, -5.0047, -2.47142],
						"2.1667": [-0.22311, 12.49517, -2.53877],
						"2.4167": [-0.22, -0.63, -2.49],
						"2.5": [-0.21803, -2.50472, -2.48097]
					}
				},
				"frill7_2": {
					"rotation": {
						"0.0417": [0, 0, 5],
						"0.1667": [0, 0, -5],
						"0.3333": [0, 0, 12.5],
						"0.5833": [0, 0, 5],
						"0.6667": [0, 0, 0],
						"0.8333": [0, 0, -5],
						"1.0833": [0, 0, 12.5],
						"1.375": [0, 0, 12.5],
						"1.5": [0.43562, 2.4666, 12.51414],
						"1.6667": [-0.1085, -2.51184, -4.98336],
						"1.7917": [-0.86674, 5.02409, -2.46692],
						"2.0": [-1.50593, 2.72023, 12.38476],
						"2.1667": [0.70454, 11.20106, 5.20559],
						"2.4167": [2.03, 13.62, 10.64],
						"2.5": [2.44421, 14.70403, 12.91023]
					}
				},
				"frill8_2": {
					"rotation": {
						"0.0417": [0, 0, -5],
						"0.1667": [0, 0, 5],
						"0.3333": [0, 0, -12.5],
						"0.5833": [0, 0, -5],
						"0.6667": [0, 0, 0],
						"0.8333": [0, 0, 5],
						"1.0833": [0, 0, -12.5],
						"1.375": [0, 0, -12.5],
						"1.5": [0, 0, -12.5],
						"1.6667": [-2.2298, 1.16171, -55.03683],
						"1.7917": [-0.86674, 5.02409, -2.46692],
						"2.0": [-2.52547, -5.66366, -12.28992],
						"2.1667": [0.00614, -4.98421, -7.37296],
						"2.4167": [-3.05, -2.28, -8.13],
						"2.5": [-3.38842, -2.97424, -9.29794]
					}
				},
				"hat": {
					"rotation": [2, 0, 0]
				}
			}
		},
		"animation.breloom.blink": {
			"animation_length": 0.1667,
			"bones": {
				"eyelid_right": {
					"position": {
						"0.0": [-0.1, 0, 0],
						"0.125": [-0.1, 0, 0],
						"0.1667": [0, 0, 0]
					}
				},
				"eyelid_left": {
					"position": {
						"0.0": [0.1, 0, 0],
						"0.125": [0.1, 0, 0],
						"0.1667": [0, 0, 0]
					}
				}
			}
		},
		"animation.breloom.cry": {
			"animation_length": 1.5,
			"bones": {
				"neck": {
					"rotation": {
						"0.0": {
							"post": [0, 0, 0],
							"lerp_mode": "catmullrom"
						},
						"0.125": {
							"post": [15.83, 0, 0],
							"lerp_mode": "catmullrom"
						},
						"0.25": {
							"post": [10, 0, 0],
							"lerp_mode": "catmullrom"
						},
						"1.25": {
							"post": [10, 0, 0],
							"lerp_mode": "catmullrom"
						},
						"1.5": {
							"post": [0, 0, 0],
							"lerp_mode": "catmullrom"
						}
					}
				},
				"head": {
					"rotation": {
						"0.0": {
							"post": [0, 0, 0],
							"lerp_mode": "catmullrom"
						},
						"0.1667": {
							"post": [-1.59, 0, 0],
							"lerp_mode": "catmullrom"
						},
						"0.4583": {
							"post": [-25, 0, 0],
							"lerp_mode": "catmullrom"
						},
						"1.25": {
							"post": [-25, 0, 0],
							"lerp_mode": "catmullrom"
						},
						"1.5": {
							"post": [0, 0, 0],
							"lerp_mode": "catmullrom"
						}
					}
				},
				"jaw": {
					"rotation": {
						"0.0": [0, 0, 0],
						"0.25": [45, 0, 0],
						"1.25": [45, 0, 0],
						"1.5": [0, 0, 0]
					}
				}
			}
		}
	}
}