{
  "implemented": true,
  "name": "Poochyena",
  "nationalPokedexNumber": 261,
  "primaryType": "dark",
  "abilities": [
    "runaway",
    "quickfeet",
    "h:rattled"
  ],
  "baseStats": {
    "hp": 35,
    "attack": 55,
    "defence": 35,
    "special_attack": 30,
    "special_defence": 30,
    "speed": 35
  },
  "catchRate": 255,
  "maleRatio": 0.5,
  "shoulderMountable": false,
  "baseExperienceYield": 56,
  "experienceGroup": "medium_fast",
  "eggCycles": 15,
  "eggGroups": [
    "field"
  ],
  "moves": [
    "1:tackle",
    "4:howl",
    "7:sandattack",
    "10:bite",
    "13:odorsleuth",
    "16:roar",
    "19:swagger",
    "22:assurance",
    "25:scaryface",
    "28:embargo",
    "31:taunt",
    "34:crunch",
    "37:yawn",
    "40:takedown",
    "43:suckerpunch",
    "45:thief",
    "46:playrough",
    "egg:astonish",
    "egg:covet",
    "egg:firefang",
    "egg:icefang",
    "egg:leer",
    "egg:mefirst",
    "egg:playrough",
    "egg:poisonfang",
    "egg:sleeptalk",
    "egg:snatch",
    "egg:suckerpunch",
    "egg:thunderfang",
    "egg:yawn",
    "tm:attract",
    "tm:captivate",
    "tm:confide",
    "tm:darkpulse",
    "tm:dig",
    "tm:doubleteam",
    "tm:embargo",
    "tm:endure",
    "tm:facade",
    "tm:frustration",
    "tm:hiddenpower",
    "tm:incinerate",
    "tm:irontail",
    "tm:naturalgift",
    "tm:payback",
    "tm:protect",
    "tm:raindance",
    "tm:rest",
    "tm:retaliate",
    "tm:return",
    "tm:roar",
    "tm:rocksmash",
    "tm:round",
    "tm:secretpower",
    "tm:shadowball",
    "tm:sleeptalk",
    "tm:snarl",
    "tm:snatch",
    "tm:substitute",
    "tm:sunnyday",
    "tm:swagger",
    "tm:taunt",
    "tm:thief",
    "tm:torment",
    "tm:toxic",
    "tutor:bodyslam",
    "tutor:counter",
    "tutor:covet",
    "tutor:darkpulse",
    "tutor:dig",
    "tutor:doubleedge",
    "tutor:endure",
    "tutor:foulplay",
    "tutor:headbutt",
    "tutor:healbell",
    "tutor:howl",
    "tutor:hypervoice",
    "tutor:irontail",
    "tutor:mimic",
    "tutor:mudslap",
    "tutor:poisonfang",
    "tutor:psychup",
    "tutor:sleeptalk",
    "tutor:snatch",
    "tutor:snore",
    "tutor:spite",
    "tutor:substitute",
    "tutor:suckerpunch",
    "tutor:superfang",
    "tutor:swagger",
    "tutor:uproar"
  ],
  "labels": [
    "gen3"
  ],
  "pokedex": [
    "cobblemon.species.poochyena.desc"
  ],
  "evolutions": [
    {
      "id": "poochyena_mightyena",
      "variant": "level_up",
      "result": "mightyena",
      "consumeHeldItem": false,
      "learnableMoves": [],
      "requirements": [
        {
          "variant": "level",
          "minLevel": 18
        }
      ]
    }
  ],
  "baseScale": 0.7,
  "hitbox": {
    "width": 1,
    "height": 1,
    "fixed": false
  },
  "baseFriendship": 70,
  "evYield": {
    "hp": 0,
    "attack": 1,
    "defence": 0,
    "special_attack": 0,
    "special_defence": 0,
    "speed": 0
  },
  "height": 5,
  "weight": 136,
  "aspects": [],
  "cannotDynamax": false
}