{
  "display": {
    "icon": {
      "item": "cobblemon:green_apricorn_seed"
    },
    "title": {
      "translate": "advancements.cobblemon.harvest_apricorn_seed"
    },
    "description": {
      "translate": "advancements.cobblemon.harvest_apricorn_seed.description"
    }
  },
  "parent": "cobblemon:harvest_apricorn",
  "criteria": {
    "check_inv": {
      "trigger": "minecraft:inventory_changed",
      "conditions": {
        "items": [
          {
            "tag": "cobblemon:apricorn_seeds"
          }
        ]
      }
    }
  },
  "sends_telemetry_event": false
}