{
  "credit": "EikoBiko",
  "textures": {
    "mint": "cobblemon:block/white_mint_stage_0",
    "particle": "cobblemon:block/white_mint_stage_0"
  },
  "elements": [
    {
      "from": [6.5, -1, 4],
      "to": [9.5, -1, 8],
      "rotation": {"angle": 22.5, "axis": "x", "origin": [8, -1, 8]},
      "faces": {
        "north": {"uv": [0, 0, 3, 0], "texture": "mint"},
        "east": {"uv": [0, 0, 4, 0], "texture": "mint"},
        "south": {"uv": [0, 0, 3, 0], "texture": "mint"},
        "west": {"uv": [0, 0, 4, 0], "texture": "mint"},
        "up": {"uv": [4, 3, 0, 0], "rotation": 90, "texture": "mint"},
        "down": {"uv": [4, 3, 0, 6], "rotation": 270, "texture": "mint"}
      }
    },
    {
      "from": [4, -1, 6.5],
      "to": [8, -1, 9.5],
      "rotation": {"angle": -22.5, "axis": "z", "origin": [8, -1, 8]},
      "faces": {
        "north": {"uv": [0, 0, 4, 0], "texture": "mint"},
        "east": {"uv": [0, 0, 3, 0], "texture": "mint"},
        "south": {"uv": [0, 0, 4, 0], "texture": "mint"},
        "west": {"uv": [0, 0, 3, 0], "texture": "mint"},
        "up": {"uv": [8, 3, 4, 0], "texture": "mint"},
        "down": {"uv": [8, 3, 4, 6], "texture": "mint"}
      }
    },
    {
      "from": [6.5, -1, 8],
      "to": [9.5, -1, 12],
      "rotation": {"angle": -22.5, "axis": "x", "origin": [8, -1, 8]},
      "faces": {
        "north": {"uv": [0, 0, 3, 0], "texture": "mint"},
        "east": {"uv": [0, 0, 4, 0], "texture": "mint"},
        "south": {"uv": [0, 0, 3, 0], "texture": "mint"},
        "west": {"uv": [0, 0, 4, 0], "texture": "mint"},
        "up": {"uv": [4, 3, 0, 0], "rotation": 270, "texture": "mint"},
        "down": {"uv": [4, 3, 0, 6], "rotation": 90, "texture": "mint"}
      }
    },
    {
      "from": [8, -1, 6.5],
      "to": [12, -1, 9.5],
      "rotation": {"angle": 22.5, "axis": "z", "origin": [8, -1, 8]},
      "faces": {
        "north": {"uv": [0, 0, 4, 0], "texture": "mint"},
        "east": {"uv": [0, 0, 3, 0], "texture": "mint"},
        "south": {"uv": [0, 0, 4, 0], "texture": "mint"},
        "west": {"uv": [0, 0, 3, 0], "texture": "mint"},
        "up": {"uv": [8, 3, 4, 0], "rotation": 180, "texture": "mint"},
        "down": {"uv": [8, 3, 4, 6], "rotation": 180, "texture": "mint"}
      }
    }
  ],
  "display": {
    "thirdperson_righthand": {
      "translation": [0, 4, 1]
    },
    "ground": {
      "translation": [0, 5.5, 0]
    },
    "gui": {
      "rotation": [45, 45, 0],
      "translation": [0, 2.75, 0]
    },
    "head": {
      "translation": [0, 15, 0]
    }
  },
  "groups": [
    {
      "name": "mint1",
      "origin": [8, 8, 8],
      "color": 0,
      "children": [0, 1, 2, 3]
    }
  ]
}